﻿<?xml version="1.0"?>
<!-- Generator: Adobe Illustrator 10.0, SVG Export Plug-In . SVG Version: 3.0.0 Build 77)  -->
<!DOCTYPE svg PUBLIC "-//W3C//DTD SVG 1.0//EN" "http://www.w3.org/TR/2001/REC-SVG-20010904/DTD/svg10.dtd"[
	<!ENTITY ns_flows "http://ns.adobe.com/Flows/1.0/">
	<!ENTITY ns_svg "http://www.w3.org/2000/svg">
	<!ENTITY ns_xlink "http://www.w3.org/1999/xlink">
	<!ENTITY st0 "fill:none;stroke:#000000;stroke-linecap:round;stroke-linejoin:round;">
	<!ENTITY st1 "fill:none;stroke:#000000;stroke-width:0.6;stroke-linecap:round;stroke-linejoin:round;">
	<!ENTITY st2 "font-size:6px;">
	<!ENTITY st3 "font-family:'Arial';">
	<!ATTLIST svg
		ewd:ver CDATA #IMPLIED
		xmlns:ewd CDATA #FIXED "http://shcl.co.jp/ewd"
		xmlns:a CDATA #FIXED "http://ns.adobe.com/AdobeSVGViewerExtensions/3.0/">
	<!ATTLIST g
		ewd:pinNo CDATA #IMPLIED>
]>
<svg width="48.332" height="55.25" viewBox="0 0 48.332 55.25" style="overflow:visible;enable-background:new 0 0 48.332 55.25" xml:space="preserve" onload="call_execInitLoadProc_svg('connector')" ewd:ver="L2.1.2.7" xmlns="&ns_svg;" xmlns:ewd="http://shcl.co.jp/ewd" xmlns:a="http://ns.adobe.com/AdobeSVGViewerExtensions/3.0/" xmlns:xlink="&ns_xlink;">
<script type="text/javascript" xlink:href="../../../../../system/js/ewd/fig/svgfig.js"/>
<g id="レイヤー_1">
	<path style="&st1;" d="M24.036,17.355v11.332"/>
	<path style="&st1;" d="M14.971,17.355h18.13"/>
	<path style="&st1;" d="M14.971,28.687h18.13"/>
	<path style="&st1;" d="M14.262,4.75v1.082"/>
	<path style="&st0;" d="M18.512,0.5H29.56"/>
	<path style="&st1;" d="M14.971,31.52h18.13"/>
	<path style="&st1;" d="M14.971,14.523h18.13"/>
	<path style="&st1;" d="M14.971,35.77h18.13"/>
	<path style="&st1;" d="M14.971,37.752h18.13"/>
	<path style="&st1;" d="M17.662,2.483H30.41"/>
	<path style="&st1;" d="M16.246,3.899v4.958"/>
	<path style="&st1;" d="M31.826,3.899v4.958"/>
	<path style="&st1;" d="M18.229,5.6v8.923"/>
	<path style="&st1;" d="M29.843,5.6v8.923"/>
	<path style="&st1;" d="M20.211,3.616h7.648"/>
	<path style="&st1;" d="M19.928,7.016v3.323"/>
	<path style="&st1;" d="M28.144,7.016v3.323"/>
	<path style="&st1;" d="M33.809,4.75v1.082"/>
	<path style="&st1;" d="M14.971,17.355c-3.129,0-5.666,2.537-5.666,5.666"/>
	<path style="&st1;" d="M9.305,23.021c0,3.129,2.537,5.666,5.666,5.666"/>
	<path style="&st1;" d="M33.101,28.687c3.129,0,5.666-2.537,5.666-5.666"/>
	<path style="&st1;" d="M38.767,23.021c0-3.129-2.537-5.666-5.666-5.666"/>
	<path style="&st1;" d="M11.894,8.625c1.381-0.229,2.367-1.393,2.367-2.793"/>
	<path style="&st1;" d="M33.101,31.52c4.693,0,8.499-3.805,8.499-8.499"/>
	<path style="&st1;" d="M41.6,23.021c0-4.693-3.805-8.499-8.499-8.499"/>
	<path style="&st1;" d="M14.971,14.523c-4.694,0-8.499,3.805-8.499,8.499"/>
	<path style="&st1;" d="M6.472,23.021c0,4.693,3.805,8.499,8.499,8.499"/>
	<path style="&st1;" d="M14.843,10.274c-7.041,0.07-12.691,5.834-12.621,12.875"/>
	<path style="&st1;" d="M2.223,23.149c0.07,6.996,5.752,12.621,12.748,12.621"/>
	<path style="&st1;" d="M33.101,35.77c7.04,0,12.748-5.708,12.748-12.748"/>
	<path style="&st1;" d="M45.849,23.021c0-6.996-5.625-12.677-12.62-12.747"/>
	<path style="&st0;" d="M33.101,37.752c8.135,0,14.73-6.595,14.73-14.731"/>
	<path style="&st0;" d="M47.832,23.021c0-7.046-4.764-12.935-11.654-14.406"/>
	<path style="&st0;" d="M11.894,8.616C3.938,10.315-1.133,18.143,0.565,26.098"/>
	<path style="&st0;" d="M0.565,26.098c1.472,6.89,7.36,11.654,14.405,11.654"/>
	<path style="&st1;" d="M17.662,2.483c-0.782,0-1.416,0.634-1.416,1.417"/>
	<path style="&st1;" d="M31.826,3.899c0-0.782-0.634-1.417-1.417-1.417"/>
	<path style="&st0;" d="M18.512,0.5c-2.347,0-4.25,1.903-4.25,4.25"/>
	<path style="&st0;" d="M33.809,4.75c0-2.347-1.902-4.25-4.25-4.25"/>
	<path style="&st1;" d="M20.211,3.616c-1.095,0-1.983,0.888-1.983,1.983"/>
	<path style="&st1;" d="M29.843,5.6c0-1.096-0.888-1.983-1.983-1.983"/>
	<path style="&st1;" d="M14.843,10.274c0.777-0.008,1.402-0.639,1.402-1.417"/>
	<path style="&st1;" d="M33.809,5.832c0,1.4,0.987,2.565,2.368,2.794"/>
	<path style="&st1;" d="M31.826,8.857c0,0.777,0.625,1.408,1.402,1.416"/>
	<path style="&st1;" d="M16.246,7.259c0,0.391,0.317,0.708,0.708,0.708"/>
	<path style="&st1;" d="M17.52,7.968c0.391,0,0.708-0.317,0.708-0.708"/>
	<path style="&st1;" d="M18.229,9.809c0-0.391-0.317-0.708-0.708-0.708"/>
	<path style="&st1;" d="M21.344,5.6c-0.782,0-1.416,0.634-1.416,1.417"/>
	<path style="&st1;" d="M28.144,7.016c0-0.783-0.634-1.417-1.417-1.417"/>
	<path style="&st0;" d="M13.027,2.483c-0.626,0-1.133,0.508-1.133,1.133"/>
	<path style="&st0;" d="M14.262,3.616c0-0.625-0.507-1.133-1.133-1.133"/>
	<path style="&st1;" d="M31.118,7.968c0.391,0,0.708-0.317,0.708-0.708"/>
	<path style="&st1;" d="M29.843,7.259c0,0.391,0.317,0.708,0.708,0.708"/>
	<path style="&st1;" d="M30.551,9.101c-0.391,0-0.708,0.317-0.708,0.708"/>
	<path style="&st0;" d="M36.177,3.616c0-0.625-0.507-1.133-1.133-1.133"/>
	<path style="&st0;" d="M34.942,2.483c-0.626,0-1.133,0.508-1.133,1.133"/>
	<path style="&st1;" d="M20.919,26.421c-0.625,0-1.133,0.507-1.133,1.133"/>
	<path style="&st1;" d="M22.053,27.554c0-0.626-0.507-1.133-1.133-1.133"/>
	<path style="&st1;" d="M28.285,27.554c0-0.626-0.507-1.133-1.133-1.133"/>
	<path style="&st1;" d="M27.152,26.421c-0.626,0-1.133,0.507-1.133,1.133"/>
	<path style="&st0;" d="M5.905,37.752c-1.564,0-2.833,1.268-2.833,2.833"/>
	<path style="&st1;" d="M17.237,40.585c-1.764-0.396-3.335-0.396-5.099,0"/>
	<path style="&st0;" d="M44.999,40.585c0-1.564-1.269-2.833-2.833-2.833"/>
	<path style="&st0;" d="M35.934,40.585c-1.763-0.396-3.335-0.396-5.099,0"/>
	<path style="&st0;" d="M13.554,42.001c-1.369,0.783-1.845,2.526-1.063,3.896"/>
	<path style="&st0;" d="M12.492,45.897c0.265,0.464,0.598,0.797,1.063,1.062"/>
	<path style="&st0;" d="M15.82,46.959c1.369-0.782,1.845-2.526,1.063-3.895"/>
	<path style="&st0;" d="M16.883,43.064c-0.265-0.464-0.598-0.797-1.063-1.063"/>
	<path style="&st0;" d="M34.517,46.959c1.369-0.782,1.845-2.526,1.063-3.895"/>
	<path style="&st0;" d="M35.58,43.064c-0.265-0.464-0.598-0.797-1.063-1.063"/>
	<path style="&st0;" d="M32.251,42.001c-1.369,0.783-1.845,2.526-1.063,3.896"/>
	<path style="&st0;" d="M31.188,45.897c0.266,0.464,0.599,0.797,1.063,1.062"/>
	<path style="&st1;" d="M18.229,5.6h11.615"/>
	<path style="&st1;" d="M16.954,7.968h0.566"/>
	<path style="&st1;" d="M16.246,9.101h1.274"/>
	<path style="&st1;" d="M14.843,10.274v4.249"/>
	<path style="&st1;" d="M18.229,10.339h11.615"/>
	<path style="&st1;" d="M18.229,13.106h2.833"/>
	<path style="&st1;" d="M21.061,10.339v4.184"/>
	<path style="&st0;" d="M11.894,8.625V3.616"/>
	<path style="&st0;" d="M13.027,2.483h0.102"/>
	<path style="&st0;" d="M14.262,3.616V4.75"/>
	<path style="&st1;" d="M31.118,7.968h-0.566"/>
	<path style="&st1;" d="M31.826,9.101h-1.275"/>
	<path style="&st1;" d="M33.229,10.274v4.249"/>
	<path style="&st1;" d="M29.843,13.106H27.01"/>
	<path style="&st1;" d="M27.01,10.339v4.184"/>
	<path style="&st0;" d="M36.177,8.625V3.616"/>
	<path style="&st0;" d="M35.044,2.483h-0.102"/>
	<path style="&st0;" d="M33.809,3.616V4.75"/>
	<path style="&st1;" d="M19.786,27.554v1.133"/>
	<path style="&st1;" d="M22.053,27.554v1.133"/>
	<path style="&st1;" d="M28.285,27.554v1.133"/>
	<path style="&st1;" d="M26.019,27.554v1.133"/>
	<path style="&st0;" d="M3.072,40.585v8.499"/>
	<path style="&st0;" d="M3.072,49.084l5.666,5.666"/>
	<path style="&st0;" d="M12.138,49.084L8.738,54.75"/>
	<path style="&st0;" d="M14.971,37.752H5.905"/>
	<path style="&st0;" d="M12.138,48.375v0.708"/>
	<path style="&st0;" d="M17.237,48.375V50.5"/>
	<path style="&st1;" d="M3.072,42.001h4.816v4.25H3.072"/>
	<path style="&st1;" d="M6.472,42.001v4.25"/>
	<path style="&st0;" d="M44.999,40.585v8.499"/>
	<path style="&st0;" d="M44.999,49.084l-5.666,5.666"/>
	<path style="&st0;" d="M35.934,49.084l3.399,5.666"/>
	<path style="&st0;" d="M33.101,37.752h9.065"/>
	<path style="&st0;" d="M35.934,48.375v0.708"/>
	<path style="&st0;" d="M30.834,48.375V50.5"/>
	<path style="&st1;" d="M44.999,42.001h-4.816v4.25h4.816"/>
	<path style="&st1;" d="M41.6,42.001v4.25"/>
	<path style="&st0;" d="M17.237,50.5h13.598"/>
	<path style="&st0;" d="M12.138,40.585l1.417,1.417"/>
	<path style="&st0;" d="M12.138,48.375l1.417-1.417"/>
	<path style="&st0;" d="M17.237,40.585l-1.417,1.417"/>
	<path style="&st0;" d="M17.237,48.375l-1.417-1.417"/>
	<path style="&st0;" d="M35.934,40.585l-1.417,1.417"/>
	<path style="&st0;" d="M35.934,48.375l-1.417-1.417"/>
	<path style="&st0;" d="M30.834,40.585l1.417,1.417"/>
	<path style="&st0;" d="M30.834,48.375l1.417-1.417"/>
	<path style="&st1;" d="M12.138,40.585v7.791"/>
	<path style="&st1;" d="M17.237,40.585v7.791"/>
	<path style="&st1;" d="M30.834,40.585v7.791"/>
	<path style="&st1;" d="M35.934,40.585v7.791"/>
	<g ewd:pinNo="1">
		<text transform="matrix(1 0 0 1 14.7095 24.6328)"><tspan x="0" y="0" style="&st3; &st2;">1</tspan></text>
	</g>
	<g ewd:pinNo="2">
		<text transform="matrix(1 0 0 1 29.7236 24.6328)"><tspan x="0" y="0" style="&st3; &st2;">2</tspan></text>
	</g>
</g>
</svg>