﻿<?xml version="1.0"?>
<!-- Generator: Adobe Illustrator 10.0, SVG Export Plug-In . SVG Version: 3.0.0 Build 77)  -->
<!DOCTYPE svg PUBLIC "-//W3C//DTD SVG 1.0//EN" "http://www.w3.org/TR/2001/REC-SVG-20010904/DTD/svg10.dtd"[
	<!ENTITY ns_flows "http://ns.adobe.com/Flows/1.0/">
	<!ENTITY ns_svg "http://www.w3.org/2000/svg">
	<!ENTITY ns_xlink "http://www.w3.org/1999/xlink">
	<!ENTITY st0 "fill:none;stroke:#000000;stroke-linecap:round;stroke-linejoin:round;">
	<!ENTITY st1 "fill:none;stroke:#000000;stroke-width:0.6;stroke-linecap:round;stroke-linejoin:round;">
	<!ENTITY st2 "font-size:6px;">
	<!ENTITY st3 "font-family:'Arial';">
	<!ATTLIST svg
		ewd:ver CDATA #IMPLIED
		xmlns:ewd CDATA #FIXED "http://shcl.co.jp/ewd"
		xmlns:a CDATA #FIXED "http://ns.adobe.com/AdobeSVGViewerExtensions/3.0/">
	<!ATTLIST g
		ewd:pinNo CDATA #IMPLIED>
]>
<svg width="81.737" height="67.099" viewBox="0 0 81.737 67.099" style="overflow:visible;enable-background:new 0 0 81.737 67.099" xml:space="preserve" onload="call_execInitLoadProc_svg('connector')" ewd:ver="L2.1.2.7" xmlns="&ns_svg;" xmlns:ewd="http://shcl.co.jp/ewd" xmlns:a="http://ns.adobe.com/AdobeSVGViewerExtensions/3.0/" xmlns:xlink="&ns_xlink;">
<script type="text/javascript" xlink:href="../../../../../system/js/ewd/fig/svgfig.js"/>
<g id="レイヤー_1">
	<path style="&st0;" d="M59.542,66.599c1.757,0,3.252-0.453,4.714-1.427"/>
	<path style="&st0;" d="M17.48,65.172c1.462,0.974,2.957,1.427,4.714,1.427"/>
	<path style="&st0;" d="M77.183,2.112c-0.483-1.01-1.435-1.611-2.555-1.611"/>
	<path style="&st1;" d="M77.46,3.333c0-0.444-0.085-0.821-0.277-1.221"/>
	<path style="&st1;" d="M4.554,2.112C4.362,2.513,4.277,2.889,4.277,3.333"/>
	<path style="&st0;" d="M7.109,0.5c-1.121,0-2.073,0.601-2.556,1.612"/>
	<path style="&st1;" d="M69.905,6.166c0-1.564-1.268-2.833-2.833-2.833"/>
	<path style="&st0;" d="M0.5,58.001c0,0.979,0.446,1.814,1.261,2.357"/>
	<path style="&st1;" d="M14.664,3.333c-1.564,0-2.833,1.269-2.833,2.833"/>
	<path style="&st0;" d="M79.976,60.358c0.814-0.543,1.261-1.378,1.261-2.357"/>
	<path style="&st0;" d="M22.194,66.599h37.349"/>
	<path style="&st1;" d="M0.5,56.685h80.736"/>
	<path style="&st1;" d="M6.166,28.355v25.496h69.405V28.355H6.166"/>
	<path style="&st1;" d="M25.996,53.852V28.355"/>
	<path style="&st1;" d="M35.911,53.852V28.355"/>
	<path style="&st1;" d="M45.826,53.852V28.355"/>
	<path style="&st1;" d="M55.741,53.852V28.355"/>
	<path style="&st0;" d="M64.256,65.172l15.719-4.813"/>
	<path style="&st0;" d="M17.48,65.172L1.761,60.358"/>
	<path style="&st1;" d="M6.166,22.69h12.748v-9.915h43.909v9.915h12.748"/>
	<path style="&st1;" d="M0.5,14.665l1.89-1.89h1.886l1.89,1.89v8.025"/>
	<path style="&st1;" d="M81.236,14.665l-1.889-1.89H77.46l-1.89,1.89v8.025"/>
	<path style="&st0;" d="M0.5,58.001V6.166"/>
	<path style="&st0;" d="M81.236,58.001V6.166"/>
	<path style="&st0;" d="M7.109,0.5h67.519"/>
	<path style="&st1;" d="M4.276,3.333v9.442"/>
	<path style="&st1;" d="M77.46,12.775V3.333"/>
	<path style="&st0;" d="M77.183,2.112l4.054,4.054"/>
	<path style="&st0;" d="M4.554,2.112L0.5,6.166"/>
	<path style="&st1;" d="M11.832,22.69V6.166"/>
	<path style="&st1;" d="M69.905,22.69V6.166"/>
	<path style="&st1;" d="M14.664,3.333h52.408"/>
	<path style="&st1;" d="M34.848,12.775V7.109h12.04v5.666"/>
	<path style="&st1;" d="M6.166,41.104h69.405"/>
	<path style="&st1;" d="M16.081,53.852V28.355"/>
	<path style="&st1;" d="M65.656,53.852V28.355"/>
	<path style="&st1;" d="M18.914,12.775v-4.25h7.082l1.983,1.983v2.266"/>
	<path style="&st1;" d="M27.979,10.509h6.87"/>
	<path style="&st1;" d="M62.823,12.775v-4.25h-7.082l-1.983,1.983v2.266"/>
	<path style="&st1;" d="M53.758,10.509h-6.87"/>
	<g ewd:pinNo="1">
		<text transform="matrix(1 0 0 1 9.5459 37.0151)"><tspan x="0" y="0" style="&st3; &st2;">1</tspan></text>
	</g>
	<g ewd:pinNo="3">
		<text transform="matrix(1 0 0 1 29.376 37.0151)"><tspan x="0" y="0" style="&st3; &st2;">3</tspan></text>
	</g>
	<g ewd:pinNo="4">
		<text transform="matrix(1 0 0 1 39.291 37.0151)"><tspan x="0" y="0" style="&st3; &st2;">4</tspan></text>
	</g>
	<g ewd:pinNo="5">
		<text transform="matrix(1 0 0 1 49.2056 37.0151)"><tspan x="0" y="0" style="&st3; &st2;">5</tspan></text>
	</g>
	<g ewd:pinNo="7">
		<text transform="matrix(1 0 0 1 69.0361 37.0151)"><tspan x="0" y="0" style="&st3; &st2;">7</tspan></text>
	</g>
	<g ewd:pinNo="12">
		<text transform="matrix(1 0 0 1 47.1895 49.7632)"><tspan x="0" y="0" style="&st3; &st2;">12</tspan></text>
	</g>
	<g ewd:pinNo="14">
		<text transform="matrix(1 0 0 1 67.0195 49.7632)"><tspan x="0" y="0" style="&st3; &st2;">14</tspan></text>
	</g>
	<g ewd:pinNo="11">
		<text transform="matrix(1 0 0 1 37.4971 49.7632)"><tspan x="0" y="0" style="&st3; &st2;">11</tspan></text>
	</g>
	<g ewd:pinNo="10">
		<text transform="matrix(1 0 0 1 27.3594 49.7632)"><tspan x="0" y="0" style="&st3; &st2;">10</tspan></text>
	</g>
	<g ewd:pinNo="8">
		<text transform="matrix(1 0 0 1 9.5459 49.7632)"><tspan x="0" y="0" style="&st3; &st2;">8</tspan></text>
	</g>
	<g ewd:pinNo="2">
		<text transform="matrix(1 0 0 1 19.4609 37.0151)"><tspan x="0" y="0" style="&st3; &st2;">2</tspan></text>
	</g>
	<g ewd:pinNo="9">
		<text transform="matrix(1 0 0 1 19.4609 49.7632)"><tspan x="0" y="0" style="&st3; &st2;">9</tspan></text>
	</g>
	<g ewd:pinNo="6">
		<text transform="matrix(1 0 0 1 59.1211 37.0151)"><tspan x="0" y="0" style="&st3; &st2;">6</tspan></text>
	</g>
	<g ewd:pinNo="13">
		<text transform="matrix(1 0 0 1 57.1045 49.7632)"><tspan x="0" y="0" style="&st3; &st2;">13</tspan></text>
	</g>
</g>
</svg>