﻿<?xml version="1.0"?>
<!-- Generator: Adobe Illustrator 10.0, SVG Export Plug-In . SVG Version: 3.0.0 Build 77)  -->
<!DOCTYPE svg PUBLIC "-//W3C//DTD SVG 1.0//EN" "http://www.w3.org/TR/2001/REC-SVG-20010904/DTD/svg10.dtd"[
	<!ENTITY ns_flows "http://ns.adobe.com/Flows/1.0/">
	<!ENTITY ns_svg "http://www.w3.org/2000/svg">
	<!ENTITY ns_xlink "http://www.w3.org/1999/xlink">
	<!ENTITY st0 "fill:none;stroke:#000000;stroke-linecap:round;stroke-linejoin:round;">
	<!ENTITY st1 "fill:none;stroke:#000000;stroke-width:0.6;stroke-linecap:round;stroke-linejoin:round;">
	<!ENTITY st2 "font-size:6px;">
	<!ENTITY st3 "font-family:'Arial';">
	<!ATTLIST svg
		ewd:ver CDATA #IMPLIED
		xmlns:ewd CDATA #FIXED "http://shcl.co.jp/ewd"
		xmlns:a CDATA #FIXED "http://ns.adobe.com/AdobeSVGViewerExtensions/3.0/">
	<!ATTLIST g
		ewd:pinNo CDATA #IMPLIED>
]>
<svg width="79.753" height="58.224" viewBox="0 0 79.753 58.224" style="overflow:visible;enable-background:new 0 0 79.753 58.224" xml:space="preserve" onload="call_execInitLoadProc_svg('connector')" ewd:ver="L2.1.2.7" xmlns="&ns_svg;" xmlns:ewd="http://shcl.co.jp/ewd" xmlns:a="http://ns.adobe.com/AdobeSVGViewerExtensions/3.0/" xmlns:xlink="&ns_xlink;">
<script type="text/javascript" xlink:href="../../../../../system/js/ewd/fig/svgfig.js"/>
<g id="レイヤー_1">
	<path style="&st1;" d="M75.854,10.132h-5.099"/>
	<path style="&st1;" d="M52.137,10.132h-6.028"/>
	<path style="&st0;" d="M70.755,10.132H52.137"/>
	<path style="&st1;" d="M44.692,24.58h-3.116"/>
	<path style="&st1;" d="M20.896,24.58h3.116"/>
	<path style="&st0;" d="M79.253,45.826V6.732"/>
	<path style="&st1;" d="M19.48,10.132h-6.028"/>
	<path style="&st1;" d="M8.999,10.132H3.899"/>
	<path style="&st0;" d="M13.452,10.132H8.999"/>
	<path style="&st0;" d="M24.013,24.58h1.417"/>
	<path style="&st0;" d="M41.577,24.58H40.16"/>
	<path style="&st0;" d="M75.004,4.466c-1.251,0-2.266,1.015-2.266,2.266"/>
	<path style="&st0;" d="M79.253,6.732c0-1.251-1.015-2.266-2.266-2.266"/>
	<path style="&st0;" d="M41.577,24.58c0.938,0,1.699-0.761,1.699-1.7"/>
	<path style="&st0;" d="M41.304,9.223c0.369-0.335,0.556-0.76,0.556-1.258"/>
	<path style="&st0;" d="M38.744,23.163c0,0.782,0.634,1.417,1.417,1.417"/>
	<path style="&st0;" d="M7.016,6.732c0-1.251-1.015-2.266-2.267-2.266"/>
	<path style="&st0;" d="M2.766,4.466C1.515,4.466,0.5,5.481,0.5,6.732"/>
	<path style="&st0;" d="M22.313,22.88c0,0.938,0.761,1.7,1.7,1.7"/>
	<path style="&st0;" d="M23.729,7.965c0,0.498,0.188,0.922,0.556,1.257"/>
	<path style="&st0;" d="M25.429,24.58c0.782,0,1.417-0.634,1.417-1.417"/>
	<path style="&st1;" d="M3.899,10.132c-1.877,0-3.399,1.522-3.399,3.399"/>
	<path style="&st0;" d="M0.5,45.826c0,1.877,1.522,3.399,3.399,3.399"/>
	<path style="&st1;" d="M79.253,13.531c0-1.877-1.522-3.399-3.399-3.399"/>
	<path style="&st0;" d="M75.854,49.226c1.877,0,3.399-1.522,3.399-3.399"/>
	<path style="&st0;" d="M22.313,12.965c0-0.363-0.057-0.67-0.186-1.009"/>
	<path style="&st0;" d="M7.016,8.149c0,1.095,0.888,1.983,1.983,1.983"/>
	<path style="&st0;" d="M18.191,4.466c-1.073,0-1.986,0.545-2.495,1.491"/>
	<path style="&st0;" d="M21.174,6.787c-0.25-1.36-1.402-2.319-2.785-2.319"/>
	<path style="&st1;" d="M46.109,10.132c-1.202,0-2.219,0.701-2.647,1.824"/>
	<path style="&st0;" d="M49.894,5.956c-0.508-0.945-1.422-1.491-2.496-1.491"/>
	<path style="&st0;" d="M47.2,4.466c-1.383,0-2.536,0.959-2.786,2.32"/>
	<path style="&st0;" d="M70.755,10.132c1.095,0,1.983-0.888,1.983-1.983"/>
	<path style="&st0;" d="M3.899,52.058c0,0.782,0.634,1.417,1.417,1.417"/>
	<path style="&st0;" d="M74.438,53.475c0.782,0,1.417-0.634,1.417-1.417"/>
	<path style="&st0;" d="M14.004,56.826c1.239,0.619,2.415,0.896,3.799,0.896"/>
	<path style="&st0;" d="M61.95,57.724c1.385,0,2.561-0.278,3.8-0.897"/>
	<path style="&st1;" d="M22.126,11.956c-0.428-1.122-1.445-1.823-2.646-1.823"/>
	<path style="&st0;" d="M43.463,11.956c-0.129,0.339-0.186,0.646-0.186,1.009"/>
	<path style="&st0;" d="M26.562,0.5c-1.564,0-2.833,1.269-2.833,2.833"/>
	<path style="&st0;" d="M41.86,3.333c0-1.564-1.269-2.833-2.833-2.833"/>
	<path style="&st0;" d="M43.276,12.965v9.915"/>
	<path style="&st0;" d="M75.004,4.466h1.983"/>
	<path style="&st0;" d="M72.738,6.732v1.417"/>
	<path style="&st0;" d="M41.86,3.333v4.632"/>
	<path style="&st0;" d="M38.744,11.548v11.615"/>
	<path style="&st0;" d="M38.744,11.548l2.561-2.326"/>
	<path style="&st1;" d="M35.911,7.583h2.833"/>
	<path style="&st1;" d="M38.744,7.583v3.966"/>
	<path style="&st0;" d="M22.313,12.965v9.915"/>
	<path style="&st0;" d="M4.749,4.466H2.766"/>
	<path style="&st0;" d="M7.016,6.732v1.417"/>
	<path style="&st0;" d="M23.729,3.333v4.632"/>
	<path style="&st0;" d="M26.846,11.548v11.615"/>
	<path style="&st0;" d="M26.846,11.548l-2.561-2.326"/>
	<path style="&st1;" d="M29.678,7.583h-2.833"/>
	<path style="&st1;" d="M26.846,7.583v3.966"/>
	<path style="&st1;" d="M3.899,49.226h71.955"/>
	<path style="&st1;" d="M41.48,1.917H24.109"/>
	<path style="&st0;" d="M0.5,45.826V6.732"/>
	<path style="&st1;" d="M38.744,9.282H26.846"/>
	<path style="&st1;" d="M37.044,7.583v-3.4h-8.499v3.4"/>
	<path style="&st1;" d="M29.673,5.316h6.238v2.833h-6.232V5.316"/>
	<path style="&st1;" d="M4.466,15.231v25.495h70.822V15.231H46.959v12.748H18.63V15.231H4.466"/>
	<path style="&st1;" d="M61.123,15.231v25.495"/>
	<path style="&st1;" d="M46.959,27.979v12.748"/>
	<path style="&st1;" d="M46.959,27.979h28.329"/>
	<path style="&st1;" d="M32.794,27.979v12.748"/>
	<path style="&st1;" d="M18.63,27.979v12.748"/>
	<path style="&st1;" d="M4.466,27.979H18.63"/>
	<path style="&st1;" d="M77.271,48.917V10.441"/>
	<path style="&st0;" d="M21.174,6.787l0.952,5.169"/>
	<path style="&st0;" d="M13.452,10.132l2.244-4.176"/>
	<path style="&st0;" d="M18.191,4.466h0.199"/>
	<path style="&st1;" d="M18.622,6.166v3.966"/>
	<path style="&st1;" d="M20.896,10.512V24.58"/>
	<path style="&st1;" d="M44.692,10.512V24.58"/>
	<path style="&st0;" d="M44.415,6.787l-0.952,5.169"/>
	<path style="&st0;" d="M52.137,10.132l-2.244-4.176"/>
	<path style="&st0;" d="M47.398,4.466H47.2"/>
	<path style="&st1;" d="M46.964,6.166v3.966"/>
	<path style="&st1;" d="M2.483,48.917V10.441"/>
	<path style="&st1;" d="M15.797,40.727v2.833H7.299v2.833h16.431V43.56h-2.267v-2.833"/>
	<path style="&st1;" d="M63.956,40.727v2.833h8.499v2.833H56.024V43.56h2.266v-2.833"/>
	<path style="&st1;" d="M29.961,40.727v2.833h-2.833v2.833H38.46V43.56h-2.833v-2.833"/>
	<path style="&st1;" d="M49.792,40.727v2.833h2.833v2.833H41.293V43.56h2.833v-2.833"/>
	<path style="&st0;" d="M75.854,49.226v2.833"/>
	<path style="&st0;" d="M3.899,49.226v2.833"/>
	<path style="&st0;" d="M17.803,57.724H61.95"/>
	<path style="&st0;" d="M72.455,53.475l-6.706,3.352"/>
	<path style="&st0;" d="M7.299,53.475l6.705,3.352"/>
	<path style="&st1;" d="M74.438,49.226v4.249"/>
	<path style="&st1;" d="M3.899,52.058h71.955"/>
	<path style="&st1;" d="M5.316,49.226v4.249"/>
	<path style="&st0;" d="M72.455,53.475h1.983"/>
	<path style="&st0;" d="M5.316,53.475h1.983"/>
	<path style="&st1;" d="M7.299,53.475h65.156"/>
	<path style="&st0;" d="M39.027,0.5H26.562"/>
	<g ewd:pinNo="3">
		<text transform="matrix(1 0 0 1 66.5122 23.9102)"><tspan x="0" y="0" style="&st3; &st2;">3</tspan></text>
	</g>
	<g ewd:pinNo="8">
		<text transform="matrix(1 0 0 1 66.5122 36.6582)"><tspan x="0" y="0" style="&st3; &st2;">8</tspan></text>
	</g>
	<g ewd:pinNo="2">
		<text transform="matrix(1 0 0 1 52.3477 23.9102)"><tspan x="0" y="0" style="&st3; &st2;">2</tspan></text>
	</g>
	<g ewd:pinNo="1">
		<text transform="matrix(1 0 0 1 9.855 23.9102)"><tspan x="0" y="0" style="&st3; &st2;">1</tspan></text>
	</g>
	<g ewd:pinNo="7">
		<text transform="matrix(1 0 0 1 52.3477 36.6582)"><tspan x="0" y="0" style="&st3; &st2;">7</tspan></text>
	</g>
	<g ewd:pinNo="6">
		<text transform="matrix(1 0 0 1 38.1836 36.6582)"><tspan x="0" y="0" style="&st3; &st2;">6</tspan></text>
	</g>
	<g ewd:pinNo="5">
		<text transform="matrix(1 0 0 1 24.019 36.6582)"><tspan x="0" y="0" style="&st3; &st2;">5</tspan></text>
	</g>
	<g ewd:pinNo="4">
		<text transform="matrix(1 0 0 1 9.855 36.6582)"><tspan x="0" y="0" style="&st3; &st2;">4</tspan></text>
	</g>
</g>
</svg>