﻿<?xml version="1.0"?>
<!-- Generator: Adobe Illustrator 10.0, SVG Export Plug-In . SVG Version: 3.0.0 Build 77)  -->
<!DOCTYPE svg PUBLIC "-//W3C//DTD SVG 1.0//EN" "http://www.w3.org/TR/2001/REC-SVG-20010904/DTD/svg10.dtd"[
	<!ENTITY ns_flows "http://ns.adobe.com/Flows/1.0/">
	<!ENTITY ns_svg "http://www.w3.org/2000/svg">
	<!ENTITY ns_xlink "http://www.w3.org/1999/xlink">
	<!ENTITY st0 "fill:none;stroke:#000000;stroke-linecap:round;stroke-linejoin:round;">
	<!ENTITY st1 "fill:none;stroke:#000000;stroke-width:0.6;stroke-linecap:round;stroke-linejoin:round;">
	<!ENTITY st2 "font-size:6px;">
	<!ENTITY st3 "font-family:'Arial';">
	<!ATTLIST svg
		ewd:ver CDATA #IMPLIED
		xmlns:ewd CDATA #FIXED "http://shcl.co.jp/ewd"
		xmlns:a CDATA #FIXED "http://ns.adobe.com/AdobeSVGViewerExtensions/3.0/">
	<!ATTLIST g
		ewd:pinNo CDATA #IMPLIED>
]>
<svg width="57.657" height="70.972" viewBox="0 0 57.657 70.972" style="overflow:visible;enable-background:new 0 0 57.657 70.972" xml:space="preserve" onload="call_execInitLoadProc_svg('connector')" ewd:ver="L2.1.2.7" xmlns="&ns_svg;" xmlns:ewd="http://shcl.co.jp/ewd" xmlns:a="http://ns.adobe.com/AdobeSVGViewerExtensions/3.0/" xmlns:xlink="&ns_xlink;">
<script type="text/javascript" xlink:href="../../../../../system/js/ewd/fig/svgfig.js"/>
<g id="レイヤー_1">
	<path style="&st0;" d="M54.324,70.472c1.564,0,2.833-1.268,2.833-2.833"/>
	<path style="&st0;" d="M0.5,67.639c0,1.564,1.269,2.833,2.833,2.833"/>
	<path style="&st1;" d="M14.664,27.979h28.329"/>
	<path style="&st1;" d="M14.664,37.894h28.329"/>
	<path style="&st1;" d="M14.664,47.809h28.329"/>
	<path style="&st1;" d="M14.664,27.979v19.83"/>
	<path style="&st1;" d="M28.829,27.979v19.83"/>
	<path style="&st1;" d="M42.993,27.979v19.83"/>
	<path style="&st1;" d="M11.832,25.146h33.994"/>
	<path style="&st1;" d="M11.832,50.642h33.994"/>
	<path style="&st1;" d="M11.832,25.146v25.496"/>
	<path style="&st1;" d="M45.826,25.146v25.496"/>
	<path style="&st1;" d="M21.747,50.642v5.666h14.164v-5.666"/>
	<path style="&st1;" d="M3.333,20.896v38.244"/>
	<path style="&st0;" d="M0.5,20.896h2.833"/>
	<path style="&st1;" d="M54.891,33.645v25.496"/>
	<path style="&st1;" d="M0.5,59.141h56.657"/>
	<path style="&st0;" d="M0.5,20.896v46.743"/>
	<path style="&st0;" d="M3.333,15.231v5.665"/>
	<path style="&st0;" d="M3.333,15.231h4.25"/>
	<path style="&st0;" d="M7.582,15.231v5.665"/>
	<path style="&st0;" d="M7.582,20.896h7.082"/>
	<path style="&st0;" d="M5.458,13.814l9.207,1.417"/>
	<path style="&st0;" d="M14.664,15.231v5.665"/>
	<path style="&st0;" d="M5.458,4.75v9.065"/>
	<path style="&st1;" d="M14.664,13.531h14.165"/>
	<path style="&st1;" d="M14.664,8.999v6.232"/>
	<path style="&st1;" d="M18.914,16.647v4.249"/>
	<path style="&st1;" d="M18.914,16.647h9.915"/>
	<path style="&st1;" d="M18.914,20.896h9.915"/>
	<path style="&st1;" d="M14.664,8.999h14.165"/>
	<path style="&st1;" d="M5.458,11.832h9.207"/>
	<path style="&st1;" d="M42.993,8.999v11.897"/>
	<path style="&st1;" d="M42.993,13.531H28.829"/>
	<path style="&st1;" d="M38.744,16.647v4.249"/>
	<path style="&st1;" d="M38.744,16.647h-9.915"/>
	<path style="&st1;" d="M38.744,20.896h-9.915"/>
	<path style="&st1;" d="M42.993,8.999H28.829"/>
	<path style="&st0;" d="M5.458,4.75L23.163,0.5"/>
	<path style="&st0;" d="M23.163,0.5h21.813"/>
	<path style="&st0;" d="M44.976,0.5v20.396"/>
	<path style="&st0;" d="M47.809,0.5h9.349"/>
	<path style="&st0;" d="M47.809,0.5v20.396"/>
	<path style="&st0;" d="M57.157,0.5v67.139"/>
	<path style="&st1;" d="M47.809,20.896h2.833"/>
	<path style="&st1;" d="M50.642,15.231v5.665"/>
	<path style="&st1;" d="M50.642,15.231h4.249"/>
	<path style="&st1;" d="M54.891,15.231v9.915"/>
	<path style="&st1;" d="M54.891,25.146l-4.249,4.25"/>
	<path style="&st1;" d="M50.642,29.396v4.249"/>
	<path style="&st1;" d="M50.642,33.645h4.249"/>
	<path style="&st1;" d="M52.766,27.271v6.374"/>
	<path style="&st1;" d="M54.891,52.625h-7.082v6.516"/>
	<path style="&st1;" d="M3.333,52.625h6.516v6.516"/>
	<path style="&st1;" d="M14.664,54.608v4.533"/>
	<path style="&st1;" d="M17.497,54.608v4.533"/>
	<path style="&st1;" d="M14.664,54.608h2.833"/>
	<path style="&st1;" d="M42.993,54.608v4.533"/>
	<path style="&st1;" d="M40.16,54.608v4.533"/>
	<path style="&st1;" d="M42.993,54.608H40.16"/>
	<path style="&st0;" d="M3.333,70.472h50.992"/>
	<path style="&st1;" d="M44.976,20.896h-1.983"/>
	<path style="&st0;" d="M47.809,20.896h-2.833"/>
	<g ewd:pinNo="1">
		<text transform="matrix(1 0 0 1 34.0464 35.249)"><tspan x="0" y="0" style="&st3; &st2;">1</tspan></text>
	</g>
	<g ewd:pinNo="2">
		<text transform="matrix(1 0 0 1 34.0464 45.1641)"><tspan x="0" y="0" style="&st3; &st2;">2</tspan></text>
	</g>
	<g ewd:pinNo="4">
		<text transform="matrix(1 0 0 1 19.8818 35.249)"><tspan x="0" y="0" style="&st3; &st2;">4</tspan></text>
	</g>
	<g ewd:pinNo="3">
		<text transform="matrix(1 0 0 1 19.8818 45.1641)"><tspan x="0" y="0" style="&st3; &st2;">3</tspan></text>
	</g>
</g>
</svg>