﻿<?xml version="1.0"?>
<!-- Generator: Adobe Illustrator 10.0, SVG Export Plug-In . SVG Version: 3.0.0 Build 77)  -->
<!DOCTYPE svg PUBLIC "-//W3C//DTD SVG 1.0//EN" "http://www.w3.org/TR/2001/REC-SVG-20010904/DTD/svg10.dtd"[
	<!ENTITY ns_flows "http://ns.adobe.com/Flows/1.0/">
	<!ENTITY ns_svg "http://www.w3.org/2000/svg">
	<!ENTITY ns_xlink "http://www.w3.org/1999/xlink">
	<!ENTITY st0 "fill:none;stroke:#000000;stroke-linecap:round;stroke-linejoin:round;">
	<!ENTITY st1 "fill:none;stroke:#000000;stroke-width:0.6;stroke-linecap:round;stroke-linejoin:round;">
	<!ENTITY st2 "font-size:6px;">
	<!ENTITY st3 "font-family:'Arial';">
	<!ATTLIST svg
		ewd:ver CDATA #IMPLIED
		xmlns:ewd CDATA #FIXED "http://shcl.co.jp/ewd"
		xmlns:a CDATA #FIXED "http://ns.adobe.com/AdobeSVGViewerExtensions/3.0/">
	<!ATTLIST g
		ewd:pinNo CDATA #IMPLIED>
]>
<svg width="54.824" height="50.414" viewBox="0 0 54.824 50.414" style="overflow:visible;enable-background:new 0 0 54.824 50.414" xml:space="preserve" onload="call_execInitLoadProc_svg('connector')" ewd:ver="L2.1.2.7" xmlns="&ns_svg;" xmlns:ewd="http://shcl.co.jp/ewd" xmlns:a="http://ns.adobe.com/AdobeSVGViewerExtensions/3.0/" xmlns:xlink="&ns_xlink;">
<script type="text/javascript" xlink:href="../../../../../system/js/ewd/fig/svgfig.js"/>
<g id="レイヤー_1">
	<path style="&st1;" d="M17.497,17.072c-4.693,0-8.499,3.805-8.499,8.499"/>
	<path style="&st1;" d="M45.826,25.571c0-4.693-3.805-8.499-8.499-8.499"/>
	<path style="&st1;" d="M8.999,35.344c0,4.694,3.805,8.499,8.499,8.499"/>
	<path style="&st1;" d="M37.327,43.843c4.693,0,8.499-3.805,8.499-8.499"/>
	<path style="&st1;" d="M6.166,34.778c0,6.415,5.2,11.615,11.615,11.615"/>
	<path style="&st1;" d="M37.044,46.393c6.415,0,11.615-5.2,11.615-11.615"/>
	<path style="&st1;" d="M3.333,36.826c0,0.236,0.005,0.436,0.018,0.671"/>
	<path style="&st0;" d="M3.35,37.498c0.358,6.795,5.926,12.077,12.731,12.077"/>
	<path style="&st0;" d="M0.5,31.608c0,0.958,0.237,1.772,0.75,2.581"/>
	<path style="&st0;" d="M1.25,26.727C0.737,27.535,0.5,28.35,0.5,29.308"/>
	<path style="&st0;" d="M8.999,0.5c-3.129,0-5.666,2.537-5.666,5.666"/>
	<path style="&st0;" d="M51.491,6.166c0-3.129-2.537-5.666-5.666-5.666"/>
	<path style="&st0;" d="M54.324,29.308c0-0.958-0.237-1.772-0.75-2.581"/>
	<path style="&st0;" d="M53.574,34.188c0.513-0.809,0.75-1.623,0.75-2.581"/>
	<path style="&st0;" d="M44.653,49.914c0.849,0.107,1.616-0.133,2.252-0.705"/>
	<path style="&st0;" d="M51.61,44.973c0.735-0.662,1.056-1.566,0.903-2.543"/>
	<path style="&st0;" d="M1.25,34.188l2.099,3.309"/>
	<path style="&st1;" d="M6.166,32.37v2.408"/>
	<path style="&st1;" d="M46.321,41.767l2.425,2.181l-2.804,2.521l-2.34-2.104"/>
	<path style="&st1;" d="M6.166,34.282h2.833"/>
	<path style="&st1;" d="M21.038,34.919v3.824h12.748v-3.824H21.038"/>
	<path style="&st1;" d="M25.996,43.843v-2.549h2.833v2.549"/>
	<path style="&st1;" d="M14.664,20.896V32.37H40.16V20.896H14.664"/>
	<path style="&st1;" d="M27.412,20.896V32.37"/>
	<path style="&st0;" d="M53.574,34.188l-1.884,2.966"/>
	<path style="&st1;" d="M0.761,33.172l2.572,1.62"/>
	<path style="&st1;" d="M54.063,27.744l-2.572-1.62"/>
	<path style="&st1;" d="M54.063,33.172l-2.572,1.62"/>
	<path style="&st1;" d="M6.166,28.545H3.333v3.825h2.833"/>
	<path style="&st1;" d="M17.497,17.072h19.83"/>
	<path style="&st1;" d="M17.497,43.843h19.83"/>
	<path style="&st1;" d="M8.999,25.571v9.773"/>
	<path style="&st1;" d="M45.826,25.571v9.773"/>
	<path style="&st1;" d="M6.166,11.974v16.572"/>
	<path style="&st1;" d="M10.415,11.974l5.807-2.55"/>
	<path style="&st1;" d="M24.579,46.393v1.785h5.666v-1.785"/>
	<path style="&st1;" d="M41.577,9.424v2.55l7.082,2.549"/>
	<path style="&st1;" d="M17.78,46.393h19.264"/>
	<path style="&st1;" d="M6.166,11.974h4.25"/>
	<path style="&st1;" d="M36.619,9.424v5.099H18.206V9.424"/>
	<path style="&st1;" d="M10.415,9.424h33.994"/>
	<path style="&st0;" d="M51.61,44.973l-4.706,4.235"/>
	<path style="&st1;" d="M27.412,6.874H7.582v2.55h2.833v2.55"/>
	<path style="&st1;" d="M35.203,9.424v3.824H19.622V9.424"/>
	<path style="&st1;" d="M33.786,6.874V4.325h-6.374"/>
	<path style="&st1;" d="M27.412,6.874h19.83v2.55h-2.833v2.55"/>
	<path style="&st1;" d="M21.038,6.874V4.325h6.374"/>
	<path style="&st1;" d="M48.659,11.974h-4.25"/>
	<path style="&st1;" d="M48.659,11.974v16.572"/>
	<path style="&st1;" d="M48.659,28.545h2.833v3.825h-2.833"/>
	<path style="&st0;" d="M51.491,23.446l2.083,3.28"/>
	<path style="&st1;" d="M48.659,34.282h-2.833"/>
	<path style="&st1;" d="M48.659,32.37v2.408"/>
	<path style="&st0;" d="M41.973,49.574l2.68,0.34"/>
	<path style="&st1;" d="M51.491,34.792v1.088"/>
	<path style="&st0;" d="M54.324,29.308v2.3"/>
	<path style="&st0;" d="M3.333,23.446l-2.082,3.28"/>
	<path style="&st0;" d="M0.5,29.308v2.3"/>
	<path style="&st1;" d="M0.761,27.744l2.572-1.62"/>
	<path style="&st0;" d="M16.081,49.574h25.893"/>
	<path style="&st0;" d="M3.333,6.166v17.28"/>
	<path style="&st0;" d="M8.999,0.5h36.827"/>
	<path style="&st0;" d="M51.491,6.166v17.28"/>
	<path style="&st1;" d="M51.491,35.88l0.199,1.275"/>
	<path style="&st0;" d="M51.69,37.155l0.824,5.275"/>
	<path style="&st1;" d="M3.333,34.792v2.034"/>
	<g ewd:pinNo="1">
		<text transform="matrix(1 0 0 1 19.6177 28.6836)"><tspan x="0" y="0" style="&st3; &st2;">1</tspan></text>
	</g>
	<g ewd:pinNo="2">
		<text transform="matrix(1 0 0 1 32.3652 28.6836)"><tspan x="0" y="0" style="&st3; &st2;">2</tspan></text>
	</g>
</g>
</svg>