﻿<?xml version="1.0" encoding="utf-8"?>
<!DOCTYPE svg PUBLIC "-//W3C//DTD SVG 1.0//EN" "http://www.w3.org/TR/2001/REC-SVG-20010904/DTD/svg10.dtd"[
	<!ENTITY ns_flows "http://ns.adobe.com/Flows/1.0/">
	<!ENTITY ns_svg "http://www.w3.org/2000/svg">
	<!ENTITY ns_xlink "http://www.w3.org/1999/xlink">
	<!ENTITY st0 "font-size:7px;font-family:'MS-PGothic';adobe-font-script:japanese;">
	<!ENTITY st1 "font-size:6px;font-family:'ArialMT';">
	<!-- White fill  -->
	<!ENTITY st2 "fill:#FFFFFF;stroke:#000000; stroke-width:1.41;stroke-linecap:round;stroke-linejoin:round;">
	<!-- Yellow fill  -->
	<!ENTITY st3 "fill:#FFFFCC;stroke:#FFFFCC; stroke-width:0.1;stroke-linecap:round;stroke-linejoin:round;">
	<!-- Gray fill  -->
	<!ENTITY st4 "fill:#CCCCCC;stroke:#CCCCCC; stroke-width:0.1;stroke-linecap:round;stroke-linejoin:round;">
	<!-- Light-blue fill -->
	<!ENTITY st5 "fill:#CCECF4;stroke:#000000; stroke-width:1.133;stroke-linecap:round;stroke-linejoin:round;">
	<!ENTITY st6 "fill:none;stroke-linecap:butt; stroke-linejoin:round;">
	<!ENTITY st7 "fill:none;stroke:#000000;stroke-linecap:round;stroke-linejoin:round;">
	<!ENTITY st8 "enable-background:new    ;">
	<!-- Black fill -->
	<!ENTITY st9 "fill:#000000;stroke:#000000; stroke-linecap:round;stroke-linejoin:round;">
	<!-- SRS note   -->
	<!ENTITY st10 "font-size:9px;font-family:'ArialMT';">
	<!ENTITY st11 "font-size:9px;font-family:'Svg Symbol';">
	<!ENTITY st12 "font-size:6px;font-family:'Svg Symbol';">
	<!ENTITY st13 "fill:none;stroke:#ff0000;stroke-linecap:round;stroke-linejoin:round;">
	<!-- Yellow fill  -->
	<!ENTITY st14 "fill:#FFFF00;stroke:#FFFF00; stroke-width:0.1;stroke-linecap:round;stroke-linejoin:round;">
	<!ENTITY st15 "font-size:6px;font-family:'MS-PGothic';adobe-font-script:japanese;">
	<!ENTITY st16 "1.00 0.00 0.00 1.00">
	<!ENTITY st17 "0.00 -1.00 1.00 0.00">
	<!ENTITY st18 "font-size:6px;font-family:'Arial';">
	<!ENTITY st19 "font-size:9px;font-family:'Arial';">
	<!ENTITY st20 "font-size:6px;font-family:'MS-PGothic','MS PGothic';adobe-font-script:japanese;">
	<!ENTITY st21 "font-size:7px;font-family:'MS-PGothic','MS PGothic';adobe-font-script:japanese;">
	<!ATTLIST svg
		xmlns:ewd CDATA #FIXED "http://shcl.co.jp/ewd"
		xmlns:a CDATA #FIXED "http://ns.adobe.com/AdobeSVGViewerExtensions/3.0/"
		ewd:ver CDATA #IMPLIED
	>
	<!ATTLIST a
		ewd:lineID CDATA #IMPLIED
		ewd:groupID CDATA #IMPLIED
		ewd:figtype CDATA #IMPLIED
		ewd:code CDATA #IMPLIED
		ewd:figID CDATA #IMPLIED
		ewd:pinNo CDATA #IMPLIED
		ewd:comment CDATA #IMPLIED >
	<!ATTLIST g
		ewd:lineID CDATA #IMPLIED
		ewd:groupID CDATA #IMPLIED
		ewd:figtype CDATA #IMPLIED
		ewd:code CDATA #IMPLIED
		ewd:figID CDATA #IMPLIED
		ewd:pinNo CDATA #IMPLIED
		ewd:comment CDATA #IMPLIED >
	<!ATTLIST text
		ewd:textID CDATA #IMPLIED >
	<!ATTLIST title
		ewd:textID CDATA #IMPLIED >
]>
<!-- Generator: Shintec Hozumi YS   -->
<svg onload="call_execInitLoadProc_svg('system')" style="overflow:visible;  enable-background:new 0 0 5667.136 710.000" viewBox="0 0 5667.136 710.000" height="710.000" width="5667.136" xml:space="preserve" ewd:ver="L2.1.2.7" xmlns="&ns_svg;" xmlns:a="http://ns.adobe.com/AdobeSVGViewerExtensions/3.0/" xmlns:ewd="http://shcl.co.jp/ewd" xmlns:xlink="&ns_xlink;">
<path d=" M 2320.11,  401.22  L 2320.11,  426.71 " style="stroke:#008837;stroke-width: 5.10 ;&st6;" /><path d=" M 2167.14,  401.22  L 2167.14,  426.71 " style="stroke:#992903;stroke-width: 5.10 ;&st6;" /><path d=" M 2201.13,  401.22  L 2201.13,  426.71 " style="stroke:#000000;stroke-width: 5.10 ;&st6;" /><path d=" M 2201.13,  401.22  L 2201.13,  426.71 " style="stroke:#FFFFFF;stroke-width: 4.53 ;&st6;" /><path d=" M 2235.13,  401.22  L 2235.13,  426.71 " style="stroke:#7FC97F;stroke-width: 5.10 ;&st6;" /><path d=" M 2311.61,  205.75  L 2320.11,  205.75 " style="stroke-width: 1.42 ;&st7; " /><path d=" M 2449.01,  554.19  L 2426.34,  548.53 " style="stroke-width: 1.42 ;&st7; " /><path d=" M 2456.09,  554.19  L 2451.84,  554.19 " style="stroke-width: 0.85 ;&st7; " /><path d=" M 2426.34,  554.19  L 2422.10,  554.19 " style="stroke-width: 0.85 ;&st7; " /><path d=" M 2449.01,  520.20  L 2426.34,  514.53 " style="stroke-width: 1.42 ;&st7; " /><path d=" M 2456.09,  520.20  L 2451.84,  520.20 " style="stroke-width: 0.85 ;&st7; " /><path d=" M 2426.34,  520.20  L 2422.10,  520.20 " style="stroke-width: 0.85 ;&st7; " /><path d=" M 2449.01,  486.20  L 2426.34,  480.54 " style="stroke-width: 1.42 ;&st7; " /><path d=" M 2456.09,  486.20  L 2451.84,  486.20 " style="stroke-width: 0.85 ;&st7; " /><path d=" M 2426.34,  486.20  L 2422.10,  486.20 " style="stroke-width: 0.85 ;&st7; " /><path d=" M 2226.63,  205.75  L 2235.13,  205.75 " style="stroke-width: 1.42 ;&st7; " /><path d=" M 2192.63,  205.75  L 2201.13,  205.75 " style="stroke-width: 1.42 ;&st7; " /><path d=" M 2158.64,  205.75  L 2167.14,  205.75 " style="stroke-width: 1.42 ;&st7; " /><path d=" M 2194.05,  486.20  L 2171.39,  480.54 " style="stroke-width: 1.42 ;&st7; " /><path d=" M 2201.13,  486.20  L 2196.88,  486.20 " style="stroke-width: 0.85 ;&st7; " /><path d=" M 2171.39,  486.20  L 2167.14,  486.20 " style="stroke-width: 0.85 ;&st7; " /><path d=" M 2228.04,  486.20  L 2205.38,  480.54 " style="stroke-width: 1.42 ;&st7; " /><path d=" M 2235.13,  486.20  L 2230.88,  486.20 " style="stroke-width: 0.85 ;&st7; " /><path d=" M 2205.38,  486.20  L 2201.13,  486.20 " style="stroke-width: 0.85 ;&st7; " /><path d=" M 2194.05,  520.20  L 2171.39,  514.53 " style="stroke-width: 1.42 ;&st7; " /><path d=" M 2201.13,  520.20  L 2196.88,  520.20 " style="stroke-width: 0.85 ;&st7; " /><path d=" M 2171.39,  520.20  L 2167.14,  520.20 " style="stroke-width: 0.85 ;&st7; " /><path d=" M 2228.04,  520.20  L 2205.38,  514.53 " style="stroke-width: 1.42 ;&st7; " /><path d=" M 2235.13,  520.20  L 2230.88,  520.20 " style="stroke-width: 0.85 ;&st7; " /><path d=" M 2205.38,  520.20  L 2201.13,  520.20 " style="stroke-width: 0.85 ;&st7; " /><path d=" M 2194.05,  554.19  L 2171.39,  548.53 " style="stroke-width: 1.42 ;&st7; " /><path d=" M 2201.13,  554.19  L 2196.88,  554.19 " style="stroke-width: 0.85 ;&st7; " /><path d=" M 2171.39,  554.19  L 2167.14,  554.19 " style="stroke-width: 0.85 ;&st7; " /><path d=" M 2228.04,  554.19  L 2205.38,  548.53 " style="stroke-width: 1.42 ;&st7; " /><path d=" M 2235.13,  554.19  L 2230.88,  554.19 " style="stroke-width: 0.85 ;&st7; " /><path d=" M 2205.38,  554.19  L 2201.13,  554.19 " style="stroke-width: 0.85 ;&st7; " /><path d=" M 2304.53,  486.20  L 2281.87,  480.54 " style="stroke-width: 1.42 ;&st7; " /><path d=" M 2311.61,  486.20  L 2307.36,  486.20 " style="stroke-width: 0.85 ;&st7; " /><path d=" M 2281.87,  486.20  L 2277.62,  486.20 " style="stroke-width: 0.85 ;&st7; " /><path d=" M 2205.38,  588.19  L 2201.13,  588.19 " style="stroke-width: 0.85 ;&st7; " /><path d=" M 2235.13,  588.19  L 2230.88,  588.19 " style="stroke-width: 0.85 ;&st7; " /><path d=" M 2228.04,  588.19  L 2205.38,  582.52 " style="stroke-width: 1.42 ;&st7; " /><path d=" M 2171.39,  588.19  L 2167.14,  588.19 " style="stroke-width: 0.85 ;&st7; " /><path d=" M 2201.13,  588.19  L 2196.88,  588.19 " style="stroke-width: 0.85 ;&st7; " /><path d=" M 2194.05,  588.19  L 2171.39,  582.52 " style="stroke-width: 1.42 ;&st7; " /><path d=" M 2199.94,  434.21  L 2199.67,  434.68  L 2199.57,  435.21  L 2199.67,  435.75  L 2199.94,  436.22  L 2200.35,  436.56  L 2200.86,  436.75  L 2201.40,  436.75  L 2201.91,  436.56  L 2202.32,  436.22  L 2202.60,  435.75  L 2202.69,  435.21  L 2202.60,  434.68  L 2202.32,  434.21  L 2201.91,  433.86  L 2201.40,  433.68  L 2200.86,  433.68  L 2200.35,  433.86  L 2199.94,  434.21  L 2200.33,  434.92  L 2200.33,  435.50  L 2200.71,  435.95  L 2201.28,  436.05  L 2201.78,  435.76  L 2201.98,  435.21  L 2201.78,  434.67  L 2201.28,  434.38  L 2200.71,  434.48  L 2201.13,  435.21 " style="stroke-width: 0.85 ;&st7; " /><path d=" M 2267.93,  485.20  L 2267.66,  485.67  L 2267.56,  486.20  L 2267.66,  486.74  L 2267.93,  487.21  L 2268.34,  487.55  L 2268.85,  487.74  L 2269.39,  487.74  L 2269.90,  487.55  L 2270.31,  487.21  L 2270.58,  486.74  L 2270.68,  486.20  L 2270.58,  485.67  L 2270.31,  485.20  L 2269.90,  484.86  L 2269.39,  484.67  L 2268.85,  484.67  L 2268.34,  484.86  L 2267.93,  485.20  L 2268.32,  485.91  L 2268.32,  486.50  L 2268.69,  486.94  L 2269.27,  487.04  L 2269.77,  486.75  L 2269.97,  486.20  L 2269.77,  485.66  L 2269.27,  485.37  L 2268.69,  485.47  L 2269.12,  486.20 " style="stroke-width: 0.85 ;&st7; " /><path d=" M 2318.92,  485.20  L 2318.65,  485.67  L 2318.55,  486.20  L 2318.65,  486.74  L 2318.92,  487.21  L 2319.33,  487.55  L 2319.84,  487.74  L 2320.38,  487.74  L 2320.89,  487.55  L 2321.30,  487.21  L 2321.58,  486.74  L 2321.67,  486.20  L 2321.58,  485.67  L 2321.30,  485.20  L 2320.89,  484.86  L 2320.38,  484.67  L 2319.84,  484.67  L 2319.33,  484.86  L 2318.92,  485.20  L 2319.31,  485.91  L 2319.31,  486.50  L 2319.69,  486.94  L 2320.26,  487.04  L 2320.76,  486.75  L 2320.96,  486.20  L 2320.76,  485.66  L 2320.26,  485.37  L 2319.69,  485.47  L 2320.11,  486.20 " style="stroke-width: 0.85 ;&st7; " /><path d=" M 2165.94,  553.19  L 2165.67,  553.66  L 2165.58,  554.19  L 2165.67,  554.73  L 2165.94,  555.20  L 2166.36,  555.54  L 2166.87,  555.73  L 2167.41,  555.73  L 2167.92,  555.54  L 2168.33,  555.20  L 2168.60,  554.73  L 2168.70,  554.19  L 2168.60,  553.66  L 2168.33,  553.19  L 2167.92,  552.84  L 2167.41,  552.66  L 2166.87,  552.66  L 2166.36,  552.84  L 2165.94,  553.19  L 2166.34,  553.90  L 2166.34,  554.48  L 2166.71,  554.93  L 2167.28,  555.03  L 2167.79,  554.74  L 2167.99,  554.19  L 2167.79,  553.65  L 2167.28,  553.36  L 2166.71,  553.46  L 2167.14,  554.19 " style="stroke-width: 0.85 ;&st7; " /><path d=" M 2318.92,  451.21  L 2318.65,  451.68  L 2318.55,  452.21  L 2318.65,  452.74  L 2318.92,  453.21  L 2319.33,  453.56  L 2319.84,  453.75  L 2320.38,  453.75  L 2320.89,  453.56  L 2321.30,  453.21  L 2321.58,  452.74  L 2321.67,  452.21  L 2321.58,  451.68  L 2321.30,  451.21  L 2320.89,  450.86  L 2320.38,  450.67  L 2319.84,  450.67  L 2319.33,  450.86  L 2318.92,  451.21  L 2319.31,  451.92  L 2319.31,  452.50  L 2319.69,  452.95  L 2320.26,  453.05  L 2320.76,  452.76  L 2320.96,  452.21  L 2320.76,  451.66  L 2320.26,  451.37  L 2319.69,  451.47  L 2320.11,  452.21 " style="stroke-width: 0.85 ;&st7; " /><path d=" M 2267.93,  451.21  L 2267.66,  451.68  L 2267.56,  452.21  L 2267.66,  452.74  L 2267.93,  453.21  L 2268.34,  453.56  L 2268.85,  453.75  L 2269.39,  453.75  L 2269.90,  453.56  L 2270.31,  453.21  L 2270.58,  452.74  L 2270.68,  452.21  L 2270.58,  451.68  L 2270.31,  451.21  L 2269.90,  450.86  L 2269.39,  450.67  L 2268.85,  450.67  L 2268.34,  450.86  L 2267.93,  451.21  L 2268.32,  451.92  L 2268.32,  452.50  L 2268.69,  452.95  L 2269.27,  453.05  L 2269.77,  452.76  L 2269.97,  452.21  L 2269.77,  451.66  L 2269.27,  451.37  L 2268.69,  451.47  L 2269.12,  452.21 " style="stroke-width: 0.85 ;&st7; " /><path d=" M 2233.93,  553.19  L 2233.66,  553.66  L 2233.57,  554.19  L 2233.66,  554.73  L 2233.93,  555.20  L 2234.35,  555.54  L 2234.85,  555.73  L 2235.40,  555.73  L 2235.90,  555.54  L 2236.32,  555.20  L 2236.59,  554.73  L 2236.68,  554.19  L 2236.59,  553.66  L 2236.32,  553.19  L 2235.90,  552.84  L 2235.40,  552.66  L 2234.85,  552.66  L 2234.35,  552.84  L 2233.93,  553.19  L 2234.33,  553.90  L 2234.33,  554.48  L 2234.70,  554.93  L 2235.27,  555.03  L 2235.78,  554.74  L 2235.98,  554.19  L 2235.78,  553.65  L 2235.27,  553.36  L 2234.70,  553.46  L 2235.13,  554.19 " style="stroke-width: 0.85 ;&st7; " /><path d=" M 2199.94,  553.19  L 2199.67,  553.66  L 2199.57,  554.19  L 2199.67,  554.73  L 2199.94,  555.20  L 2200.35,  555.54  L 2200.86,  555.73  L 2201.40,  555.73  L 2201.91,  555.54  L 2202.32,  555.20  L 2202.60,  554.73  L 2202.69,  554.19  L 2202.60,  553.66  L 2202.32,  553.19  L 2201.91,  552.84  L 2201.40,  552.66  L 2200.86,  552.66  L 2200.35,  552.84  L 2199.94,  553.19  L 2200.33,  553.90  L 2200.33,  554.48  L 2200.71,  554.93  L 2201.28,  555.03  L 2201.78,  554.74  L 2201.98,  554.19  L 2201.78,  553.65  L 2201.28,  553.36  L 2200.71,  553.46  L 2201.13,  554.19 " style="stroke-width: 0.85 ;&st7; " /><path d=" M 2233.93,  519.20  L 2233.66,  519.67  L 2233.57,  520.20  L 2233.66,  520.73  L 2233.93,  521.20  L 2234.35,  521.55  L 2234.85,  521.73  L 2235.40,  521.73  L 2235.90,  521.55  L 2236.32,  521.20  L 2236.59,  520.73  L 2236.68,  520.20  L 2236.59,  519.67  L 2236.32,  519.20  L 2235.90,  518.85  L 2235.40,  518.66  L 2234.85,  518.66  L 2234.35,  518.85  L 2233.93,  519.20  L 2234.33,  519.91  L 2234.33,  520.49  L 2234.70,  520.94  L 2235.27,  521.03  L 2235.78,  520.75  L 2235.98,  520.20  L 2235.78,  519.65  L 2235.27,  519.36  L 2234.70,  519.46  L 2235.13,  520.20 " style="stroke-width: 0.85 ;&st7; " /><path d=" M 2199.94,  587.18  L 2199.67,  587.65  L 2199.57,  588.19  L 2199.67,  588.72  L 2199.94,  589.19  L 2200.35,  589.54  L 2200.86,  589.72  L 2201.40,  589.72  L 2201.91,  589.54  L 2202.32,  589.19  L 2202.60,  588.72  L 2202.69,  588.19  L 2202.60,  587.65  L 2202.32,  587.18  L 2201.91,  586.84  L 2201.40,  586.65  L 2200.86,  586.65  L 2200.35,  586.84  L 2199.94,  587.18  L 2200.33,  587.90  L 2200.33,  588.48  L 2200.71,  588.92  L 2201.28,  589.02  L 2201.78,  588.73  L 2201.98,  588.19  L 2201.78,  587.64  L 2201.28,  587.35  L 2200.71,  587.45  L 2201.13,  588.19 " style="stroke-width: 0.85 ;&st7; " /><path d=" M 2199.94,  519.20  L 2199.67,  519.67  L 2199.57,  520.20  L 2199.67,  520.73  L 2199.94,  521.20  L 2200.35,  521.55  L 2200.86,  521.73  L 2201.40,  521.73  L 2201.91,  521.55  L 2202.32,  521.20  L 2202.60,  520.73  L 2202.69,  520.20  L 2202.60,  519.67  L 2202.32,  519.20  L 2201.91,  518.85  L 2201.40,  518.66  L 2200.86,  518.66  L 2200.35,  518.85  L 2199.94,  519.20  L 2200.33,  519.91  L 2200.33,  520.49  L 2200.71,  520.94  L 2201.28,  521.03  L 2201.78,  520.75  L 2201.98,  520.20  L 2201.78,  519.65  L 2201.28,  519.36  L 2200.71,  519.46  L 2201.13,  520.20 " style="stroke-width: 0.85 ;&st7; " /><path d=" M 2165.94,  519.20  L 2165.67,  519.67  L 2165.58,  520.20  L 2165.67,  520.73  L 2165.94,  521.20  L 2166.36,  521.55  L 2166.87,  521.73  L 2167.41,  521.73  L 2167.92,  521.55  L 2168.33,  521.20  L 2168.60,  520.73  L 2168.70,  520.20  L 2168.60,  519.67  L 2168.33,  519.20  L 2167.92,  518.85  L 2167.41,  518.66  L 2166.87,  518.66  L 2166.36,  518.85  L 2165.94,  519.20  L 2166.34,  519.91  L 2166.34,  520.49  L 2166.71,  520.94  L 2167.28,  521.03  L 2167.79,  520.75  L 2167.99,  520.20  L 2167.79,  519.65  L 2167.28,  519.36  L 2166.71,  519.46  L 2167.14,  520.20 " style="stroke-width: 0.85 ;&st7; " /><path d=" M 2165.94,  485.20  L 2165.67,  485.67  L 2165.58,  486.20  L 2165.67,  486.74  L 2165.94,  487.21  L 2166.36,  487.55  L 2166.87,  487.74  L 2167.41,  487.74  L 2167.92,  487.55  L 2168.33,  487.21  L 2168.60,  486.74  L 2168.70,  486.20  L 2168.60,  485.67  L 2168.33,  485.20  L 2167.92,  484.86  L 2167.41,  484.67  L 2166.87,  484.67  L 2166.36,  484.86  L 2165.94,  485.20  L 2166.34,  485.91  L 2166.34,  486.50  L 2166.71,  486.94  L 2167.28,  487.04  L 2167.79,  486.75  L 2167.99,  486.20  L 2167.79,  485.66  L 2167.28,  485.37  L 2166.71,  485.47  L 2167.14,  486.20 " style="stroke-width: 0.85 ;&st7; " /><path d=" M 2199.94,  485.20  L 2199.67,  485.67  L 2199.57,  486.20  L 2199.67,  486.74  L 2199.94,  487.21  L 2200.35,  487.55  L 2200.86,  487.74  L 2201.40,  487.74  L 2201.91,  487.55  L 2202.32,  487.21  L 2202.60,  486.74  L 2202.69,  486.20  L 2202.60,  485.67  L 2202.32,  485.20  L 2201.91,  484.86  L 2201.40,  484.67  L 2200.86,  484.67  L 2200.35,  484.86  L 2199.94,  485.20  L 2200.33,  485.91  L 2200.33,  486.50  L 2200.71,  486.94  L 2201.28,  487.04  L 2201.78,  486.75  L 2201.98,  486.20  L 2201.78,  485.66  L 2201.28,  485.37  L 2200.71,  485.47  L 2201.13,  486.20 " style="stroke-width: 0.85 ;&st7; " /><path d=" M 2233.93,  485.20  L 2233.66,  485.67  L 2233.57,  486.20  L 2233.66,  486.74  L 2233.93,  487.21  L 2234.35,  487.55  L 2234.85,  487.74  L 2235.40,  487.74  L 2235.90,  487.55  L 2236.32,  487.21  L 2236.59,  486.74  L 2236.68,  486.20  L 2236.59,  485.67  L 2236.32,  485.20  L 2235.90,  484.86  L 2235.40,  484.67  L 2234.85,  484.67  L 2234.35,  484.86  L 2233.93,  485.20  L 2234.33,  485.91  L 2234.33,  486.50  L 2234.70,  486.94  L 2235.27,  487.04  L 2235.78,  486.75  L 2235.98,  486.20  L 2235.78,  485.66  L 2235.27,  485.37  L 2234.70,  485.47  L 2235.13,  486.20 " style="stroke-width: 0.85 ;&st7; " /><path d=" M 2233.93,  451.21  L 2233.66,  451.68  L 2233.57,  452.21  L 2233.66,  452.74  L 2233.93,  453.21  L 2234.35,  453.56  L 2234.85,  453.75  L 2235.40,  453.75  L 2235.90,  453.56  L 2236.32,  453.21  L 2236.59,  452.74  L 2236.68,  452.21  L 2236.59,  451.68  L 2236.32,  451.21  L 2235.90,  450.86  L 2235.40,  450.67  L 2234.85,  450.67  L 2234.35,  450.86  L 2233.93,  451.21  L 2234.33,  451.92  L 2234.33,  452.50  L 2234.70,  452.95  L 2235.27,  453.05  L 2235.78,  452.76  L 2235.98,  452.21  L 2235.78,  451.66  L 2235.27,  451.37  L 2234.70,  451.47  L 2235.13,  452.21 " style="stroke-width: 0.85 ;&st7; " /><path d=" M 2199.94,  451.21  L 2199.67,  451.68  L 2199.57,  452.21  L 2199.67,  452.74  L 2199.94,  453.21  L 2200.35,  453.56  L 2200.86,  453.75  L 2201.40,  453.75  L 2201.91,  453.56  L 2202.32,  453.21  L 2202.60,  452.74  L 2202.69,  452.21  L 2202.60,  451.68  L 2202.32,  451.21  L 2201.91,  450.86  L 2201.40,  450.67  L 2200.86,  450.67  L 2200.35,  450.86  L 2199.94,  451.21  L 2200.33,  451.92  L 2200.33,  452.50  L 2200.71,  452.95  L 2201.28,  453.05  L 2201.78,  452.76  L 2201.98,  452.21  L 2201.78,  451.66  L 2201.28,  451.37  L 2200.71,  451.47  L 2201.13,  452.21 " style="stroke-width: 0.85 ;&st7; " /><path d=" M 2165.94,  451.21  L 2165.67,  451.68  L 2165.58,  452.21  L 2165.67,  452.74  L 2165.94,  453.21  L 2166.36,  453.56  L 2166.87,  453.75  L 2167.41,  453.75  L 2167.92,  453.56  L 2168.33,  453.21  L 2168.60,  452.74  L 2168.70,  452.21  L 2168.60,  451.68  L 2168.33,  451.21  L 2167.92,  450.86  L 2167.41,  450.67  L 2166.87,  450.67  L 2166.36,  450.86  L 2165.94,  451.21  L 2166.34,  451.92  L 2166.34,  452.50  L 2166.71,  452.95  L 2167.28,  453.05  L 2167.79,  452.76  L 2167.99,  452.21  L 2167.79,  451.66  L 2167.28,  451.37  L 2166.71,  451.47  L 2167.14,  452.21 " style="stroke-width: 0.85 ;&st7; " /><path d=" M 2311.61,  486.20  L 2320.11,  486.20 " style="stroke-width: 0.85 ;&st7; " /><path d=" M 2269.12,  486.20  L 2277.62,  486.20 " style="stroke-width: 0.85 ;&st7; " /><path d=" M 2311.61,  452.21  L 2320.11,  452.21 " style="stroke-width: 0.85 ;&st7; " /><path d=" M 2269.12,  452.21  L 2277.62,  452.21 " style="stroke-width: 0.85 ;&st7; " /><path d=" M 2320.11,  426.71  L 2320.11,  520.20  L 2337.11,  520.20 " style="stroke-width: 0.85 ;&st7; " /><path d=" M 2201.13,  435.21  L 2269.12,  435.21  L 2269.12,  554.19  L 2337.11,  554.19 " style="stroke-width: 0.85 ;&st7; " /><path d=" M 2235.13,  426.71  L 2235.13,  588.19 " style="stroke-width: 0.85 ;&st7; " /><path d=" M 2201.13,  426.71  L 2201.13,  588.19 " style="stroke-width: 0.85 ;&st7; " /><path d=" M 2167.14,  426.71  L 2167.14,  588.19 " style="stroke-width: 0.85 ;&st7; " /><path d=" M 2150.14,  426.71  L 2150.14,  613.68  L 2337.11,  613.68  L 2337.11,  426.71  L 2150.14,  426.71 " style="stroke-width: 1.42 ;&st7; " /><path d=" M 2315.86,  196.69  L 2320.11,  200.94  L 2324.36,  196.69 " style="stroke-width: 1.42 ;&st7; " /><path d=" M 2324.36,  200.09  L 2320.11,  204.33  L 2315.86,  200.09 " style="stroke-width: 1.42 ;&st7; " /><path d=" M 2133.14,  401.22  L 2133.14,  630.68  L 2515.58,  630.68  L 2515.58,  401.22  L 2133.14,  401.22 " style="stroke-width: 1.42 ;&st7; " /><path d=" M 2320.11,  375.72  L 2320.11,  392.15 " style="stroke-width: 0.85 ;&st7; " /><path d=" M 2167.14,  375.72  L 2167.14,  392.15 " style="stroke-width: 0.85 ;&st7; " /><path d=" M 2133.14,  375.72  L 2515.58,  375.72  L 2515.58,  392.15  L 2133.14,  392.15  L 2133.14,  375.72 " style="stroke-width: 1.42 ;&st7; " /><path d=" M 2277.62,  452.21  L 2286.12,  452.21  L 2287.53,  449.38  L 2290.37,  455.04  L 2293.20,  449.38  L 2296.03,  455.04  L 2298.86,  449.38  L 2301.70,  455.04  L 2303.11,  452.21  L 2311.61,  452.21 " style="stroke-width: 0.85 ;&st7; " /><path d=" M 2201.13,  375.72  L 2201.13,  392.15 " style="stroke-width: 0.85 ;&st7; " /><path d=" M 2201.13,  452.21  L 2209.63,  452.21  L 2211.05,  449.38  L 2213.88,  455.04  L 2216.71,  449.38  L 2219.54,  455.04  L 2222.38,  449.38  L 2225.21,  455.04  L 2226.63,  452.21  L 2235.13,  452.21 " style="stroke-width: 0.85 ;&st7; " /><path d=" M 2167.14,  452.21  L 2175.64,  452.21  L 2177.05,  449.38  L 2179.88,  455.04  L 2182.72,  449.38  L 2185.55,  455.04  L 2188.38,  449.38  L 2191.22,  455.04  L 2192.63,  452.21  L 2201.13,  452.21 " style="stroke-width: 0.85 ;&st7; " /><path d=" M 2371.10,  426.71  L 2371.10,  613.68  L 2490.08,  613.68  L 2490.08,  426.71  L 2371.10,  426.71 " style="stroke-width: 1.42 ;&st7; " /><path d=" M 2337.11,  520.20  L 2371.10,  520.20 " style="stroke-width: 0.85 ;&st7; " /><path d=" M 2337.11,  554.19  L 2371.10,  554.19 " style="stroke-width: 0.85 ;&st7; " /><path d=" M 2371.10,  520.20  L 2388.10,  520.20  L 2388.10,  435.21  L 2456.09,  435.21  L 2456.09,  452.21 " style="stroke-width: 0.85 ;&st7; " /><path d=" M 2456.09,  520.20  L 2456.09,  511.70  L 2453.26,  510.28  L 2458.92,  507.45  L 2453.26,  504.62  L 2458.92,  501.78  L 2453.26,  498.95  L 2458.92,  496.12  L 2456.09,  494.70  L 2456.09,  486.20 " style="stroke-width: 0.85 ;&st7; " /><path d=" M 2456.09,  554.19  L 2456.09,  545.69  L 2453.26,  544.28  L 2458.92,  541.44  L 2453.26,  538.61  L 2458.92,  535.78  L 2453.26,  532.95  L 2458.92,  530.11  L 2456.09,  528.70  L 2456.09,  520.20 " style="stroke-width: 0.85 ;&st7; " /><path d=" M 2456.09,  486.20  L 2456.09,  477.71  L 2453.26,  476.29  L 2458.92,  473.46  L 2453.26,  470.62  L 2458.92,  467.79  L 2453.26,  464.96  L 2458.92,  462.12  L 2456.09,  460.71  L 2456.09,  452.21 " style="stroke-width: 0.85 ;&st7; " /><path d=" M 2422.09,  486.20  L 2422.09,  554.19 " style="stroke-width: 0.85 ;&st7; " /><path d=" M 2371.10,  554.19  L 2405.10,  554.19  L 2405.10,  486.20  L 2422.09,  486.20 " style="stroke-width: 0.85 ;&st7; " /><path d=" M 2420.90,  485.20  L 2420.63,  485.67  L 2420.54,  486.20  L 2420.63,  486.74  L 2420.90,  487.21  L 2421.32,  487.55  L 2421.82,  487.74  L 2422.37,  487.74  L 2422.87,  487.55  L 2423.29,  487.21  L 2423.56,  486.74  L 2423.65,  486.20  L 2423.56,  485.67  L 2423.29,  485.20  L 2422.87,  484.86  L 2422.37,  484.67  L 2421.82,  484.67  L 2421.32,  484.86  L 2420.90,  485.20  L 2421.30,  485.91  L 2421.30,  486.50  L 2421.67,  486.94  L 2422.24,  487.04  L 2422.75,  486.75  L 2422.94,  486.20  L 2422.75,  485.66  L 2422.24,  485.37  L 2421.67,  485.47  L 2422.09,  486.20 " style="stroke-width: 0.85 ;&st7; " /><path d=" M 2420.90,  519.20  L 2420.63,  519.67  L 2420.54,  520.20  L 2420.63,  520.73  L 2420.90,  521.20  L 2421.32,  521.55  L 2421.82,  521.73  L 2422.37,  521.73  L 2422.87,  521.55  L 2423.29,  521.20  L 2423.56,  520.73  L 2423.65,  520.20  L 2423.56,  519.67  L 2423.29,  519.20  L 2422.87,  518.85  L 2422.37,  518.66  L 2421.82,  518.66  L 2421.32,  518.85  L 2420.90,  519.20  L 2421.30,  519.91  L 2421.30,  520.49  L 2421.67,  520.94  L 2422.24,  521.03  L 2422.75,  520.75  L 2422.94,  520.20  L 2422.75,  519.65  L 2422.24,  519.36  L 2421.67,  519.46  L 2422.09,  520.20 " style="stroke-width: 0.85 ;&st7; " /><path d=" M 2454.90,  519.20  L 2454.62,  519.67  L 2454.53,  520.20  L 2454.62,  520.73  L 2454.90,  521.20  L 2455.31,  521.55  L 2455.82,  521.73  L 2456.36,  521.73  L 2456.87,  521.55  L 2457.28,  521.20  L 2457.55,  520.73  L 2457.65,  520.20  L 2457.55,  519.67  L 2457.28,  519.20  L 2456.87,  518.85  L 2456.36,  518.66  L 2455.82,  518.66  L 2455.31,  518.85  L 2454.90,  519.20  L 2455.29,  519.91  L 2455.29,  520.49  L 2455.66,  520.94  L 2456.24,  521.03  L 2456.74,  520.75  L 2456.94,  520.20  L 2456.74,  519.65  L 2456.24,  519.36  L 2455.66,  519.46  L 2456.09,  520.20 " style="stroke-width: 0.85 ;&st7; " /><path d=" M 2454.90,  485.20  L 2454.62,  485.67  L 2454.53,  486.20  L 2454.62,  486.74  L 2454.90,  487.21  L 2455.31,  487.55  L 2455.82,  487.74  L 2456.36,  487.74  L 2456.87,  487.55  L 2457.28,  487.21  L 2457.55,  486.74  L 2457.65,  486.20  L 2457.55,  485.67  L 2457.28,  485.20  L 2456.87,  484.86  L 2456.36,  484.67  L 2455.82,  484.67  L 2455.31,  484.86  L 2454.90,  485.20  L 2455.29,  485.91  L 2455.29,  486.50  L 2455.66,  486.94  L 2456.24,  487.04  L 2456.74,  486.75  L 2456.94,  486.20  L 2456.74,  485.66  L 2456.24,  485.37  L 2455.66,  485.47  L 2456.09,  486.20 " style="stroke-width: 0.85 ;&st7; " /><path d=" M 2162.89,  196.69  L 2167.14,  200.94  L 2171.39,  196.69 " style="stroke-width: 1.42 ;&st7; " /><path d=" M 2171.39,  200.09  L 2167.14,  204.33  L 2162.89,  200.09 " style="stroke-width: 1.42 ;&st7; " /><path d=" M 2196.88,  196.69  L 2201.13,  200.94  L 2205.38,  196.69 " style="stroke-width: 1.42 ;&st7; " /><path d=" M 2205.38,  200.09  L 2201.13,  204.33  L 2196.88,  200.09 " style="stroke-width: 1.42 ;&st7; " /><path d=" M 2235.13,  375.72  L 2235.13,  392.15 " style="stroke-width: 0.85 ;&st7; " /><path d=" M 2239.37,  200.09  L 2235.13,  204.33  L 2230.88,  200.09 " style="stroke-width: 1.42 ;&st7; " /><path d=" M 2230.88,  196.69  L 2235.13,  200.94  L 2239.37,  196.69 " style="stroke-width: 1.42 ;&st7; " /><path d=" M 2324.64,  116.80  C 2324.64   114.30  2322.62   112.27  2320.11   112.27 " style="stroke-width: 1.42 ;&st7; " /><path d=" M 2320.11,  112.27  C 2317.61   112.27  2315.58   114.30  2315.58   116.80 " style="stroke-width: 1.42 ;&st7; " /><path d=" M 2315.58,  116.80  C 2315.58   119.30  2317.61   121.33  2320.11   121.33 " style="stroke-width: 1.42 ;&st7; " /><path d=" M 2320.11,  121.33  C 2322.62   121.33  2324.64   119.30  2324.64   116.80 " style="stroke-width: 1.42 ;&st7; " /><path d=" M 2324.64,  396.69  C 2324.64   394.18  2322.62   392.15  2320.11   392.15 " style="stroke-width: 1.42 ;&st7; " /><path d=" M 2320.11,  392.15  C 2317.61   392.15  2315.58   394.18  2315.58   396.69 " style="stroke-width: 1.42 ;&st7; " /><path d=" M 2315.58,  396.69  C 2315.58   399.19  2317.61   401.22  2320.11   401.22 " style="stroke-width: 1.42 ;&st7; " /><path d=" M 2320.11,  401.22  C 2322.62   401.22  2324.64   399.19  2324.64   396.69 " style="stroke-width: 1.42 ;&st7; " /><path d=" M 2324.64,  371.19  C 2324.64   368.69  2322.62   366.66  2320.11   366.66 " style="stroke-width: 1.42 ;&st7; " /><path d=" M 2320.11,  366.66  C 2317.61   366.66  2315.58   368.69  2315.58   371.19 " style="stroke-width: 1.42 ;&st7; " /><path d=" M 2315.58,  371.19  C 2315.58   373.69  2317.61   375.72  2320.11   375.72 " style="stroke-width: 1.42 ;&st7; " /><path d=" M 2320.11,  375.72  C 2322.62   375.72  2324.64   373.69  2324.64   371.19 " style="stroke-width: 1.42 ;&st7; " /><path d=" M 2451.84,  554.19  C 2451.84   553.41  2451.21   552.78  2450.42   552.78 " style="stroke-width: 0.85 ;&st7; " /><path d=" M 2450.42,  552.78  C 2449.64   552.78  2449.01   553.41  2449.01   554.19 " style="stroke-width: 0.85 ;&st7; " /><path d=" M 2449.01,  554.19  C 2449.01   554.97  2449.64   555.61  2450.42   555.61 " style="stroke-width: 0.85 ;&st7; " /><path d=" M 2450.42,  555.61  C 2451.21   555.61  2451.84   554.97  2451.84   554.19 " style="stroke-width: 0.85 ;&st7; " /><path d=" M 2429.18,  554.19  C 2429.18   553.41  2428.54   552.78  2427.76   552.78 " style="stroke-width: 0.85 ;&st7; " /><path d=" M 2427.76,  552.78  C 2426.98   552.78  2426.34   553.41  2426.34   554.19 " style="stroke-width: 0.85 ;&st7; " /><path d=" M 2426.34,  554.19  C 2426.34   554.97  2426.98   555.61  2427.76   555.61 " style="stroke-width: 0.85 ;&st7; " /><path d=" M 2427.76,  555.61  C 2428.54   555.61  2429.18   554.97  2429.18   554.19 " style="stroke-width: 0.85 ;&st7; " /><path d=" M 2451.84,  520.20  C 2451.84   519.42  2451.21   518.78  2450.42   518.78 " style="stroke-width: 0.85 ;&st7; " /><path d=" M 2450.42,  518.78  C 2449.64   518.78  2449.01   519.42  2449.01   520.20 " style="stroke-width: 0.85 ;&st7; " /><path d=" M 2449.01,  520.20  C 2449.01   520.98  2449.64   521.61  2450.42   521.61 " style="stroke-width: 0.85 ;&st7; " /><path d=" M 2450.42,  521.61  C 2451.21   521.61  2451.84   520.98  2451.84   520.20 " style="stroke-width: 0.85 ;&st7; " /><path d=" M 2429.18,  520.20  C 2429.18   519.42  2428.54   518.78  2427.76   518.78 " style="stroke-width: 0.85 ;&st7; " /><path d=" M 2427.76,  518.78  C 2426.98   518.78  2426.34   519.42  2426.34   520.20 " style="stroke-width: 0.85 ;&st7; " /><path d=" M 2426.34,  520.20  C 2426.34   520.98  2426.98   521.61  2427.76   521.61 " style="stroke-width: 0.85 ;&st7; " /><path d=" M 2427.76,  521.61  C 2428.54   521.61  2429.18   520.98  2429.18   520.20 " style="stroke-width: 0.85 ;&st7; " /><path d=" M 2451.84,  486.20  C 2451.84   485.42  2451.21   484.79  2450.42   484.79 " style="stroke-width: 0.85 ;&st7; " /><path d=" M 2450.42,  484.79  C 2449.64   484.79  2449.01   485.42  2449.01   486.20 " style="stroke-width: 0.85 ;&st7; " /><path d=" M 2449.01,  486.20  C 2449.01   486.99  2449.64   487.62  2450.42   487.62 " style="stroke-width: 0.85 ;&st7; " /><path d=" M 2450.42,  487.62  C 2451.21   487.62  2451.84   486.99  2451.84   486.20 " style="stroke-width: 0.85 ;&st7; " /><path d=" M 2429.18,  486.20  C 2429.18   485.42  2428.54   484.79  2427.76   484.79 " style="stroke-width: 0.85 ;&st7; " /><path d=" M 2427.76,  484.79  C 2426.98   484.79  2426.34   485.42  2426.34   486.20 " style="stroke-width: 0.85 ;&st7; " /><path d=" M 2426.34,  486.20  C 2426.34   486.99  2426.98   487.62  2427.76   487.62 " style="stroke-width: 0.85 ;&st7; " /><path d=" M 2427.76,  487.62  C 2428.54   487.62  2429.18   486.99  2429.18   486.20 " style="stroke-width: 0.85 ;&st7; " /><path d=" M 2239.66,  371.19  C 2239.66   368.69  2237.63   366.66  2235.13   366.66 " style="stroke-width: 1.42 ;&st7; " /><path d=" M 2235.13,  366.66  C 2232.62   366.66  2230.59   368.69  2230.59   371.19 " style="stroke-width: 1.42 ;&st7; " /><path d=" M 2230.59,  371.19  C 2230.59   373.69  2232.62   375.72  2235.13   375.72 " style="stroke-width: 1.42 ;&st7; " /><path d=" M 2235.13,  375.72  C 2237.63   375.72  2239.66   373.69  2239.66   371.19 " style="stroke-width: 1.42 ;&st7; " /><path d=" M 2239.66,  116.80  C 2239.66   114.30  2237.63   112.27  2235.13   112.27 " style="stroke-width: 1.42 ;&st7; " /><path d=" M 2235.13,  112.27  C 2232.62   112.27  2230.59   114.30  2230.59   116.80 " style="stroke-width: 1.42 ;&st7; " /><path d=" M 2230.59,  116.80  C 2230.59   119.30  2232.62   121.33  2235.13   121.33 " style="stroke-width: 1.42 ;&st7; " /><path d=" M 2235.13,  121.33  C 2237.63   121.33  2239.66   119.30  2239.66   116.80 " style="stroke-width: 1.42 ;&st7; " /><path d=" M 2239.66,  396.69  C 2239.66   394.18  2237.63   392.15  2235.13   392.15 " style="stroke-width: 1.42 ;&st7; " /><path d=" M 2235.13,  392.15  C 2232.62   392.15  2230.59   394.18  2230.59   396.69 " style="stroke-width: 1.42 ;&st7; " /><path d=" M 2230.59,  396.69  C 2230.59   399.19  2232.62   401.22  2235.13   401.22 " style="stroke-width: 1.42 ;&st7; " /><path d=" M 2235.13,  401.22  C 2237.63   401.22  2239.66   399.19  2239.66   396.69 " style="stroke-width: 1.42 ;&st7; " /><path d=" M 2205.66,  116.80  C 2205.66   114.30  2203.64   112.27  2201.13   112.27 " style="stroke-width: 1.42 ;&st7; " /><path d=" M 2201.13,  112.27  C 2198.63   112.27  2196.60   114.30  2196.60   116.80 " style="stroke-width: 1.42 ;&st7; " /><path d=" M 2196.60,  116.80  C 2196.60   119.30  2198.63   121.33  2201.13   121.33 " style="stroke-width: 1.42 ;&st7; " /><path d=" M 2201.13,  121.33  C 2203.64   121.33  2205.66   119.30  2205.66   116.80 " style="stroke-width: 1.42 ;&st7; " /><path d=" M 2171.67,  116.80  C 2171.67   114.30  2169.64   112.27  2167.14   112.27 " style="stroke-width: 1.42 ;&st7; " /><path d=" M 2167.14,  112.27  C 2164.63   112.27  2162.61   114.30  2162.61   116.80 " style="stroke-width: 1.42 ;&st7; " /><path d=" M 2162.61,  116.80  C 2162.61   119.30  2164.63   121.33  2167.14   121.33 " style="stroke-width: 1.42 ;&st7; " /><path d=" M 2167.14,  121.33  C 2169.64   121.33  2171.67   119.30  2171.67   116.80 " style="stroke-width: 1.42 ;&st7; " /><path d=" M 2171.67,  371.19  C 2171.67   368.69  2169.64   366.66  2167.14   366.66 " style="stroke-width: 1.42 ;&st7; " /><path d=" M 2167.14,  366.66  C 2164.63   366.66  2162.61   368.69  2162.61   371.19 " style="stroke-width: 1.42 ;&st7; " /><path d=" M 2162.61,  371.19  C 2162.61   373.69  2164.63   375.72  2167.14   375.72 " style="stroke-width: 1.42 ;&st7; " /><path d=" M 2167.14,  375.72  C 2169.64   375.72  2171.67   373.69  2171.67   371.19 " style="stroke-width: 1.42 ;&st7; " /><path d=" M 2205.66,  371.19  C 2205.66   368.69  2203.64   366.66  2201.13   366.66 " style="stroke-width: 1.42 ;&st7; " /><path d=" M 2201.13,  366.66  C 2198.63   366.66  2196.60   368.69  2196.60   371.19 " style="stroke-width: 1.42 ;&st7; " /><path d=" M 2196.60,  371.19  C 2196.60   373.69  2198.63   375.72  2201.13   375.72 " style="stroke-width: 1.42 ;&st7; " /><path d=" M 2201.13,  375.72  C 2203.64   375.72  2205.66   373.69  2205.66   371.19 " style="stroke-width: 1.42 ;&st7; " /><path d=" M 2171.67,  396.69  C 2171.67   394.18  2169.64   392.15  2167.14   392.15 " style="stroke-width: 1.42 ;&st7; " /><path d=" M 2167.14,  392.15  C 2164.63   392.15  2162.61   394.18  2162.61   396.69 " style="stroke-width: 1.42 ;&st7; " /><path d=" M 2162.61,  396.69  C 2162.61   399.19  2164.63   401.22  2167.14   401.22 " style="stroke-width: 1.42 ;&st7; " /><path d=" M 2167.14,  401.22  C 2169.64   401.22  2171.67   399.19  2171.67   396.69 " style="stroke-width: 1.42 ;&st7; " /><path d=" M 2205.66,  396.69  C 2205.66   394.18  2203.64   392.15  2201.13   392.15 " style="stroke-width: 1.42 ;&st7; " /><path d=" M 2201.13,  392.15  C 2198.63   392.15  2196.60   394.18  2196.60   396.69 " style="stroke-width: 1.42 ;&st7; " /><path d=" M 2196.60,  396.69  C 2196.60   399.19  2198.63   401.22  2201.13   401.22 " style="stroke-width: 1.42 ;&st7; " /><path d=" M 2201.13,  401.22  C 2203.64   401.22  2205.66   399.19  2205.66   396.69 " style="stroke-width: 1.42 ;&st7; " /><path d=" M 2196.88,  486.20  C 2196.88   485.42  2196.25   484.79  2195.47   484.79 " style="stroke-width: 0.85 ;&st7; " /><path d=" M 2195.47,  484.79  C 2194.68   484.79  2194.05   485.42  2194.05   486.20 " style="stroke-width: 0.85 ;&st7; " /><path d=" M 2194.05,  486.20  C 2194.05   486.99  2194.68   487.62  2195.47   487.62 " style="stroke-width: 0.85 ;&st7; " /><path d=" M 2195.47,  487.62  C 2196.25   487.62  2196.88   486.99  2196.88   486.20 " style="stroke-width: 0.85 ;&st7; " /><path d=" M 2174.22,  486.20  C 2174.22   485.42  2173.59   484.79  2172.80   484.79 " style="stroke-width: 0.85 ;&st7; " /><path d=" M 2172.80,  484.79  C 2172.02   484.79  2171.39   485.42  2171.39   486.20 " style="stroke-width: 0.85 ;&st7; " /><path d=" M 2171.39,  486.20  C 2171.39   486.99  2172.02   487.62  2172.80   487.62 " style="stroke-width: 0.85 ;&st7; " /><path d=" M 2172.80,  487.62  C 2173.59   487.62  2174.22   486.99  2174.22   486.20 " style="stroke-width: 0.85 ;&st7; " /><path d=" M 2230.88,  486.20  C 2230.88   485.42  2230.24   484.79  2229.46   484.79 " style="stroke-width: 0.85 ;&st7; " /><path d=" M 2229.46,  484.79  C 2228.68   484.79  2228.04   485.42  2228.04   486.20 " style="stroke-width: 0.85 ;&st7; " /><path d=" M 2228.04,  486.20  C 2228.04   486.99  2228.68   487.62  2229.46   487.62 " style="stroke-width: 0.85 ;&st7; " /><path d=" M 2229.46,  487.62  C 2230.24   487.62  2230.88   486.99  2230.88   486.20 " style="stroke-width: 0.85 ;&st7; " /><path d=" M 2208.21,  486.20  C 2208.21   485.42  2207.58   484.79  2206.80   484.79 " style="stroke-width: 0.85 ;&st7; " /><path d=" M 2206.80,  484.79  C 2206.02   484.79  2205.38   485.42  2205.38   486.20 " style="stroke-width: 0.85 ;&st7; " /><path d=" M 2205.38,  486.20  C 2205.38   486.99  2206.02   487.62  2206.80   487.62 " style="stroke-width: 0.85 ;&st7; " /><path d=" M 2206.80,  487.62  C 2207.58   487.62  2208.21   486.99  2208.21   486.20 " style="stroke-width: 0.85 ;&st7; " /><path d=" M 2196.88,  520.20  C 2196.88   519.42  2196.25   518.78  2195.47   518.78 " style="stroke-width: 0.85 ;&st7; " /><path d=" M 2195.47,  518.78  C 2194.68   518.78  2194.05   519.42  2194.05   520.20 " style="stroke-width: 0.85 ;&st7; " /><path d=" M 2194.05,  520.20  C 2194.05   520.98  2194.68   521.61  2195.47   521.61 " style="stroke-width: 0.85 ;&st7; " /><path d=" M 2195.47,  521.61  C 2196.25   521.61  2196.88   520.98  2196.88   520.20 " style="stroke-width: 0.85 ;&st7; " /><path d=" M 2174.22,  520.20  C 2174.22   519.42  2173.59   518.78  2172.80   518.78 " style="stroke-width: 0.85 ;&st7; " /><path d=" M 2172.80,  518.78  C 2172.02   518.78  2171.39   519.42  2171.39   520.20 " style="stroke-width: 0.85 ;&st7; " /><path d=" M 2171.39,  520.20  C 2171.39   520.98  2172.02   521.61  2172.80   521.61 " style="stroke-width: 0.85 ;&st7; " /><path d=" M 2172.80,  521.61  C 2173.59   521.61  2174.22   520.98  2174.22   520.20 " style="stroke-width: 0.85 ;&st7; " /><path d=" M 2230.88,  520.20  C 2230.88   519.42  2230.24   518.78  2229.46   518.78 " style="stroke-width: 0.85 ;&st7; " /><path d=" M 2229.46,  518.78  C 2228.68   518.78  2228.04   519.42  2228.04   520.20 " style="stroke-width: 0.85 ;&st7; " /><path d=" M 2228.04,  520.20  C 2228.04   520.98  2228.68   521.61  2229.46   521.61 " style="stroke-width: 0.85 ;&st7; " /><path d=" M 2229.46,  521.61  C 2230.24   521.61  2230.88   520.98  2230.88   520.20 " style="stroke-width: 0.85 ;&st7; " /><path d=" M 2208.21,  520.20  C 2208.21   519.42  2207.58   518.78  2206.80   518.78 " style="stroke-width: 0.85 ;&st7; " /><path d=" M 2206.80,  518.78  C 2206.02   518.78  2205.38   519.42  2205.38   520.20 " style="stroke-width: 0.85 ;&st7; " /><path d=" M 2205.38,  520.20  C 2205.38   520.98  2206.02   521.61  2206.80   521.61 " style="stroke-width: 0.85 ;&st7; " /><path d=" M 2206.80,  521.61  C 2207.58   521.61  2208.21   520.98  2208.21   520.20 " style="stroke-width: 0.85 ;&st7; " /><path d=" M 2196.88,  554.19  C 2196.88   553.41  2196.25   552.78  2195.47   552.78 " style="stroke-width: 0.85 ;&st7; " /><path d=" M 2195.47,  552.78  C 2194.68   552.78  2194.05   553.41  2194.05   554.19 " style="stroke-width: 0.85 ;&st7; " /><path d=" M 2194.05,  554.19  C 2194.05   554.97  2194.68   555.61  2195.47   555.61 " style="stroke-width: 0.85 ;&st7; " /><path d=" M 2195.47,  555.61  C 2196.25   555.61  2196.88   554.97  2196.88   554.19 " style="stroke-width: 0.85 ;&st7; " /><path d=" M 2174.22,  554.19  C 2174.22   553.41  2173.59   552.78  2172.80   552.78 " style="stroke-width: 0.85 ;&st7; " /><path d=" M 2172.80,  552.78  C 2172.02   552.78  2171.39   553.41  2171.39   554.19 " style="stroke-width: 0.85 ;&st7; " /><path d=" M 2171.39,  554.19  C 2171.39   554.97  2172.02   555.61  2172.80   555.61 " style="stroke-width: 0.85 ;&st7; " /><path d=" M 2172.80,  555.61  C 2173.59   555.61  2174.22   554.97  2174.22   554.19 " style="stroke-width: 0.85 ;&st7; " /><path d=" M 2230.88,  554.19  C 2230.88   553.41  2230.24   552.78  2229.46   552.78 " style="stroke-width: 0.85 ;&st7; " /><path d=" M 2229.46,  552.78  C 2228.68   552.78  2228.04   553.41  2228.04   554.19 " style="stroke-width: 0.85 ;&st7; " /><path d=" M 2228.04,  554.19  C 2228.04   554.97  2228.68   555.61  2229.46   555.61 " style="stroke-width: 0.85 ;&st7; " /><path d=" M 2229.46,  555.61  C 2230.24   555.61  2230.88   554.97  2230.88   554.19 " style="stroke-width: 0.85 ;&st7; " /><path d=" M 2208.21,  554.19  C 2208.21   553.41  2207.58   552.78  2206.80   552.78 " style="stroke-width: 0.85 ;&st7; " /><path d=" M 2206.80,  552.78  C 2206.02   552.78  2205.38   553.41  2205.38   554.19 " style="stroke-width: 0.85 ;&st7; " /><path d=" M 2205.38,  554.19  C 2205.38   554.97  2206.02   555.61  2206.80   555.61 " style="stroke-width: 0.85 ;&st7; " /><path d=" M 2206.80,  555.61  C 2207.58   555.61  2208.21   554.97  2208.21   554.19 " style="stroke-width: 0.85 ;&st7; " /><path d=" M 2307.36,  486.20  C 2307.36   485.42  2306.73   484.79  2305.95   484.79 " style="stroke-width: 0.85 ;&st7; " /><path d=" M 2305.95,  484.79  C 2305.17   484.79  2304.53   485.42  2304.53   486.20 " style="stroke-width: 0.85 ;&st7; " /><path d=" M 2304.53,  486.20  C 2304.53   486.99  2305.17   487.62  2305.95   487.62 " style="stroke-width: 0.85 ;&st7; " /><path d=" M 2305.95,  487.62  C 2306.73   487.62  2307.36   486.99  2307.36   486.20 " style="stroke-width: 0.85 ;&st7; " /><path d=" M 2284.70,  486.20  C 2284.70   485.42  2284.07   484.79  2283.29   484.79 " style="stroke-width: 0.85 ;&st7; " /><path d=" M 2283.29,  484.79  C 2282.50   484.79  2281.87   485.42  2281.87   486.20 " style="stroke-width: 0.85 ;&st7; " /><path d=" M 2281.87,  486.20  C 2281.87   486.99  2282.50   487.62  2283.29   487.62 " style="stroke-width: 0.85 ;&st7; " /><path d=" M 2283.29,  487.62  C 2284.07   487.62  2284.70   486.99  2284.70   486.20 " style="stroke-width: 0.85 ;&st7; " /><path d=" M 2208.21,  588.19  C 2208.21   587.40  2207.58   586.77  2206.80   586.77 " style="stroke-width: 0.85 ;&st7; " /><path d=" M 2206.80,  586.77  C 2206.02   586.77  2205.38   587.40  2205.38   588.19 " style="stroke-width: 0.85 ;&st7; " /><path d=" M 2205.38,  588.19  C 2205.38   588.97  2206.02   589.60  2206.80   589.60 " style="stroke-width: 0.85 ;&st7; " /><path d=" M 2206.80,  589.60  C 2207.58   589.60  2208.21   588.97  2208.21   588.19 " style="stroke-width: 0.85 ;&st7; " /><path d=" M 2230.88,  588.19  C 2230.88   587.40  2230.24   586.77  2229.46   586.77 " style="stroke-width: 0.85 ;&st7; " /><path d=" M 2229.46,  586.77  C 2228.68   586.77  2228.04   587.40  2228.04   588.19 " style="stroke-width: 0.85 ;&st7; " /><path d=" M 2228.04,  588.19  C 2228.04   588.97  2228.68   589.60  2229.46   589.60 " style="stroke-width: 0.85 ;&st7; " /><path d=" M 2229.46,  589.60  C 2230.24   589.60  2230.88   588.97  2230.88   588.19 " style="stroke-width: 0.85 ;&st7; " /><path d=" M 2174.22,  588.19  C 2174.22   587.40  2173.59   586.77  2172.80   586.77 " style="stroke-width: 0.85 ;&st7; " /><path d=" M 2172.80,  586.77  C 2172.02   586.77  2171.39   587.40  2171.39   588.19 " style="stroke-width: 0.85 ;&st7; " /><path d=" M 2171.39,  588.19  C 2171.39   588.97  2172.02   589.60  2172.80   589.60 " style="stroke-width: 0.85 ;&st7; " /><path d=" M 2172.80,  589.60  C 2173.59   589.60  2174.22   588.97  2174.22   588.19 " style="stroke-width: 0.85 ;&st7; " /><path d=" M 2196.88,  588.19  C 2196.88   587.40  2196.25   586.77  2195.47   586.77 " style="stroke-width: 0.85 ;&st7; " /><path d=" M 2195.47,  586.77  C 2194.68   586.77  2194.05   587.40  2194.05   588.19 " style="stroke-width: 0.85 ;&st7; " /><path d=" M 2194.05,  588.19  C 2194.05   588.97  2194.68   589.60  2195.47   589.60 " style="stroke-width: 0.85 ;&st7; " /><path d=" M 2195.47,  589.60  C 2196.25   589.60  2196.88   588.97  2196.88   588.19 " style="stroke-width: 0.85 ;&st7; " /><text style="&st18;" transform="matrix(&st17;  2316.42  159.99 )">GR</text><text style="&st18;" transform="matrix(&st16;  2312.45  108.57 )">SW2</text><text style="&st18;" transform="matrix(&st16;  2317.78  373.16 )">A</text><text style="&st18;" transform="matrix(&st16;  2309.24  373.16 )">5</text><text style="&st18;" transform="matrix(&st16;  2317.64  398.65 )">C</text><text style="&st18;" transform="matrix(&st16;  2309.24  398.65 )">9</text><text style="&st18;" transform="matrix(&st16;  2130.62  638.29 )">z12(C)</text><text ewd:textID="45" style="&st18;" transform="matrix(&st16;  2130.62  645.4 )">Steering Pad Switch Assembly</text><text style="&st18;" transform="matrix(&st16;  2322.95  383.92 )">AU2</text><text ewd:textID="47" style="&st18;" transform="matrix(&st17;  2475.06  551.03 )">Steering Switch RH</text><text style="&st18;" transform="matrix(&st16;  2040.39  23.58 )">L(*1)</text><text style="&st18;" transform="matrix(&st16;  2037.14  40.58 )">GR(*1)</text><text style="&st18;" transform="matrix(&st16;  2317.78  118.77 )">E</text><text style="&st18;" transform="matrix(&st16;  2305.28  118.77 )">22</text><text style="&st18;" transform="matrix(&st16;  2305.3  211.97 )">4</text><text style="&st18;" transform="matrix(&st17;  2316.42  261.97 )">GR</text><text style="&st18;" transform="matrix(&st16;  2088.13  40.58 )">GR(*1)</text><text style="&st18;" transform="matrix(&st16;  2091.38  23.58 )">L(*1)</text><text style="&st18;" transform="matrix(&st16;  2224.1  84.47 )">I25(A),I26(B),I27(C),I50(D),I53(E),I54(F),e1(G),f1(H),f3(I)</text><text ewd:textID="25" style="&st18;" transform="matrix(&st16;  2224.1  91.57 )">Navigation Receiver Assembly</text><text ewd:textID="3" style="&st18;" transform="matrix(&st16;  2156.11  675.14 )">* 1 :w/ Rear Seat Entertainment System</text><text style="&st18;" transform="matrix(&st16;  2220.29  118.77 )">24</text><text style="&st18;" transform="matrix(&st16;  2190.26  398.65 )">8</text><text style="&st18;" transform="matrix(&st16;  2198.66  398.65 )">C</text><text style="&st18;" transform="matrix(&st16;  2153.08  398.65 )">10</text><text style="&st18;" transform="matrix(&st16;  2164.67  398.65 )">C</text><text style="&st18;" transform="matrix(&st16;  2203.97  383.92 )">EAU</text><text style="&st18;" transform="matrix(&st16;  2169.97  383.92 )">AU1</text><text style="&st18;" transform="matrix(&st16;  2190.26  373.16 )">4</text><text style="&st18;" transform="matrix(&st16;  2198.8  373.16 )">A</text><text style="&st18;" transform="matrix(&st16;  2156.26  373.16 )">6</text><text style="&st18;" transform="matrix(&st16;  2164.81  373.16 )">A</text><text style="&st18;" transform="matrix(&st16;  2224.25  373.16 )">3</text><text style="&st18;" transform="matrix(&st17;  2231.43  158.11 )">W</text><text style="&st18;" transform="matrix(&st17;  2231.43  260.1 )">W</text><text style="&st18;" transform="matrix(&st16;  2192.69  108.57 )">SWG</text><text style="&st18;" transform="matrix(&st16;  2159.86  108.57 )">SW1</text><text style="&st18;" transform="matrix(&st17;  2163.44  159.49 )">LG</text><text style="&st18;" transform="matrix(&st17;  2197.44  159.56 )">BR</text><text style="&st18;" transform="matrix(&st17;  2197.44  261.4 )">SB</text><text style="&st18;" transform="matrix(&st17;  2163.44  259.5 )">G</text><text style="&st18;" transform="matrix(&st16;  2152.32  211.97 )">5</text><text style="&st18;" transform="matrix(&st16;  2186.32  211.97 )">6</text><text style="&st18;" transform="matrix(&st16;  2153.08  118.77 )">21</text><text style="&st18;" transform="matrix(&st16;  2164.81  118.77 )">E</text><text style="&st18;" transform="matrix(&st16;  2186.3  118.77 )">23</text><text style="&st18;" transform="matrix(&st16;  2198.8  118.77 )">E</text><text style="&st18;" transform="matrix(&st16;  2217.13  211.97 )">15</text><text style="&st18;" transform="matrix(&st16;  2227.46  108.57 )">SW3</text><text style="&st18;" transform="matrix(&st16;  2232.8  118.77 )">E</text><text style="&st18;" transform="matrix(&st16;  2232.8  373.16 )">A</text><text style="&st18;" transform="matrix(&st16;  2237.96  383.92 )">AU3</text><text style="&st18;" transform="matrix(&st16;  2232.65  398.65 )">C</text><text style="&st18;" transform="matrix(&st16;  2224.25  398.65 )">7</text><text ewd:textID="46" style="&st18;" transform="matrix(&st17;  2160.61  550.54 )">Steering Switch LH</text><text style="&st18;" transform="matrix(&st17;  2163.44  418.77 )">BR</text><text style="&st18;" transform="matrix(&st17;  2197.44  417.32 )">W</text><text style="&st18;" transform="matrix(&st17;  2231.43  418.7 )">LG</text><text style="&st18;" transform="matrix(&st17;  2316.42  416.72 )">G</text><text ewd:textID="11" style="&st18;" transform="matrix(&st16;  2209.65  496.67 )">Enter</text><text ewd:textID="8" style="&st18;" transform="matrix(&st16;  2210.25  530.67 )">Back</text><text ewd:textID="23" style="&st18;" transform="matrix(&st16;  2212.2  598.65 )">Left</text><text ewd:textID="39" style="&st18;" transform="matrix(&st16;  2209.97  564.66 )">Right</text><text ewd:textID="55" style="&st18;" transform="matrix(&st16;  2170.18  598.65 )">Volume-</text><text ewd:textID="54" style="&st18;" transform="matrix(&st16;  2170.18  564.66 )">Volume+</text><text ewd:textID="10" style="&st18;" transform="matrix(&st16;  2175.16  530.67 )">Down</text><text ewd:textID="51" style="&st18;" transform="matrix(&st16;  2179.68  496.67 )">Up</text><text style="&st18;" transform="matrix(&st16;  2284.16  496.67 )">MODE <tspan dy="6" x="0">HOLD</tspan></text><text ewd:textID="53" style="&st18;" transform="matrix(&st16;  2430.26  564.66 )">Voice</text><text ewd:textID="28" style="&st18;" transform="matrix(&st16;  2430.9  530.67 )">Off <tspan dy="6" x="0">Hook</tspan></text><text ewd:textID="29" style="&st18;" transform="matrix(&st16;  2430.9  496.67 )">On <tspan dy="6" x="0">Hook</tspan></text></svg>