﻿<?xml version="1.0" encoding="utf-8"?>
<!DOCTYPE svg PUBLIC "-//W3C//DTD SVG 1.0//EN" "http://www.w3.org/TR/2001/REC-SVG-20010904/DTD/svg10.dtd"[
	<!ENTITY ns_flows "http://ns.adobe.com/Flows/1.0/">
	<!ENTITY ns_svg "http://www.w3.org/2000/svg">
	<!ENTITY ns_xlink "http://www.w3.org/1999/xlink">
	<!ENTITY st0 "font-size:7px;font-family:'MS-PGothic';adobe-font-script:japanese;">
	<!ENTITY st1 "font-size:6px;font-family:'ArialMT';">
	<!-- White fill  -->
	<!ENTITY st2 "fill:#FFFFFF;stroke:#000000; stroke-width:1.41;stroke-linecap:round;stroke-linejoin:round;">
	<!-- Yellow fill  -->
	<!ENTITY st3 "fill:#FFFFCC;stroke:#FFFFCC; stroke-width:0.1;stroke-linecap:round;stroke-linejoin:round;">
	<!-- Gray fill  -->
	<!ENTITY st4 "fill:#CCCCCC;stroke:#CCCCCC; stroke-width:0.1;stroke-linecap:round;stroke-linejoin:round;">
	<!-- Light-blue fill -->
	<!ENTITY st5 "fill:#CCECF4;stroke:#000000; stroke-width:1.133;stroke-linecap:round;stroke-linejoin:round;">
	<!ENTITY st6 "fill:none;stroke-linecap:butt; stroke-linejoin:round;">
	<!ENTITY st7 "fill:none;stroke:#000000;stroke-linecap:round;stroke-linejoin:round;">
	<!ENTITY st8 "enable-background:new    ;">
	<!-- Black fill -->
	<!ENTITY st9 "fill:#000000;stroke:#000000; stroke-linecap:round;stroke-linejoin:round;">
	<!-- SRS note   -->
	<!ENTITY st10 "font-size:9px;font-family:'ArialMT';">
	<!ENTITY st11 "font-size:9px;font-family:'Svg Symbol';">
	<!ENTITY st12 "font-size:6px;font-family:'Svg Symbol';">
	<!ENTITY st13 "fill:none;stroke:#ff0000;stroke-linecap:round;stroke-linejoin:round;">
	<!-- Yellow fill  -->
	<!ENTITY st14 "fill:#FFFF00;stroke:#FFFF00; stroke-width:0.1;stroke-linecap:round;stroke-linejoin:round;">
	<!ENTITY st15 "font-size:6px;font-family:'MS-PGothic';adobe-font-script:japanese;">
	<!ENTITY st16 "1.00 0.00 0.00 1.00">
	<!ENTITY st17 "0.00 -1.00 1.00 0.00">
	<!ENTITY st18 "font-size:6px;font-family:'Arial';">
	<!ENTITY st19 "font-size:9px;font-family:'Arial';">
	<!ENTITY st20 "font-size:6px;font-family:'MS-PGothic','MS PGothic';adobe-font-script:japanese;">
	<!ENTITY st21 "font-size:7px;font-family:'MS-PGothic','MS PGothic';adobe-font-script:japanese;">
	<!ATTLIST svg
		xmlns:ewd CDATA #FIXED "http://shcl.co.jp/ewd"
		xmlns:a CDATA #FIXED "http://ns.adobe.com/AdobeSVGViewerExtensions/3.0/"
		ewd:ver CDATA #IMPLIED
	>
	<!ATTLIST a
		ewd:lineID CDATA #IMPLIED
		ewd:groupID CDATA #IMPLIED
		ewd:figtype CDATA #IMPLIED
		ewd:code CDATA #IMPLIED
		ewd:figID CDATA #IMPLIED
		ewd:pinNo CDATA #IMPLIED
		ewd:comment CDATA #IMPLIED >
	<!ATTLIST g
		ewd:lineID CDATA #IMPLIED
		ewd:groupID CDATA #IMPLIED
		ewd:figtype CDATA #IMPLIED
		ewd:code CDATA #IMPLIED
		ewd:figID CDATA #IMPLIED
		ewd:pinNo CDATA #IMPLIED
		ewd:comment CDATA #IMPLIED >
	<!ATTLIST text
		ewd:textID CDATA #IMPLIED >
	<!ATTLIST title
		ewd:textID CDATA #IMPLIED >
]>
<!-- Generator: Shintec Hozumi YS   -->
<svg onload="call_execInitLoadProc_svg('system')" style="overflow:visible;  enable-background:new 0 0 2026.990 710.000" viewBox="0 0 2026.990 710.000" height="710.000" width="2026.990" xml:space="preserve" ewd:ver="L2.1.2.7" xmlns="&ns_svg;" xmlns:a="http://ns.adobe.com/AdobeSVGViewerExtensions/3.0/" xmlns:ewd="http://shcl.co.jp/ewd" xmlns:xlink="&ns_xlink;">
<path d=" M 1788.95,  222.75  L 1780.45,  222.75 " style="stroke-width: 0.85 ;&st7; " /><path d=" M 1869.69,  137.76  L 1861.19,  137.76 " style="stroke-width: 1.42 ;&st7; " /><path d=" M 1863.31,   95.27  L 1859.06,   95.27 " style="stroke-width: 1.42 ;&st7; " /><path d=" M 1863.31,   86.77  L 1859.06,   86.77 " style="stroke-width: 1.42 ;&st7; " /><path d=" M 1861.19,   61.28  L 1861.19,   86.77 " style="stroke-width: 0.85 ;&st7; " /><path d=" M 1810.20,  137.76  L 1801.70,  137.76 " style="stroke-width: 1.42 ;&st7; " /><path d=" M 1803.82,   95.27  L 1799.57,   95.27 " style="stroke-width: 1.42 ;&st7; " /><path d=" M 1803.82,   86.77  L 1799.57,   86.77 " style="stroke-width: 1.42 ;&st7; " /><path d=" M 1801.70,   61.28  L 1801.70,   86.77 " style="stroke-width: 0.85 ;&st7; " /><path d=" M 1783.51,  230.24  L 1783.24,  230.71  L 1783.14,  231.25  L 1783.24,  231.78  L 1783.51,  232.25  L 1783.92,  232.60  L 1784.43,  232.78  L 1784.97,  232.78  L 1785.48,  232.60  L 1785.89,  232.25  L 1786.17,  231.78  L 1786.26,  231.25  L 1786.17,  230.71  L 1785.89,  230.24  L 1785.48,  229.90  L 1784.97,  229.71  L 1784.43,  229.71  L 1783.92,  229.90  L 1783.51,  230.24  L 1783.90,  230.96  L 1783.90,  231.54  L 1784.28,  231.98  L 1784.85,  232.08  L 1785.35,  231.79  L 1785.55,  231.25  L 1785.35,  230.70  L 1784.85,  230.41  L 1784.28,  230.51  L 1784.70,  231.25 " style="stroke-width: 0.85 ;&st7; " /><path d=" M 1783.51,  204.75  L 1783.24,  205.22  L 1783.14,  205.75  L 1783.24,  206.28  L 1783.51,  206.75  L 1783.92,  207.10  L 1784.43,  207.29  L 1784.97,  207.29  L 1785.48,  207.10  L 1785.89,  206.75  L 1786.17,  206.28  L 1786.26,  205.75  L 1786.17,  205.22  L 1785.89,  204.75  L 1785.48,  204.40  L 1784.97,  204.22  L 1784.43,  204.22  L 1783.92,  204.40  L 1783.51,  204.75  L 1783.90,  205.46  L 1783.90,  206.04  L 1784.28,  206.49  L 1784.85,  206.59  L 1785.35,  206.30  L 1785.55,  205.75  L 1785.35,  205.20  L 1784.85,  204.92  L 1784.28,  205.01  L 1784.70,  205.75 " style="stroke-width: 0.85 ;&st7; " /><path d=" M 1784.70,  231.25  L 1784.70,  205.75 " style="stroke-width: 0.85 ;&st7; " /><path d=" M 1784.70,  222.75  L 1779.04,  214.25  L 1790.37,  214.25  L 1784.70,  222.75 " style="stroke-width: 0.28 ;&st9;" /><path d=" M 1865.44,  143.43  L 1861.19,  139.18  L 1856.94,  143.43 " style="stroke-width: 1.42 ;&st7; " /><path d=" M 1865.44,  146.83  L 1861.19,  142.58  L 1856.94,  146.83 " style="stroke-width: 1.42 ;&st7; " /><path d=" M 1848.44,   27.28  L 1848.44,   69.77  L 1873.94,   69.77  L 1873.94,   27.28  L 1848.44,   27.28 " style="stroke-width: 1.42 ;&st7; " /><path d=" M 1861.19,   81.88  L 1858.36,   79.04  L 1858.36,   83.29  L 1861.19,   86.13  L 1864.02,   83.29  L 1864.02,   79.04  L 1861.19,   81.88 " style="stroke-width: 0.28 ;&st9;" /><path d=" M 1805.95,  143.43  L 1801.70,  139.18  L 1797.45,  143.43 " style="stroke-width: 1.42 ;&st7; " /><path d=" M 1805.95,  146.83  L 1801.70,  142.58  L 1797.45,  146.83 " style="stroke-width: 1.42 ;&st7; " /><path d=" M 1788.95,   27.28  L 1788.95,   69.77  L 1814.45,   69.77  L 1814.45,   27.28  L 1788.95,   27.28 " style="stroke-width: 1.42 ;&st7; " /><path d=" M 1801.70,   81.88  L 1798.87,   79.04  L 1798.87,   83.29  L 1801.70,   86.13  L 1804.53,   83.29  L 1804.53,   79.04  L 1801.70,   81.88 " style="stroke-width: 0.28 ;&st9;" /><path d=" M 1699.72,  197.25  L 1699.72,  239.75  L 1767.70,  239.75  L 1767.70,  197.25  L 1699.72,  197.25 " style="stroke-width: 1.42 ;&st7; " /><path d=" M 1800.51,  230.24  L 1800.23,  230.71  L 1800.14,  231.25  L 1800.23,  231.78  L 1800.51,  232.25  L 1800.92,  232.60  L 1801.43,  232.78  L 1801.97,  232.78  L 1802.48,  232.60  L 1802.89,  232.25  L 1803.16,  231.78  L 1803.26,  231.25  L 1803.16,  230.71  L 1802.89,  230.24  L 1802.48,  229.90  L 1801.97,  229.71  L 1801.43,  229.71  L 1800.92,  229.90  L 1800.51,  230.24  L 1800.90,  230.96  L 1800.90,  231.54  L 1801.27,  231.98  L 1801.85,  232.08  L 1802.35,  231.79  L 1802.55,  231.25  L 1802.35,  230.70  L 1801.85,  230.41  L 1801.27,  230.51  L 1801.70,  231.25 " style="stroke-width: 0.85 ;&st7; " /><path d=" M 1860.00,  204.75  L 1859.72,  205.22  L 1859.63,  205.75  L 1859.72,  206.28  L 1860.00,  206.75  L 1860.41,  207.10  L 1860.92,  207.29  L 1861.46,  207.29  L 1861.97,  207.10  L 1862.38,  206.75  L 1862.65,  206.28  L 1862.75,  205.75  L 1862.65,  205.22  L 1862.38,  204.75  L 1861.97,  204.40  L 1861.46,  204.22  L 1860.92,  204.22  L 1860.41,  204.40  L 1860.00,  204.75  L 1860.39,  205.46  L 1860.39,  206.04  L 1860.76,  206.49  L 1861.34,  206.59  L 1861.84,  206.30  L 1862.04,  205.75  L 1861.84,  205.20  L 1861.34,  204.92  L 1860.76,  205.01  L 1861.19,  205.75 " style="stroke-width: 0.85 ;&st7; " /><path d=" M 1801.70,  188.75  L 1801.70,  231.25 " style="stroke-width: 0.85 ;&st7; " /><path d=" M 1801.70,  231.25  L 1801.70,  324.73 " style="stroke-width: 0.85 ;&st7; " /><path d=" M 1861.19,  188.75  L 1861.19,  324.73 " style="stroke-width: 0.85 ;&st7; " /><path d=" M 1767.70,  205.75  L 1861.19,  205.75 " style="stroke-width: 0.85 ;&st7; " /><path d=" M 1767.70,  231.25  L 1801.70,  231.25 " style="stroke-width: 0.85 ;&st7; " /><path d=" M 1725.21,  282.24  L 1725.21,  307.73  L 1759.21,  307.73  L 1759.21,  282.24  L 1725.21,  282.24 " style="stroke-width: 1.42 ;&st7; " /><path d=" M 1742.21,  324.73  L 1742.21,  307.73 " style="stroke-width: 0.85 ;&st7; " /><path d=" M 1716.71,  324.73  L 1988.67,  324.73  L 1988.67,  341.73  L 1716.71,  341.73  L 1716.71,  324.73 " style="stroke-width: 1.42 ;&st7; " /><path d=" M 1682.72,  188.75  L 1682.72,  375.72  L 2005.66,  375.72  L 2005.66,  188.75  L 1682.72,  188.75 " style="stroke-width: 1.42 ;&st7; " /><path d=" M 1767.70,  341.73  L 1767.70,  375.72 " style="stroke-width: 0.85 ;&st7; " /><path d=" M 1725.21,  341.73  L 1725.21,  375.72 " style="stroke-width: 0.85 ;&st7; " /><path d=" M 1978.98,  544.69  L 1978.70,  545.16  L 1978.61,  545.69  L 1978.70,  546.23  L 1978.98,  546.70  L 1979.39,  547.04  L 1979.90,  547.23  L 1980.44,  547.23  L 1980.95,  547.04  L 1981.36,  546.70  L 1981.63,  546.23  L 1981.73,  545.69  L 1981.63,  545.16  L 1981.36,  544.69  L 1980.95,  544.35  L 1980.44,  544.16  L 1979.90,  544.16  L 1979.39,  544.35  L 1978.98,  544.69  L 1979.37,  545.40  L 1979.37,  545.99  L 1979.74,  546.43  L 1980.32,  546.53  L 1980.82,  546.24  L 1981.02,  545.69  L 1980.82,  545.15  L 1980.32,  544.86  L 1979.74,  544.96  L 1980.17,  545.69 " style="stroke-width: 0.85 ;&st7; " /><path d=" M 1936.26,  710.00  L 1939.09,  710.00 " style="stroke-width: 0.85 ;&st7; " /><path d=" M 1934.84,  707.17  L 1940.51,  707.17 " style="stroke-width: 0.85 ;&st7; " /><path d=" M 1933.43,  704.33  L 1941.92,  704.33 " style="stroke-width: 0.85 ;&st7; " /><path d=" M 1929.18,  701.50  L 1946.17,  701.50 " style="stroke-width: 0.85 ;&st7; " /><path d=" M 1937.68,  697.25  L 1937.68,  701.50 " style="stroke-width: 0.85 ;&st7; " /><path d=" M 1980.17,  545.69  L 1937.68,  545.69  L 1937.68,  554.19 " style="stroke-width: 0.85 ;&st7; " /><path d=" M 1929.18,  537.20  L 1988.67,  537.20  L 1988.67,  554.19  L 1929.18,  554.19  L 1929.18,  537.20 " style="stroke-width: 1.42 ;&st7; " /><path d=" M 1980.17,  537.20  L 1980.17,  554.19 " style="stroke-width: 0.85 ;&st7; " /><path d=" M 1978.75,  710.00  L 1981.58,  710.00 " style="stroke-width: 0.85 ;&st7; " /><path d=" M 1977.34,  707.17  L 1983.00,  707.17 " style="stroke-width: 0.85 ;&st7; " /><path d=" M 1975.92,  704.33  L 1984.42,  704.33 " style="stroke-width: 0.85 ;&st7; " /><path d=" M 1971.67,  701.50  L 1988.67,  701.50 " style="stroke-width: 0.85 ;&st7; " /><path d=" M 1980.17,  697.25  L 1980.17,  701.50 " style="stroke-width: 0.85 ;&st7; " /><path d=" M 1980.17,  341.73  L 1980.17,  375.72 " style="stroke-width: 0.85 ;&st7; " /><path d=" M 1867.56,   91.02  C 1867.56    88.67  1865.66    86.77  1863.31    86.77 " style="stroke-width: 1.42 ;&st7; " /><path d=" M 1863.31,   95.27  C 1865.66    95.27  1867.56    93.37  1867.56    91.02 " style="stroke-width: 1.42 ;&st7; " /><path d=" M 1854.82,   91.02  C 1854.82    93.37  1856.72    95.27  1859.06    95.27 " style="stroke-width: 1.42 ;&st7; " /><path d=" M 1859.06,   86.77  C 1856.72    86.77  1854.82    88.67  1854.82    91.02 " style="stroke-width: 1.42 ;&st7; " /><path d=" M 1862.61,   59.86  C 1862.61    59.08  1861.97    58.44  1861.19    58.44 " style="stroke-width: 0.85 ;&st7; " /><path d=" M 1861.19,   58.44  C 1860.41    58.44  1859.77    59.08  1859.77    59.86 " style="stroke-width: 0.85 ;&st7; " /><path d=" M 1859.77,   59.86  C 1859.77    60.64  1860.41    61.28  1861.19    61.28 " style="stroke-width: 0.85 ;&st7; " /><path d=" M 1861.19,   61.28  C 1861.97    61.28  1862.61    60.64  1862.61    59.86 " style="stroke-width: 0.85 ;&st7; " /><path d=" M 1862.61,   37.20  C 1862.61    36.41  1861.97    35.78  1861.19    35.78 " style="stroke-width: 0.85 ;&st7; " /><path d=" M 1861.19,   35.78  C 1860.41    35.78  1859.77    36.41  1859.77    37.20 " style="stroke-width: 0.85 ;&st7; " /><path d=" M 1859.77,   37.20  C 1859.77    37.98  1860.41    38.61  1861.19    38.61 " style="stroke-width: 0.85 ;&st7; " /><path d=" M 1861.19,   38.61  C 1861.97    38.61  1862.61    37.98  1862.61    37.20 " style="stroke-width: 0.85 ;&st7; " /><path d=" M 1861.19,   58.44  C 1863.93    56.83  1864.84    53.30  1863.23    50.56 " style="stroke-width: 1.42 ;&st7; " /><path d=" M 1863.23,   50.56  C 1862.71    49.68  1862.07    49.05  1861.19    48.53 " style="stroke-width: 1.42 ;&st7; " /><path d=" M 1861.19,   38.61  C 1858.45    40.23  1857.54    43.75  1859.15    46.49 " style="stroke-width: 1.42 ;&st7; " /><path d=" M 1859.15,   46.49  C 1859.67    47.37  1860.31    48.01  1861.19    48.53 " style="stroke-width: 1.42 ;&st7; " /><path d=" M 1808.07,   91.02  C 1808.07    88.67  1806.17    86.77  1803.82    86.77 " style="stroke-width: 1.42 ;&st7; " /><path d=" M 1803.82,   95.27  C 1806.17    95.27  1808.07    93.37  1808.07    91.02 " style="stroke-width: 1.42 ;&st7; " /><path d=" M 1795.33,   91.02  C 1795.33    93.37  1797.23    95.27  1799.57    95.27 " style="stroke-width: 1.42 ;&st7; " /><path d=" M 1799.57,   86.77  C 1797.23    86.77  1795.33    88.67  1795.33    91.02 " style="stroke-width: 1.42 ;&st7; " /><path d=" M 1803.12,   59.86  C 1803.12    59.08  1802.48    58.44  1801.70    58.44 " style="stroke-width: 0.85 ;&st7; " /><path d=" M 1801.70,   58.44  C 1800.92    58.44  1800.28    59.08  1800.28    59.86 " style="stroke-width: 0.85 ;&st7; " /><path d=" M 1800.28,   59.86  C 1800.28    60.64  1800.92    61.28  1801.70    61.28 " style="stroke-width: 0.85 ;&st7; " /><path d=" M 1801.70,   61.28  C 1802.48    61.28  1803.12    60.64  1803.12    59.86 " style="stroke-width: 0.85 ;&st7; " /><path d=" M 1803.12,   37.20  C 1803.12    36.41  1802.48    35.78  1801.70    35.78 " style="stroke-width: 0.85 ;&st7; " /><path d=" M 1801.70,   35.78  C 1800.92    35.78  1800.28    36.41  1800.28    37.20 " style="stroke-width: 0.85 ;&st7; " /><path d=" M 1800.28,   37.20  C 1800.28    37.98  1800.92    38.61  1801.70    38.61 " style="stroke-width: 0.85 ;&st7; " /><path d=" M 1801.70,   38.61  C 1802.48    38.61  1803.12    37.98  1803.12    37.20 " style="stroke-width: 0.85 ;&st7; " /><path d=" M 1801.70,   58.44  C 1804.44    56.83  1805.35    53.30  1803.74    50.56 " style="stroke-width: 1.42 ;&st7; " /><path d=" M 1803.74,   50.56  C 1803.22    49.68  1802.58    49.05  1801.70    48.53 " style="stroke-width: 1.42 ;&st7; " /><path d=" M 1801.70,   38.61  C 1798.96    40.23  1798.05    43.75  1799.66    46.49 " style="stroke-width: 1.42 ;&st7; " /><path d=" M 1799.66,   46.49  C 1800.18    47.37  1800.82    48.01  1801.70    48.53 " style="stroke-width: 1.42 ;&st7; " /><text style="&st18;" transform="matrix(&st16;  1575.51  677.97 )">GR</text><text style="&st18;" transform="matrix(&st16;  1864.02  196.95 )">IG+</text><text style="&st18;" transform="matrix(&st17;  1764.01  410.13 )">SB</text><text style="&st18;" transform="matrix(&st17;  1721.52  408.82 )">W</text><text style="&st18;" transform="matrix(&st17;  1857.49  165.59 )">P</text><text style="&st18;" transform="matrix(&st17;  1857.49  116.93 )">BE</text><text style="&st18;" transform="matrix(&st17;  1798.0  167.99 )">LG</text><text style="&st18;" transform="matrix(&st17;  1798.0  115.02 )">G</text><text style="&st18;" transform="matrix(&st16;  1714.47  383.92 )">34</text><text style="&st18;" transform="matrix(&st16;  1756.96  383.92 )">33</text><text style="&st18;" transform="matrix(&st16;  1526.39  465.51 )">W</text><text style="&st18;" transform="matrix(&st16;  1843.2  135.48 )">15</text><text style="&st18;" transform="matrix(&st16;  1855.11  23.58 )">(IG)</text><text style="&st18;" transform="matrix(&st16;  1854.4  77.97 )">2</text><text style="&st18;" transform="matrix(&st16;  1859.6  92.99 )">1</text><text style="&st18;" transform="matrix(&st16;  1878.49  47.67 )">7.5A <tspan dy="6" x="0">MET</tspan></text><text style="&st18;" transform="matrix(&st16;  1786.88  135.48 )">9</text><text style="&st18;" transform="matrix(&st16;  1792.59  23.58 )">(BAT)</text><text style="&st18;" transform="matrix(&st16;  1794.91  77.97 )">2</text><text style="&st18;" transform="matrix(&st16;  1800.11  92.99 )">1</text><text style="&st18;" transform="matrix(&st16;  1819.0  47.67 )">5A <tspan dy="6" x="0">MET-B</tspan></text><text ewd:textID="13" style="&st18;" transform="matrix(&st16;  1712.59  220.47 )">Power Circuit</text><text style="&st18;" transform="matrix(&st16;  1804.53  196.95 )">B</text><text style="&st18;" transform="matrix(&st16;  1791.72  185.06 )">18</text><text style="&st18;" transform="matrix(&st16;  1797.35  332.37 )">+B</text><text style="&st18;" transform="matrix(&st16;  1857.44  332.37 )">IG</text><text style="&st18;" transform="matrix(&st16;  1850.43  185.06 )">20</text><text ewd:textID="8" style="&st18;" transform="matrix(&st16;  1731.19  296.96 )">Buzzer</text><text style="&st18;" transform="matrix(&st16;  1524.52  677.97 )">GR</text><text style="&st18;" transform="matrix(&st16;  1525.08  482.51 )">SB</text><text style="&st18;" transform="matrix(&st16;  1577.38  465.51 )">W</text><text style="&st18;" transform="matrix(&st16;  1770.54  372.03 )">CANH</text><text style="&st18;" transform="matrix(&st16;  1728.04  372.03 )">CANL</text><text style="&st18;" transform="matrix(&st16;  1930.89  562.39 )">5</text><text style="&st18;" transform="matrix(&st17;  1933.98  659.63 )">W-B</text><text style="&st18;" transform="matrix(&st16;  1973.38  533.51 )">8</text><text style="&st18;" transform="matrix(&st16;  1970.2  562.39 )">10</text><text style="&st18;" transform="matrix(&st17;  1976.47  659.63 )">W-B</text><text ewd:textID="11" style="&st18;" transform="matrix(&st16;  1991.81  546.25 )">Junction <tspan dy="6" x="0">Connector</tspan></text><text style="&st18;" transform="matrix(&st16;  1991.81  539.14 )">H85</text><text style="&st18;" transform="matrix(&st17;  1976.47  413.17 )">W-B</text><text style="&st18;" transform="matrix(&st16;  1983.0  372.03 )">E1</text><text style="&st18;" transform="matrix(&st16;  1969.42  383.92 )">40</text><text style="&st18;" transform="matrix(&st17;  1806.5  410.69 )">GR</text><text style="&st18;" transform="matrix(&st16;  1806.88  372.03 )">SI</text><text style="&st18;" transform="matrix(&st16;  1799.45  383.92 )">36</text><text style="&st18;" transform="matrix(&st16;  1576.07  482.51 )">SB</text></svg>