﻿<?xml version="1.0" encoding="utf-8"?>
<!DOCTYPE svg PUBLIC "-//W3C//DTD SVG 1.0//EN" "http://www.w3.org/TR/2001/REC-SVG-20010904/DTD/svg10.dtd"[
	<!ENTITY ns_flows "http://ns.adobe.com/Flows/1.0/">
	<!ENTITY ns_svg "http://www.w3.org/2000/svg">
	<!ENTITY ns_xlink "http://www.w3.org/1999/xlink">
	<!ENTITY st0 "font-size:7px;font-family:'MS-PGothic';adobe-font-script:japanese;">
	<!ENTITY st1 "font-size:6px;font-family:'ArialMT';">
	<!-- White fill  -->
	<!ENTITY st2 "fill:#FFFFFF;stroke:#000000; stroke-width:1.41;stroke-linecap:round;stroke-linejoin:round;">
	<!-- Yellow fill  -->
	<!ENTITY st3 "fill:#FFFFCC;stroke:#FFFFCC; stroke-width:0.1;stroke-linecap:round;stroke-linejoin:round;">
	<!-- Gray fill  -->
	<!ENTITY st4 "fill:#CCCCCC;stroke:#CCCCCC; stroke-width:0.1;stroke-linecap:round;stroke-linejoin:round;">
	<!-- Light-blue fill -->
	<!ENTITY st5 "fill:#CCECF4;stroke:#000000; stroke-width:1.133;stroke-linecap:round;stroke-linejoin:round;">
	<!ENTITY st6 "fill:none;stroke-linecap:butt; stroke-linejoin:round;">
	<!ENTITY st7 "fill:none;stroke:#000000;stroke-linecap:round;stroke-linejoin:round;">
	<!ENTITY st8 "enable-background:new    ;">
	<!-- Black fill -->
	<!ENTITY st9 "fill:#000000;stroke:#000000; stroke-linecap:round;stroke-linejoin:round;">
	<!-- SRS note   -->
	<!ENTITY st10 "font-size:9px;font-family:'ArialMT';">
	<!ENTITY st11 "font-size:9px;font-family:'Svg Symbol';">
	<!ENTITY st12 "font-size:6px;font-family:'Svg Symbol';">
	<!ENTITY st13 "fill:none;stroke:#ff0000;stroke-linecap:round;stroke-linejoin:round;">
	<!-- Yellow fill  -->
	<!ENTITY st14 "fill:#FFFF00;stroke:#FFFF00; stroke-width:0.1;stroke-linecap:round;stroke-linejoin:round;">
	<!ENTITY st15 "font-size:6px;font-family:'MS-PGothic';adobe-font-script:japanese;">
	<!ENTITY st16 "1.00 0.00 0.00 1.00">
	<!ENTITY st17 "0.00 -1.00 1.00 0.00">
	<!ENTITY st18 "font-size:6px;font-family:'Arial';">
	<!ENTITY st19 "font-size:9px;font-family:'Arial';">
	<!ENTITY st20 "font-size:6px;font-family:'MS-PGothic','MS PGothic';adobe-font-script:japanese;">
	<!ENTITY st21 "font-size:7px;font-family:'MS-PGothic','MS PGothic';adobe-font-script:japanese;">
	<!ATTLIST svg
		xmlns:ewd CDATA #FIXED "http://shcl.co.jp/ewd"
		xmlns:a CDATA #FIXED "http://ns.adobe.com/AdobeSVGViewerExtensions/3.0/"
		ewd:ver CDATA #IMPLIED
	>
	<!ATTLIST a
		ewd:lineID CDATA #IMPLIED
		ewd:groupID CDATA #IMPLIED
		ewd:figtype CDATA #IMPLIED
		ewd:code CDATA #IMPLIED
		ewd:figID CDATA #IMPLIED
		ewd:pinNo CDATA #IMPLIED
		ewd:comment CDATA #IMPLIED >
	<!ATTLIST g
		ewd:lineID CDATA #IMPLIED
		ewd:groupID CDATA #IMPLIED
		ewd:figtype CDATA #IMPLIED
		ewd:code CDATA #IMPLIED
		ewd:figID CDATA #IMPLIED
		ewd:pinNo CDATA #IMPLIED
		ewd:comment CDATA #IMPLIED >
	<!ATTLIST text
		ewd:textID CDATA #IMPLIED >
	<!ATTLIST title
		ewd:textID CDATA #IMPLIED >
]>
<!-- Generator: Shintec Hozumi YS   -->
<svg onload="call_execInitLoadProc_svg('system')" style="overflow:visible;  enable-background:new 0 0 467.422 710.000" viewBox="0 0 467.422 710.000" height="710.000" width="467.422" xml:space="preserve" ewd:ver="L2.1.2.7" xmlns="&ns_svg;" xmlns:a="http://ns.adobe.com/AdobeSVGViewerExtensions/3.0/" xmlns:ewd="http://shcl.co.jp/ewd" xmlns:xlink="&ns_xlink;"><script type="text/javascript" xlink:href="../../../../../system/js/ewd/fig/svgfig.js" xmlns:xlink="http://www.w3.org/1999/xlink" /><defs><font horiz-adv-x="1229"><font-face font-family="Svg Symbol" units-per-em="2048" panose-1="5 5 1 2 1 7 6 2 5 7" ascent="2059" descent="450" alphabetic="0" /><missing-glyph d="M 103,0 l 0,1280 1024,0 0,-1280 -1024,0 z m 32,32 l 960,0 0,1216 -960,0 0,-1216 z" /><glyph unicode="" horiz-adv-x="1573" d="M 1517,0 l -567,0 24,279 q 141,59 207.5,168 66.5,109 66.5,306    0,272 -132.5,417.5 -132.5,145.5 -333.5,145.5 -194,0 -328,-147.5 -134,-147.5 -134,-401.5 0,-200 68.5,-319 68.5,-119     206.5,-169 l 25,-279 -564,0 0,279 35,0 q 3,-61 32,-83 45,-35 137,-35 l 270,0 0,70 q -210,61 -324.5,209 -114.5,148     -114.5,349 0,252 186.5,425 186.5,173 504.5,173 195,0 358.5,-73.5 163.5,-73.5 252,-214.5 88.5,-141 88.5,-310 0,-207     -121.5,-360.5 -121.5,-153.5 -317.5,-197.5 l -8,-70 275,0 q 92,0 128,28 36,28 42,90 l 38,0 0,-279 z" /></font></defs>
<g id="ewd_top"><a ewd:code="V8" ewd:figID="1" ewd:figtype="conn" style="cursor:pointer;"><path d=" M   84.99,  409.72  L  127.48,  409.72  L  127.48,  460.71  L   84.99,  460.71  L   84.99,  409.72 " style="&st5;" /><title ewd:textID="5">Rear Combination Light Assembly LH</title></a><a ewd:code="H77" ewd:figID="2" ewd:figtype="conn" style="cursor:pointer;"><path d=" M  416.43,  146.26  L  433.43,  146.26  L  433.43,  163.26  L  416.43,  163.26  L  416.43,  146.26 " style="&st5;" /><title ewd:textID="3">Junction Connector</title></a><a ewd:code="V19" ewd:figID="3" ewd:figtype="conn" style="cursor:pointer;"><path d=" M   93.48,  511.70  L  186.97,  511.70  L  186.97,  528.70  L   93.48,  528.70  L   93.48,  511.70 " style="&st5;" /><title ewd:textID="3">Junction Connector</title></a><a ewd:code="H55" ewd:figID="4" ewd:figtype="conn" style="cursor:pointer;"><path d=" M  280.45,  154.76  L  237.96,  154.76  L  237.96,  188.75  L  280.45,  188.75  L  280.45,  154.76 " style="&st5;" /><title ewd:textID="2">Back Up Light Relay</title></a><a ewd:code="V7" ewd:figID="5" ewd:figtype="conn" style="cursor:pointer;"><path d=" M  161.47,  409.72  L  203.97,  409.72  L  203.97,  460.71  L  161.47,  460.71  L  161.47,  409.72 " style="&st5;" /><title ewd:textID="6">Rear Combination Light Assembly RH</title></a><a ewd:code="O40" ewd:figID="6" ewd:figtype="conn" style="cursor:pointer;"><path d=" M   93.48,  622.18  L  110.48,  622.18  L  110.48,  639.18  L   93.48,  639.18  L   93.48,  622.18 " style="&st5;" /><title ewd:textID="3">Junction Connector</title></a><a ewd:code="H85" ewd:figID="7" ewd:figtype="conn" style="cursor:pointer;"><path d=" M  263.46,  622.18  L  263.46,  639.18  L  280.45,  639.18  L  280.45,  622.18  L  263.46,  622.18 " style="&st5;" /><title ewd:textID="3">Junction Connector</title></a><a ewd:code="H80" ewd:figID="8" ewd:figtype="conn" style="cursor:pointer;"><path d=" M  416.43,  214.25  L  433.43,  214.25  L  433.43,  231.25  L  416.43,  231.25  L  416.43,  214.25 " style="&st5;" /><title ewd:textID="3">Junction Connector</title></a><a ewd:code="V19,V20" ewd:figID="9" ewd:figtype="conn" style="cursor:pointer;"><path d=" M   93.48,  324.73  L   93.48,  358.73  L  186.97,  358.73  L  186.97,  324.73  L   93.48,  324.73 " style="&st5;" /><title ewd:textID="3">Junction Connector</title></a><a ewd:code="H83" ewd:figID="10" ewd:figtype="conn" style="cursor:pointer;"><path d=" M  356.94,  146.26  L  356.94,  163.26  L  373.94,  163.26  L  373.94,  146.26  L  356.94,  146.26 " style="&st5;" /><title ewd:textID="3">Junction Connector</title></a><a ewd:code="D21" ewd:figID="11" ewd:figtype="conn" style="cursor:pointer;"><path d=" M  322.95,  341.73  L  373.94,  341.73  L  373.94,  375.72  L  322.95,  375.72  L  322.95,  341.73 " style="&st5;" /><title ewd:textID="4">Park/Neutral Position Switch Assembly</title></a><a ewd:code="DJB" ewd:figID="12" ewd:figtype="jb" style="cursor:pointer;"><path d=" M  195.47,   35.78  L  195.47,  103.77  L  263.46,  103.77  L  263.46,   35.78  L  195.47,   35.78 " style="&st4;" /></a><a ewd:code="DJB" ewd:figID="13" ewd:figtype="jb" style="cursor:pointer;"><path d=" M  407.93,   35.78  L  407.93,  103.77  L  467.42,  103.77  L  467.42,   35.78  L  407.93,   35.78 " style="&st4;" /></a><a ewd:code="FUSE58" ewd:figID="14" ewd:figtype="fuse" style="cursor:pointer;"><path d=" M  412.18,   35.78  L  412.18,   78.27  L  437.68,   78.27  L  437.68,   35.78  L  412.18,   35.78 " style="&st7;" /></a><a ewd:code="FUSE62" ewd:figID="15" ewd:figtype="fuse" style="cursor:pointer;"><path d=" M  233.71,   35.78  L  233.71,   78.27  L  259.21,   78.27  L  259.21,   35.78  L  233.71,   35.78 " style="&st7;" /></a><a ewd:lineID="1" style="cursor:pointer;"><path d=" M  101.98,  639.18  L  101.98,  681.67 " style="stroke:#000000;stroke-width: 5.10 ;&st6;" /><path d=" M  101.98,  639.18  L  101.98,  681.67 " style="stroke:#FFFFFF;stroke-width: 4.53 ;&st6;" /><path d=" M  101.98,  639.18  L  101.98,  681.67 " style="stroke:#000000;stroke-width: 1.13 ;&st6;" /></a><a ewd:lineID="2" style="cursor:pointer;"><path d=" M  101.98,  585.92  L  101.98,  622.18 " style="stroke:#000000;stroke-width: 5.10 ;&st6;" /><path d=" M  101.98,  585.92  L  101.98,  622.18 " style="stroke:#FFFFFF;stroke-width: 4.53 ;&st6;" /><path d=" M  101.98,  585.92  L  101.98,  622.18 " style="stroke:#000000;stroke-width: 1.13 ;&st6;" /></a><a ewd:lineID="3" style="cursor:pointer;"><path d=" M  101.98,  537.76  L  101.98,  571.19 " style="stroke:#000000;stroke-width: 5.10 ;&st6;" /><path d=" M  101.98,  537.76  L  101.98,  571.19 " style="stroke:#FFFFFF;stroke-width: 4.53 ;&st6;" /><path d=" M  101.98,  537.76  L  101.98,  571.19 " style="stroke:#000000;stroke-width: 1.13 ;&st6;" /></a><a ewd:lineID="4" style="cursor:pointer;"><path d=" M  101.98,  460.71  L  101.98,  502.63 " style="stroke:#000000;stroke-width: 5.10 ;&st6;" /><path d=" M  101.98,  460.71  L  101.98,  502.63 " style="stroke:#FFFFFF;stroke-width: 4.53 ;&st6;" /><path d=" M  101.98,  460.71  L  101.98,  502.63 " style="stroke:#000000;stroke-width: 1.13 ;&st6;" /></a><a ewd:lineID="5" style="cursor:pointer;"><path d=" M  101.98,  367.79  L  101.98,  409.72 " style="stroke:#00A0C6;stroke-width: 5.10 ;&st6;" /></a><a ewd:lineID="6" style="cursor:pointer;"><path d=" M  178.47,  460.71  L  178.47,  502.63 " style="stroke:#000000;stroke-width: 5.10 ;&st6;" /><path d=" M  178.47,  460.71  L  178.47,  502.63 " style="stroke:#FFFFFF;stroke-width: 4.53 ;&st6;" /><path d=" M  178.47,  460.71  L  178.47,  502.63 " style="stroke:#000000;stroke-width: 1.13 ;&st6;" /></a><a ewd:lineID="7" style="cursor:pointer;"><path d=" M  178.47,  367.79  L  178.47,  409.72 " style="stroke:#000000;stroke-width: 5.10 ;&st6;" /></a><a ewd:lineID="8" style="cursor:pointer;"><path d=" M  178.47,  290.74  L  178.47,  315.67 " style="stroke:#00A0C6;stroke-width: 5.10 ;&st6;" /></a><a ewd:lineID="9" style="cursor:pointer;"><path d=" M  178.47,  248.24  L  178.47,  276.01 " style="stroke:#00A0C6;stroke-width: 5.10 ;&st6;" /></a><a ewd:lineID="10" style="cursor:pointer;"><path d=" M  246.46,  188.75  L  246.46,  214.25  L  178.47,  214.25  L  178.47,  233.51 " style="stroke:#00A0C6;stroke-width: 5.10 ;&st6;" /></a><a ewd:lineID="11" style="cursor:pointer;"><path d=" M  263.46,  630.68  L  212.46,  630.68  L  212.46,  681.67 " style="stroke:#000000;stroke-width: 5.10 ;&st6;" /><path d=" M  263.46,  630.68  L  212.46,  630.68  L  212.46,  681.67 " style="stroke:#FFFFFF;stroke-width: 4.53 ;&st6;" /><path d=" M  263.46,  630.68  L  212.46,  630.68  L  212.46,  681.67 " style="stroke:#000000;stroke-width: 1.13 ;&st6;" /></a><a ewd:lineID="12" style="cursor:pointer;"><path d=" M  246.46,  103.77  L  246.46,  154.76 " style="stroke:#008837;stroke-width: 5.10 ;&st6;" /></a><a ewd:lineID="13" style="cursor:pointer;"><path d=" M  271.95,  639.18  L  271.95,  681.67 " style="stroke:#000000;stroke-width: 5.10 ;&st6;" /><path d=" M  271.95,  639.18  L  271.95,  681.67 " style="stroke:#FFFFFF;stroke-width: 4.53 ;&st6;" /><path d=" M  271.95,  639.18  L  271.95,  681.67 " style="stroke:#000000;stroke-width: 1.13 ;&st6;" /></a><a ewd:lineID="14" style="cursor:pointer;"><path d=" M  271.95,  188.75  L  271.95,  622.18 " style="stroke:#000000;stroke-width: 5.10 ;&st6;" /><path d=" M  271.95,  188.75  L  271.95,  622.18 " style="stroke:#FFFFFF;stroke-width: 4.53 ;&st6;" /><path d=" M  271.95,  188.75  L  271.95,  622.18 " style="stroke:#000000;stroke-width: 1.13 ;&st6;" /></a><a ewd:lineID="15" style="cursor:pointer;"><path d=" M  271.95,  154.76  L  271.95,  112.27  L  365.44,  112.27  L  365.44,  146.26 " style="stroke:#00A0C6;stroke-width: 5.10 ;&st6;" /></a><a ewd:lineID="16" style="cursor:pointer;"><path d=" M  348.44,  375.72  L  348.44,  426.71  L  424.93,  426.71  L  424.93,  358.73 " style="stroke:#008837;stroke-width: 5.10 ;&st6;" /></a><a ewd:lineID="17" style="cursor:pointer;"><path d=" M  365.44,  341.73  L  365.44,  282.24 " style="stroke:#00A0C6;stroke-width: 5.10 ;&st6;" /><path d=" M  365.44,  341.73  L  365.44,  282.24 " style="stroke:#FFFFFF;stroke-width: 2.27 ;&st6;" /><path d=" M  365.44,  341.73  L  365.44,  282.24 " style="stroke:#FF0000;stroke-width: 1.13 ;&st6;" /></a><a ewd:lineID="18" style="cursor:pointer;"><path d=" M  365.44,  222.75  L  365.44,  267.51 " style="stroke:#00A0C6;stroke-width: 5.10 ;&st6;" /></a><a ewd:lineID="19" style="cursor:pointer;"><path d=" M  365.44,  163.26  L  365.44,  208.02 " style="stroke:#FF0000;stroke-width: 5.10 ;&st6;" /></a><a ewd:lineID="20" style="cursor:pointer;"><path d=" M  424.93,  307.73  L  424.93,  343.99 " style="stroke:#008837;stroke-width: 5.10 ;&st6;" /></a><a ewd:lineID="21" style="cursor:pointer;"><path d=" M  424.93,  240.31  L  424.93,  293.00 " style="stroke:#008837;stroke-width: 5.10 ;&st6;" /></a><a ewd:lineID="22" style="cursor:pointer;"><path d=" M  424.93,  172.32  L  424.93,  205.18 " style="stroke:#000000;stroke-width: 5.10 ;&st6;" /></a><a ewd:lineID="23" style="cursor:pointer;"><path d=" M  424.93,  103.77  L  424.93,  137.20 " style="stroke:#99D9E8;stroke-width: 5.10 ;&st6;" /></a><a ewd:code="VO2" ewd:figID="16" ewd:figtype="w2w" ewd:pinNo="1" style="cursor:pointer;"><path d=" M  110.48,  571.19  L   93.48,  571.19  L   93.48,  579.69  L  110.48,  579.69  L  110.48,  571.19 " style="&st2;" /><text style="&st8;" transform="matrix(&st16;  94.55  577.93 )"><tspan style="&st18;" x="0" y="0">VO2</tspan></text></a><a ewd:code="VO2" ewd:figID="17" ewd:figtype="w2w" ewd:pinNo="2" style="cursor:pointer;"><path d=" M  186.97,  282.24  L  169.97,  282.24  L  169.97,  290.74  L  186.97,  290.74  L  186.97,  282.24 " style="&st2;" /><text style="&st8;" transform="matrix(&st16;  171.03  288.98 )"><tspan style="&st18;" x="0" y="0">VO2</tspan></text></a><a ewd:code="OH1" ewd:figID="18" ewd:figtype="w2w" ewd:pinNo="7" style="cursor:pointer;"><path d=" M  186.97,  239.75  L  169.97,  239.75  L  169.97,  248.24  L  186.97,  248.24  L  186.97,  239.75 " style="&st2;" /><text style="&st8;" transform="matrix(&st16;  171.29  246.49 )"><tspan style="&st18;" x="0" y="0">OH1</tspan></text></a><a ewd:code="DA7" ewd:figID="19" ewd:figtype="w2w" ewd:pinNo="4" style="cursor:pointer;"><path d=" M  433.43,  350.23  L  416.43,  350.23  L  416.43,  358.73  L  433.43,  358.73  L  433.43,  350.23 " style="&st2;" /><text style="&st8;" transform="matrix(&st16;  417.79  356.97 )"><tspan style="&st18;" x="0" y="0">DA7</tspan></text></a><a ewd:code="DA7" ewd:figID="20" ewd:figtype="w2w" ewd:pinNo="2" style="cursor:pointer;"><path d=" M  373.94,  273.74  L  356.94,  273.74  L  356.94,  282.24  L  373.94,  282.24  L  373.94,  273.74 " style="&st2;" /><text style="&st8;" transform="matrix(&st16;  358.3  280.48 )"><tspan style="&st18;" x="0" y="0">DA7</tspan></text></a><a ewd:code="AH4" ewd:figID="21" ewd:figtype="w2w" ewd:pinNo="10" style="cursor:pointer;"><path d=" M  433.43,  299.24  L  416.43,  299.24  L  416.43,  307.73  L  433.43,  307.73  L  433.43,  299.24 " style="&st2;" /><text style="&st8;" transform="matrix(&st16;  417.79  305.98 )"><tspan style="&st18;" x="0" y="0">AH4</tspan></text></a><a ewd:code="AH4" ewd:figID="22" ewd:figtype="w2w" ewd:pinNo="11" style="cursor:pointer;"><path d=" M  373.94,  214.25  L  356.94,  214.25  L  356.94,  222.75  L  373.94,  222.75  L  373.94,  214.25 " style="&st2;" /><text style="&st8;" transform="matrix(&st16;  358.3  220.99 )"><tspan style="&st18;" x="0" y="0">AH4</tspan></text></a><a ewd:code="O1" ewd:figID="23" ewd:figtype="gp" style="cursor:pointer;"><path d=" M   91.36,  681.67  L  112.61,  681.67  L  101.98,  697.25  L   91.36,  681.67 " style="&st2;" /><text style="&st8;" transform="matrix(&st16;  97.41  689.83 )"><tspan style="&st18;" x="0" y="0">O1</tspan></text></a><a ewd:code="H2" ewd:figID="24" ewd:figtype="gp" style="cursor:pointer;"><path d=" M  261.33,  681.67  L  282.58,  681.67  L  271.95,  697.25  L  261.33,  681.67 " style="&st2;" /><text style="&st8;" transform="matrix(&st16;  267.27  689.83 )"><tspan style="&st18;" x="0" y="0">H2</tspan></text></a><a ewd:code="H1" ewd:figID="25" ewd:figtype="gp" style="cursor:pointer;"><path d=" M  201.84,  681.67  L  223.09,  681.67  L  212.46,  697.25  L  201.84,  681.67 " style="&st2;" /><text style="&st8;" transform="matrix(&st16;  208.19  689.83 )"><tspan style="&st18;" x="0" y="0">H1</tspan></text></a></g></svg>