﻿<?xml version="1.0" encoding="utf-8"?>
<!DOCTYPE svg PUBLIC "-//W3C//DTD SVG 1.0//EN" "http://www.w3.org/TR/2001/REC-SVG-20010904/DTD/svg10.dtd"[
	<!ENTITY ns_flows "http://ns.adobe.com/Flows/1.0/">
	<!ENTITY ns_svg "http://www.w3.org/2000/svg">
	<!ENTITY ns_xlink "http://www.w3.org/1999/xlink">
	<!ENTITY st0 "font-size:7px;font-family:'MS-PGothic';adobe-font-script:japanese;">
	<!ENTITY st1 "font-size:6px;font-family:'ArialMT';">
	<!-- White fill  -->
	<!ENTITY st2 "fill:#FFFFFF;stroke:#000000; stroke-width:1.41;stroke-linecap:round;stroke-linejoin:round;">
	<!-- Yellow fill  -->
	<!ENTITY st3 "fill:#FFFFCC;stroke:#FFFFCC; stroke-width:0.1;stroke-linecap:round;stroke-linejoin:round;">
	<!-- Gray fill  -->
	<!ENTITY st4 "fill:#CCCCCC;stroke:#CCCCCC; stroke-width:0.1;stroke-linecap:round;stroke-linejoin:round;">
	<!-- Light-blue fill -->
	<!ENTITY st5 "fill:#CCECF4;stroke:#000000; stroke-width:1.133;stroke-linecap:round;stroke-linejoin:round;">
	<!ENTITY st6 "fill:none;stroke-linecap:butt; stroke-linejoin:round;">
	<!ENTITY st7 "fill:none;stroke:#000000;stroke-linecap:round;stroke-linejoin:round;">
	<!ENTITY st8 "enable-background:new    ;">
	<!-- Black fill -->
	<!ENTITY st9 "fill:#000000;stroke:#000000; stroke-linecap:round;stroke-linejoin:round;">
	<!-- SRS note   -->
	<!ENTITY st10 "font-size:9px;font-family:'ArialMT';">
	<!ENTITY st11 "font-size:9px;font-family:'Svg Symbol';">
	<!ENTITY st12 "font-size:6px;font-family:'Svg Symbol';">
	<!ENTITY st13 "fill:none;stroke:#ff0000;stroke-linecap:round;stroke-linejoin:round;">
	<!-- Yellow fill  -->
	<!ENTITY st14 "fill:#FFFF00;stroke:#FFFF00; stroke-width:0.1;stroke-linecap:round;stroke-linejoin:round;">
	<!ENTITY st15 "font-size:6px;font-family:'MS-PGothic';adobe-font-script:japanese;">
	<!ENTITY st16 "1.00 0.00 0.00 1.00">
	<!ENTITY st17 "0.00 -1.00 1.00 0.00">
	<!ENTITY st18 "font-size:6px;font-family:'Arial';">
	<!ENTITY st19 "font-size:9px;font-family:'Arial';">
	<!ENTITY st20 "font-size:6px;font-family:'MS-PGothic','MS PGothic';adobe-font-script:japanese;">
	<!ENTITY st21 "font-size:7px;font-family:'MS-PGothic','MS PGothic';adobe-font-script:japanese;">
	<!ATTLIST svg
		xmlns:ewd CDATA #FIXED "http://shcl.co.jp/ewd"
		xmlns:a CDATA #FIXED "http://ns.adobe.com/AdobeSVGViewerExtensions/3.0/"
		ewd:ver CDATA #IMPLIED
	>
	<!ATTLIST a
		ewd:lineID CDATA #IMPLIED
		ewd:groupID CDATA #IMPLIED
		ewd:figtype CDATA #IMPLIED
		ewd:code CDATA #IMPLIED
		ewd:figID CDATA #IMPLIED
		ewd:pinNo CDATA #IMPLIED
		ewd:comment CDATA #IMPLIED >
	<!ATTLIST g
		ewd:lineID CDATA #IMPLIED
		ewd:groupID CDATA #IMPLIED
		ewd:figtype CDATA #IMPLIED
		ewd:code CDATA #IMPLIED
		ewd:figID CDATA #IMPLIED
		ewd:pinNo CDATA #IMPLIED
		ewd:comment CDATA #IMPLIED >
	<!ATTLIST text
		ewd:textID CDATA #IMPLIED >
	<!ATTLIST title
		ewd:textID CDATA #IMPLIED >
]>
<!-- Generator: Shintec Hozumi YS   -->
<svg onload="call_execInitLoadProc_svg('system')" style="overflow:visible;  enable-background:new 0 0 6054.361 710.000" viewBox="0 0 6054.361 710.000" height="710.000" width="6054.361" xml:space="preserve" ewd:ver="L2.1.2.7" xmlns="&ns_svg;" xmlns:a="http://ns.adobe.com/AdobeSVGViewerExtensions/3.0/" xmlns:ewd="http://shcl.co.jp/ewd" xmlns:xlink="&ns_xlink;">
<path d=" M  433.43,  452.21  L  433.43,  494.70 " style="stroke:#FF7F00;stroke-width: 5.10 ;&st6;" /><path d=" M  475.92,  452.21  L  475.92,  494.70 " style="stroke:#00A0C6;stroke-width: 5.10 ;&st6;" /><path d=" M  433.43,  375.72  L  433.43,  409.72 " style="stroke:#FF7F00;stroke-width: 5.10 ;&st6;" /><path d=" M  475.92,  409.72  L  475.92,  375.72 " style="stroke:#00A0C6;stroke-width: 5.10 ;&st6;" /><path d=" M  441.93,  601.66  L  436.95,  596.69 " style="stroke-width: 1.42 ;&st7; " /><path d=" M  424.93,  608.71  L  429.90,  613.68 " style="stroke-width: 1.42 ;&st7; " /><path d=" M  436.95,  613.68  L  441.93,  608.71 " style="stroke-width: 1.42 ;&st7; " /><path d=" M  429.90,  596.69  L  424.93,  601.66 " style="stroke-width: 1.42 ;&st7; " /><path d=" M  203.97,  533.67  L  198.99,  528.70 " style="stroke-width: 1.42 ;&st7; " /><path d=" M  186.97,  540.73  L  191.94,  545.69 " style="stroke-width: 1.42 ;&st7; " /><path d=" M  198.99,  545.69  L  203.97,  540.73 " style="stroke-width: 1.42 ;&st7; " /><path d=" M  191.94,  528.70  L  186.97,  533.67 " style="stroke-width: 1.42 ;&st7; " /><path d=" M  433.43,   69.77  L  433.43,   95.27 " style="stroke-width: 0.85 ;&st7; " /><path d=" M  435.55,   95.27  L  431.30,   95.27 " style="stroke-width: 1.42 ;&st7; " /><path d=" M  435.55,  103.77  L  431.30,  103.77 " style="stroke-width: 1.42 ;&st7; " /><path d=" M  424.93,  163.26  L  433.43,  163.26 " style="stroke-width: 1.42 ;&st7; " /><path d=" M  104.11,  341.73  L   99.86,  341.73 " style="stroke-width: 1.42 ;&st7; " /><path d=" M   67.99,   69.77  L   67.99,   78.27 " style="stroke-width: 0.85 ;&st7; " /><path d=" M  104.11,  333.23  L   99.86,  333.23 " style="stroke-width: 1.42 ;&st7; " /><path d=" M  129.60,  341.73  L  125.35,  341.73 " style="stroke-width: 1.42 ;&st7; " /><path d=" M  129.60,  333.23  L  125.35,  333.23 " style="stroke-width: 1.42 ;&st7; " /><path d=" M  127.48,  299.24  L  127.48,  307.73 " style="stroke-width: 0.85 ;&st7; " /><path d=" M  127.48,  273.74  L  127.48,  282.24 " style="stroke-width: 0.85 ;&st7; " /><path d=" M  101.98,  277.99  L  101.98,  273.74 " style="stroke-width: 0.85 ;&st7; " /><path d=" M  101.98,  307.73  L  101.98,  303.48 " style="stroke-width: 0.85 ;&st7; " /><path d=" M  101.98,  300.65  L   96.32,  277.99 " style="stroke-width: 1.42 ;&st7; " /><path d=" M  104.11,  239.75  L   99.86,  239.75 " style="stroke-width: 1.42 ;&st7; " /><path d=" M  104.11,  248.24  L   99.86,  248.24 " style="stroke-width: 1.42 ;&st7; " /><path d=" M  129.60,  239.75  L  125.35,  239.75 " style="stroke-width: 1.42 ;&st7; " /><path d=" M  129.60,  248.24  L  125.35,  248.24 " style="stroke-width: 1.42 ;&st7; " /><path d=" M  484.42,  422.46  L  484.42,  439.46 " style="stroke-width: 0.85 ;&st7; " /><path d=" M  467.42,  422.46  L  467.42,  439.46 " style="stroke-width: 0.85 ;&st7; " /><path d=" M  475.92,  422.46  L  475.92,  409.72 " style="stroke-width: 0.85 ;&st7; " /><path d=" M  473.09,  438.05  L  475.92,  439.46 " style="stroke-width: 0.85 ;&st7; " /><path d=" M  475.92,  422.46  L  478.75,  423.88 " style="stroke-width: 0.85 ;&st7; " /><path d=" M  478.75,  423.88  L  473.09,  426.71 " style="stroke-width: 0.85 ;&st7; " /><path d=" M  473.09,  426.71  L  478.75,  429.55 " style="stroke-width: 0.85 ;&st7; " /><path d=" M  478.75,  429.55  L  473.09,  432.38 " style="stroke-width: 0.85 ;&st7; " /><path d=" M  473.09,  432.38  L  478.75,  435.21 " style="stroke-width: 0.85 ;&st7; " /><path d=" M  478.75,  435.21  L  473.09,  438.05 " style="stroke-width: 0.85 ;&st7; " /><path d=" M  475.92,  452.21  L  475.92,  439.46 " style="stroke-width: 0.85 ;&st7; " /><path d=" M  441.93,  422.46  L  441.93,  439.46 " style="stroke-width: 0.85 ;&st7; " /><path d=" M  424.93,  422.46  L  424.93,  439.46 " style="stroke-width: 0.85 ;&st7; " /><path d=" M  433.43,  422.46  L  433.43,  409.72 " style="stroke-width: 0.85 ;&st7; " /><path d=" M  430.59,  438.05  L  433.43,  439.46 " style="stroke-width: 0.85 ;&st7; " /><path d=" M  433.43,  422.46  L  436.26,  423.88 " style="stroke-width: 0.85 ;&st7; " /><path d=" M  436.26,  423.88  L  430.59,  426.71 " style="stroke-width: 0.85 ;&st7; " /><path d=" M  430.59,  426.71  L  436.26,  429.55 " style="stroke-width: 0.85 ;&st7; " /><path d=" M  436.26,  429.55  L  430.59,  432.38 " style="stroke-width: 0.85 ;&st7; " /><path d=" M  430.59,  432.38  L  436.26,  435.21 " style="stroke-width: 0.85 ;&st7; " /><path d=" M  436.26,  435.21  L  430.59,  438.05 " style="stroke-width: 0.85 ;&st7; " /><path d=" M  433.43,  452.21  L  433.43,  439.46 " style="stroke-width: 0.85 ;&st7; " /><path d=" M  333.57,  103.77  L  329.32,  103.77 " style="stroke-width: 1.42 ;&st7; " /><path d=" M  333.57,   95.27  L  329.32,   95.27 " style="stroke-width: 1.42 ;&st7; " /><path d=" M  331.44,   69.77  L  331.44,   95.27 " style="stroke-width: 0.85 ;&st7; " /><path d=" M  262.04,  710.00  L  264.87,  710.00 " style="stroke-width: 0.85 ;&st7; " /><path d=" M  260.62,  707.17  L  266.29,  707.17 " style="stroke-width: 0.85 ;&st7; " /><path d=" M  259.21,  704.33  L  267.71,  704.33 " style="stroke-width: 0.85 ;&st7; " /><path d=" M  254.96,  701.50  L  271.95,  701.50 " style="stroke-width: 0.85 ;&st7; " /><path d=" M  263.46,  697.25  L  263.46,  701.50 " style="stroke-width: 0.85 ;&st7; " /><path d=" M  127.48,  571.19  L  127.48,  588.19 " style="stroke-width: 0.85 ;&st7; " /><path d=" M  118.98,  571.19  L  135.98,  571.19  L  135.98,  588.19  L  118.98,  588.19  L  118.98,  571.19 " style="stroke-width: 1.42 ;&st7; " /><path d=" M  126.06,  710.00  L  128.90,  710.00 " style="stroke-width: 0.85 ;&st7; " /><path d=" M  124.65,  707.17  L  130.31,  707.17 " style="stroke-width: 0.85 ;&st7; " /><path d=" M  123.23,  704.33  L  131.73,  704.33 " style="stroke-width: 0.85 ;&st7; " /><path d=" M  118.98,  701.50  L  135.98,  701.50 " style="stroke-width: 0.85 ;&st7; " /><path d=" M  127.48,  697.25  L  127.48,  701.50 " style="stroke-width: 0.85 ;&st7; " /><path d=" M  344.19,   78.27  L  344.19,   35.78  L  318.70,   35.78  L  318.70,   78.27  L  344.19,   78.27 " style="stroke-width: 1.42 ;&st7; " /><path d=" M  331.44,   90.37  L  328.61,   87.54  L  328.61,   91.79  L  331.44,   94.62  L  334.28,   91.79  L  334.28,   87.54  L  331.44,   90.37 " style="stroke-width: 0.28 ;&st9;" /><path d=" M  463.17,  452.21  L  463.17,  409.72  L  488.67,  409.72  L  488.67,  452.21  L  463.17,  452.21 " style="stroke-width: 1.42 ;&st7; " /><path d=" M  420.68,  452.21  L  420.68,  409.72  L  446.18,  409.72  L  446.18,  452.21  L  420.68,  452.21 " style="stroke-width: 1.42 ;&st7; " /><path d=" M  407.93,  375.72  L  407.93,  494.70  L 1011.33,  494.70  L 1011.33,  375.72  L  407.93,  375.72 " style="stroke-width: 1.42 ;&st7; " /><path d=" M  127.48,  248.24  L  127.48,  273.74 " style="stroke-width: 0.85 ;&st7; " /><path d=" M  127.48,  253.14  L  130.31,  255.97  L  130.31,  251.72  L  127.48,  248.89  L  124.65,  251.72  L  124.65,  255.97  L  127.48,  253.14 " style="stroke-width: 0.28 ;&st9;" /><path d=" M  101.98,  307.73  L  101.98,  333.23 " style="stroke-width: 0.85 ;&st7; " /><path d=" M  127.48,  307.73  L  127.48,  333.23 " style="stroke-width: 0.85 ;&st7; " /><path d=" M  101.98,  248.24  L  101.98,  273.74 " style="stroke-width: 0.85 ;&st7; " /><path d=" M  135.98,  273.74  L   93.48,  273.74  L   93.48,  307.73  L  135.98,  307.73  L  135.98,  273.74 " style="stroke-width: 1.42 ;&st7; " /><path d=" M  101.98,  253.14  L  104.82,  255.97  L  104.82,  251.72  L  101.98,  248.89  L   99.15,  251.72  L   99.15,  255.97  L  101.98,  253.14 " style="stroke-width: 0.28 ;&st9;" /><path d=" M  322.95,  163.26  L  322.95,  180.26  L  339.94,  180.26  L  339.94,  163.26  L  322.95,  163.26 " style="stroke-width: 1.42 ;&st7; " /><path d=" M  446.18,   78.27  L  446.18,   35.78  L  420.68,   35.78  L  420.68,   78.27  L  446.18,   78.27 " style="stroke-width: 1.42 ;&st7; " /><path d=" M  433.43,   90.37  L  430.59,   87.54  L  430.59,   91.79  L  433.43,   94.62  L  436.26,   91.79  L  436.26,   87.54  L  433.43,   90.37 " style="stroke-width: 0.28 ;&st9;" /><path d=" M  429.18,  154.19  L  433.43,  158.44  L  437.68,  154.19 " style="stroke-width: 1.42 ;&st7; " /><path d=" M  437.68,  157.59  L  433.43,  161.84  L  429.18,  157.59 " style="stroke-width: 1.42 ;&st7; " /><path d=" M  331.44,  163.26  L  331.44,  180.26 " style="stroke-width: 0.85 ;&st7; " /><path d=" M   67.99,   78.27  L   67.99,  265.24  L  101.98,  265.24 " style="stroke-width: 0.85 ;&st7; " /><path d=" M  178.47,  248.24  L 2923.51,  248.24  L 2923.51,  290.74  L  178.47,  290.74  L  178.47,  248.24 " style="stroke-width: 1.42 ;&st7; " /><path d=" M   80.74,   78.27  L   80.74,   35.78  L   55.24,   35.78  L   55.24,   78.27  L   80.74,   78.27 " style="stroke-width: 1.42 ;&st7; " /><path d=" M  101.98,  328.33  L   99.15,  325.50  L   99.15,  329.75  L  101.98,  332.58  L  104.82,  329.75  L  104.82,  325.50  L  101.98,  328.33 " style="stroke-width: 0.28 ;&st9;" /><path d=" M  100.79,  264.24  L  100.52,  264.71  L  100.42,  265.24  L  100.52,  265.77  L  100.79,  266.24  L  101.20,  266.59  L  101.71,  266.78  L  102.25,  266.78  L  102.76,  266.59  L  103.18,  266.24  L  103.45,  265.77  L  103.54,  265.24  L  103.45,  264.71  L  103.18,  264.24  L  102.76,  263.89  L  102.25,  263.71  L  101.71,  263.71  L  101.20,  263.89  L  100.79,  264.24  L  101.18,  264.95  L  101.18,  265.53  L  101.56,  265.98  L  102.13,  266.08  L  102.63,  265.79  L  102.83,  265.24  L  102.63,  264.69  L  102.13,  264.41  L  101.56,  264.50  L  101.98,  265.24 " style="stroke-width: 0.85 ;&st7; " /><path d=" M  127.48,  328.33  L  124.65,  325.50  L  124.65,  329.75  L  127.48,  332.58  L  130.31,  329.75  L  130.31,  325.50  L  127.48,  328.33 " style="stroke-width: 0.28 ;&st9;" /><path d=" M  297.45,  443.71  L  297.45,  460.71 " style="stroke-width: 0.85 ;&st7; " /><path d=" M  288.95,  443.71  L  288.95,  460.71  L  305.95,  460.71  L  305.95,  443.71  L  288.95,  443.71 " style="stroke-width: 1.42 ;&st7; " /><path d=" M  437.96,  295.27  C  437.96   292.77   435.93   290.74   433.43   290.74 " style="stroke-width: 1.42 ;&st7; " /><path d=" M  433.43,  290.74  C  430.92   290.74   428.90   292.77   428.90   295.27 " style="stroke-width: 1.42 ;&st7; " /><path d=" M  428.90,  295.27  C  428.90   297.77   430.92   299.80   433.43   299.80 " style="stroke-width: 1.42 ;&st7; " /><path d=" M  433.43,  299.80  C  435.93   299.80   437.96   297.77   437.96   295.27 " style="stroke-width: 1.42 ;&st7; " /><path d=" M  480.45,  295.27  C  480.45   292.77   478.42   290.74   475.92   290.74 " style="stroke-width: 1.42 ;&st7; " /><path d=" M  475.92,  290.74  C  473.42   290.74   471.39   292.77   471.39   295.27 " style="stroke-width: 1.42 ;&st7; " /><path d=" M  471.39,  295.27  C  471.39   297.77   473.42   299.80   475.92   299.80 " style="stroke-width: 1.42 ;&st7; " /><path d=" M  475.92,  299.80  C  478.42   299.80   480.45   297.77   480.45   295.27 " style="stroke-width: 1.42 ;&st7; " /><path d=" M  441.93,  422.46  C  441.93   417.77   438.12   413.97   433.43   413.97 " style="stroke-width: 0.85 ;&st7; " /><path d=" M  433.43,  413.97  C  428.73   413.97   424.93   417.77   424.93   422.46 " style="stroke-width: 0.85 ;&st7; " /><path d=" M  424.93,  439.46  C  424.93   444.16   428.73   447.96   433.43   447.96 " style="stroke-width: 0.85 ;&st7; " /><path d=" M  433.43,  447.96  C  438.12   447.96   441.93   444.16   441.93   439.46 " style="stroke-width: 0.85 ;&st7; " /><path d=" M  484.42,  422.46  C  484.42   417.77   480.61   413.97   475.92   413.97 " style="stroke-width: 0.85 ;&st7; " /><path d=" M  475.92,  413.97  C  471.23   413.97   467.42   417.77   467.42   422.46 " style="stroke-width: 0.85 ;&st7; " /><path d=" M  467.42,  439.46  C  467.42   444.16   471.23   447.96   475.92   447.96 " style="stroke-width: 0.85 ;&st7; " /><path d=" M  475.92,  447.96  C  480.61   447.96   484.42   444.16   484.42   439.46 " style="stroke-width: 0.85 ;&st7; " /><path d=" M  337.82,   99.52  C  337.82    97.17   335.92    95.27   333.57    95.27 " style="stroke-width: 1.42 ;&st7; " /><path d=" M  333.57,  103.77  C  335.92   103.77   337.82   101.87   337.82    99.52 " style="stroke-width: 1.42 ;&st7; " /><path d=" M  325.07,   99.52  C  325.07   101.87   326.97   103.77   329.32   103.77 " style="stroke-width: 1.42 ;&st7; " /><path d=" M  329.32,   95.27  C  326.97    95.27   325.07    97.17   325.07    99.52 " style="stroke-width: 1.42 ;&st7; " /><path d=" M  332.86,   68.36  C  332.86    67.57   332.23    66.94   331.44    66.94 " style="stroke-width: 0.85 ;&st7; " /><path d=" M  331.44,   66.94  C  330.66    66.94   330.03    67.57   330.03    68.36 " style="stroke-width: 0.85 ;&st7; " /><path d=" M  330.03,   68.36  C  330.03    69.14   330.66    69.77   331.44    69.77 " style="stroke-width: 0.85 ;&st7; " /><path d=" M  331.44,   69.77  C  332.23    69.77   332.86    69.14   332.86    68.36 " style="stroke-width: 0.85 ;&st7; " /><path d=" M  332.86,   45.69  C  332.86    44.91   332.23    44.28   331.44    44.28 " style="stroke-width: 0.85 ;&st7; " /><path d=" M  331.44,   44.28  C  330.66    44.28   330.03    44.91   330.03    45.69 " style="stroke-width: 0.85 ;&st7; " /><path d=" M  330.03,   45.69  C  330.03    46.48   330.66    47.11   331.44    47.11 " style="stroke-width: 0.85 ;&st7; " /><path d=" M  331.44,   47.11  C  332.23    47.11   332.86    46.48   332.86    45.69 " style="stroke-width: 0.85 ;&st7; " /><path d=" M  331.44,   66.94  C  334.18    65.33   335.09    61.80   333.48    59.06 " style="stroke-width: 1.42 ;&st7; " /><path d=" M  333.48,   59.06  C  332.96    58.18   332.33    57.55   331.44    57.03 " style="stroke-width: 1.42 ;&st7; " /><path d=" M  331.44,   47.11  C  328.71    48.72   327.79    52.25   329.41    54.99 " style="stroke-width: 1.42 ;&st7; " /><path d=" M  329.41,   54.99  C  329.93    55.87   330.56    56.51   331.44    57.03 " style="stroke-width: 1.42 ;&st7; " /><path d=" M   95.61,  243.99  C   95.61   246.34    97.51   248.24    99.86   248.24 " style="stroke-width: 1.42 ;&st7; " /><path d=" M  267.99,  295.27  C  267.99   292.77   265.96   290.74   263.46   290.74 " style="stroke-width: 1.42 ;&st7; " /><path d=" M  263.46,  290.74  C  260.95   290.74   258.92   292.77   258.92   295.27 " style="stroke-width: 1.42 ;&st7; " /><path d=" M  258.92,  295.27  C  258.92   297.77   260.95   299.80   263.46   299.80 " style="stroke-width: 1.42 ;&st7; " /><path d=" M  263.46,  299.80  C  265.96   299.80   267.99   297.77   267.99   295.27 " style="stroke-width: 1.42 ;&st7; " /><path d=" M  480.45,  371.19  C  480.45   368.69   478.42   366.66   475.92   366.66 " style="stroke-width: 1.42 ;&st7; " /><path d=" M  475.92,  366.66  C  473.42   366.66   471.39   368.69   471.39   371.19 " style="stroke-width: 1.42 ;&st7; " /><path d=" M  471.39,  371.19  C  471.39   373.69   473.42   375.72   475.92   375.72 " style="stroke-width: 1.42 ;&st7; " /><path d=" M  475.92,  375.72  C  478.42   375.72   480.45   373.69   480.45   371.19 " style="stroke-width: 1.42 ;&st7; " /><path d=" M  437.96,  371.19  C  437.96   368.69   435.93   366.66   433.43   366.66 " style="stroke-width: 1.42 ;&st7; " /><path d=" M  433.43,  366.66  C  430.92   366.66   428.90   368.69   428.90   371.19 " style="stroke-width: 1.42 ;&st7; " /><path d=" M  428.90,  371.19  C  428.90   373.69   430.92   375.72   433.43   375.72 " style="stroke-width: 1.42 ;&st7; " /><path d=" M  433.43,  375.72  C  435.93   375.72   437.96   373.69   437.96   371.19 " style="stroke-width: 1.42 ;&st7; " /><path d=" M  437.96,  499.24  C  437.96   496.73   435.93   494.70   433.43   494.70 " style="stroke-width: 1.42 ;&st7; " /><path d=" M  433.43,  494.70  C  430.92   494.70   428.90   496.73   428.90   499.24 " style="stroke-width: 1.42 ;&st7; " /><path d=" M  428.90,  499.24  C  428.90   501.74   430.92   503.77   433.43   503.77 " style="stroke-width: 1.42 ;&st7; " /><path d=" M  433.43,  503.77  C  435.93   503.77   437.96   501.74   437.96   499.24 " style="stroke-width: 1.42 ;&st7; " /><path d=" M  480.45,  499.24  C  480.45   496.73   478.42   494.70   475.92   494.70 " style="stroke-width: 1.42 ;&st7; " /><path d=" M  475.92,  494.70  C  473.42   494.70   471.39   496.73   471.39   499.24 " style="stroke-width: 1.42 ;&st7; " /><path d=" M  471.39,  499.24  C  471.39   501.74   473.42   503.77   475.92   503.77 " style="stroke-width: 1.42 ;&st7; " /><path d=" M  475.92,  503.77  C  478.42   503.77   480.45   501.74   480.45   499.24 " style="stroke-width: 1.42 ;&st7; " /><path d=" M  200.00,  295.27  C  200.00   292.77   197.97   290.74   195.47   290.74 " style="stroke-width: 1.42 ;&st7; " /><path d=" M  195.47,  290.74  C  192.96   290.74   190.93   292.77   190.93   295.27 " style="stroke-width: 1.42 ;&st7; " /><path d=" M  190.93,  295.27  C  190.93   297.77   192.96   299.80   195.47   299.80 " style="stroke-width: 1.42 ;&st7; " /><path d=" M  195.47,  299.80  C  197.97   299.80   200.00   297.77   200.00   295.27 " style="stroke-width: 1.42 ;&st7; " /><path d=" M  200.00,  243.71  C  200.00   241.21   197.97   239.18   195.47   239.18 " style="stroke-width: 1.42 ;&st7; " /><path d=" M  195.47,  239.18  C  192.96   239.18   190.93   241.21   190.93   243.71 " style="stroke-width: 1.42 ;&st7; " /><path d=" M  190.93,  243.71  C  190.93   246.21   192.96   248.24   195.47   248.24 " style="stroke-width: 1.42 ;&st7; " /><path d=" M  195.47,  248.24  C  197.97   248.24   200.00   246.21   200.00   243.71 " style="stroke-width: 1.42 ;&st7; " /><path d=" M  233.99,  243.71  C  233.99   241.21   231.96   239.18   229.46   239.18 " style="stroke-width: 1.42 ;&st7; " /><path d=" M  229.46,  239.18  C  226.96   239.18   224.93   241.21   224.93   243.71 " style="stroke-width: 1.42 ;&st7; " /><path d=" M  224.93,  243.71  C  224.93   246.21   226.96   248.24   229.46   248.24 " style="stroke-width: 1.42 ;&st7; " /><path d=" M  229.46,  248.24  C  231.96   248.24   233.99   246.21   233.99   243.71 " style="stroke-width: 1.42 ;&st7; " /><path d=" M  233.99,  295.27  C  233.99   292.77   231.96   290.74   229.46   290.74 " style="stroke-width: 1.42 ;&st7; " /><path d=" M  229.46,  290.74  C  226.96   290.74   224.93   292.77   224.93   295.27 " style="stroke-width: 1.42 ;&st7; " /><path d=" M  224.93,  295.27  C  224.93   297.77   226.96   299.80   229.46   299.80 " style="stroke-width: 1.42 ;&st7; " /><path d=" M  229.46,  299.80  C  231.96   299.80   233.99   297.77   233.99   295.27 " style="stroke-width: 1.42 ;&st7; " /><path d=" M   69.41,   68.36  C   69.41    67.57    68.77    66.94    67.99    66.94 " style="stroke-width: 0.85 ;&st7; " /><path d=" M   67.99,   66.94  C   67.21    66.94    66.57    67.57    66.57    68.36 " style="stroke-width: 0.85 ;&st7; " /><path d=" M   66.57,   68.36  C   66.57    69.14    67.21    69.77    67.99    69.77 " style="stroke-width: 0.85 ;&st7; " /><path d=" M   67.99,   69.77  C   68.77    69.77    69.41    69.14    69.41    68.36 " style="stroke-width: 0.85 ;&st7; " /><path d=" M   69.41,   45.69  C   69.41    44.91    68.77    44.28    67.99    44.28 " style="stroke-width: 0.85 ;&st7; " /><path d=" M   67.99,   44.28  C   67.21    44.28    66.57    44.91    66.57    45.69 " style="stroke-width: 0.85 ;&st7; " /><path d=" M   66.57,   45.69  C   66.57    46.48    67.21    47.11    67.99    47.11 " style="stroke-width: 0.85 ;&st7; " /><path d=" M   67.99,   47.11  C   68.77    47.11    69.41    46.48    69.41    45.69 " style="stroke-width: 0.85 ;&st7; " /><path d=" M   67.99,   66.94  C   70.73    65.33    71.64    61.80    70.03    59.06 " style="stroke-width: 1.42 ;&st7; " /><path d=" M   70.03,   59.06  C   69.51    58.18    68.87    57.55    67.99    57.03 " style="stroke-width: 1.42 ;&st7; " /><path d=" M   67.99,   47.11  C   65.25    48.72    64.34    52.25    65.95    54.99 " style="stroke-width: 1.42 ;&st7; " /><path d=" M   65.95,   54.99  C   66.47    55.87    67.11    56.51    67.99    57.03 " style="stroke-width: 1.42 ;&st7; " /><path d=" M  108.36,  337.48  C  108.36   335.13   106.45   333.23   104.11   333.23 " style="stroke-width: 1.42 ;&st7; " /><path d=" M  104.11,  341.73  C  106.45   341.73   108.36   339.83   108.36   337.48 " style="stroke-width: 1.42 ;&st7; " /><path d=" M   95.61,  337.48  C   95.61   339.83    97.51   341.73    99.86   341.73 " style="stroke-width: 1.42 ;&st7; " /><path d=" M   99.86,  333.23  C   97.51   333.23    95.61   335.13    95.61   337.48 " style="stroke-width: 1.42 ;&st7; " /><path d=" M  335.98,  243.71  C  335.98   241.21   333.95   239.18   331.44   239.18 " style="stroke-width: 1.42 ;&st7; " /><path d=" M  331.44,  239.18  C  328.94   239.18   326.91   241.21   326.91   243.71 " style="stroke-width: 1.42 ;&st7; " /><path d=" M  326.91,  243.71  C  326.91   246.21   328.94   248.24   331.44   248.24 " style="stroke-width: 1.42 ;&st7; " /><path d=" M  331.44,  248.24  C  333.95   248.24   335.98   246.21   335.98   243.71 " style="stroke-width: 1.42 ;&st7; " /><path d=" M  437.96,  243.71  C  437.96   241.21   435.93   239.18   433.43   239.18 " style="stroke-width: 1.42 ;&st7; " /><path d=" M  433.43,  239.18  C  430.92   239.18   428.90   241.21   428.90   243.71 " style="stroke-width: 1.42 ;&st7; " /><path d=" M  428.90,  243.71  C  428.90   246.21   430.92   248.24   433.43   248.24 " style="stroke-width: 1.42 ;&st7; " /><path d=" M  433.43,  248.24  C  435.93   248.24   437.96   246.21   437.96   243.71 " style="stroke-width: 1.42 ;&st7; " /><path d=" M  439.80,   99.52  C  439.80    97.17   437.90    95.27   435.55    95.27 " style="stroke-width: 1.42 ;&st7; " /><path d=" M  435.55,  103.77  C  437.90   103.77   439.80   101.87   439.80    99.52 " style="stroke-width: 1.42 ;&st7; " /><path d=" M  427.05,   99.52  C  427.05   101.87   428.96   103.77   431.30   103.77 " style="stroke-width: 1.42 ;&st7; " /><path d=" M  431.30,   95.27  C  428.96    95.27   427.05    97.17   427.05    99.52 " style="stroke-width: 1.42 ;&st7; " /><path d=" M  434.84,   68.36  C  434.84    67.57   434.21    66.94   433.43    66.94 " style="stroke-width: 0.85 ;&st7; " /><path d=" M  433.43,   66.94  C  432.65    66.94   432.01    67.57   432.01    68.36 " style="stroke-width: 0.85 ;&st7; " /><path d=" M  432.01,   68.36  C  432.01    69.14   432.65    69.77   433.43    69.77 " style="stroke-width: 0.85 ;&st7; " /><path d=" M  433.43,   69.77  C  434.21    69.77   434.84    69.14   434.84    68.36 " style="stroke-width: 0.85 ;&st7; " /><path d=" M  434.84,   45.69  C  434.84    44.91   434.21    44.28   433.43    44.28 " style="stroke-width: 0.85 ;&st7; " /><path d=" M  433.43,   44.28  C  432.65    44.28   432.01    44.91   432.01    45.69 " style="stroke-width: 0.85 ;&st7; " /><path d=" M  432.01,   45.69  C  432.01    46.48   432.65    47.11   433.43    47.11 " style="stroke-width: 0.85 ;&st7; " /><path d=" M  433.43,   47.11  C  434.21    47.11   434.84    46.48   434.84    45.69 " style="stroke-width: 0.85 ;&st7; " /><path d=" M  433.43,   66.94  C  436.17    65.33   437.08    61.80   435.46    59.06 " style="stroke-width: 1.42 ;&st7; " /><path d=" M  435.46,   59.06  C  434.94    58.18   434.31    57.55   433.43    57.03 " style="stroke-width: 1.42 ;&st7; " /><path d=" M  433.43,   47.11  C  430.69    48.72   429.78    52.25   431.39    54.99 " style="stroke-width: 1.42 ;&st7; " /><path d=" M  431.39,   54.99  C  431.91    55.87   432.55    56.51   433.43    57.03 " style="stroke-width: 1.42 ;&st7; " /><path d=" M  133.85,  337.48  C  133.85   335.13   131.95   333.23   129.60   333.23 " style="stroke-width: 1.42 ;&st7; " /><path d=" M  129.60,  341.73  C  131.95   341.73   133.85   339.83   133.85   337.48 " style="stroke-width: 1.42 ;&st7; " /><path d=" M  121.10,  337.48  C  121.10   339.83   123.01   341.73   125.35   341.73 " style="stroke-width: 1.42 ;&st7; " /><path d=" M  125.35,  333.23  C  123.01   333.23   121.10   335.13   121.10   337.48 " style="stroke-width: 1.42 ;&st7; " /><path d=" M  335.98,  184.79  C  335.98   182.28   333.95   180.26   331.44   180.26 " style="stroke-width: 1.42 ;&st7; " /><path d=" M  331.44,  180.26  C  328.94   180.26   326.91   182.28   326.91   184.79 " style="stroke-width: 1.42 ;&st7; " /><path d=" M  326.91,  184.79  C  326.91   187.29   328.94   189.32   331.44   189.32 " style="stroke-width: 1.42 ;&st7; " /><path d=" M  331.44,  189.32  C  333.95   189.32   335.98   187.29   335.98   184.79 " style="stroke-width: 1.42 ;&st7; " /><path d=" M  352.97,  295.27  C  352.97   292.77   350.95   290.74   348.44   290.74 " style="stroke-width: 1.42 ;&st7; " /><path d=" M  348.44,  290.74  C  345.94   290.74   343.91   292.77   343.91   295.27 " style="stroke-width: 1.42 ;&st7; " /><path d=" M  343.91,  295.27  C  343.91   297.77   345.94   299.80   348.44   299.80 " style="stroke-width: 1.42 ;&st7; " /><path d=" M  348.44,  299.80  C  350.95   299.80   352.97   297.77   352.97   295.27 " style="stroke-width: 1.42 ;&st7; " /><path d=" M  335.98,  158.73  C  335.98   156.22   333.95   154.19   331.44   154.19 " style="stroke-width: 1.42 ;&st7; " /><path d=" M  331.44,  154.19  C  328.94   154.19   326.91   156.22   326.91   158.73 " style="stroke-width: 1.42 ;&st7; " /><path d=" M  326.91,  158.73  C  326.91   161.23   328.94   163.26   331.44   163.26 " style="stroke-width: 1.42 ;&st7; " /><path d=" M  331.44,  163.26  C  333.95   163.26   335.98   161.23   335.98   158.73 " style="stroke-width: 1.42 ;&st7; " /><path d=" M  108.36,  243.99  C  108.36   241.65   106.45   239.75   104.11   239.75 " style="stroke-width: 1.42 ;&st7; " /><path d=" M  127.48,  299.24  C  129.43   299.24   131.02   297.65   131.02   295.69 " style="stroke-width: 0.85 ;&st7; " /><path d=" M  131.02,  295.69  C  131.02   293.74   129.43   292.15   127.48   292.15 " style="stroke-width: 0.85 ;&st7; " /><path d=" M  127.48,  292.15  C  126.49   292.15   125.64   292.51   124.95   293.22 " style="stroke-width: 0.85 ;&st7; " /><path d=" M  124.95,  293.22  C  126.32   294.61   128.56   294.64   129.96   293.27 " style="stroke-width: 0.85 ;&st7; " /><path d=" M  129.96,  293.27  C  131.35   291.90   131.38   289.66   130.01   288.26 " style="stroke-width: 0.85 ;&st7; " /><path d=" M  130.01,  288.26  C  128.64   286.86   126.40   286.84   125.00   288.21 " style="stroke-width: 0.85 ;&st7; " /><path d=" M  125.00,  288.21  C  124.98   288.22   124.97   288.24   124.95   288.26 " style="stroke-width: 0.85 ;&st7; " /><path d=" M  124.95,  288.26  C  126.32   289.66   128.56   289.68   129.96   288.31 " style="stroke-width: 0.85 ;&st7; " /><path d=" M  129.96,  288.31  C  131.35   286.94   131.38   284.70   130.01   283.30 " style="stroke-width: 0.85 ;&st7; " /><path d=" M  130.01,  283.30  C  129.32   282.59   128.47   282.24   127.48   282.24 " style="stroke-width: 0.85 ;&st7; " /><path d=" M  103.40,  279.41  C  103.40   278.62   102.77   277.99   101.98   277.99 " style="stroke-width: 0.85 ;&st7; " /><path d=" M  101.98,  277.99  C  101.20   277.99   100.57   278.62   100.57   279.41 " style="stroke-width: 0.85 ;&st7; " /><path d=" M  100.57,  279.41  C  100.57   280.19   101.20   280.82   101.98   280.82 " style="stroke-width: 0.85 ;&st7; " /><path d=" M  101.98,  280.82  C  102.77   280.82   103.40   280.19   103.40   279.41 " style="stroke-width: 0.85 ;&st7; " /><path d=" M  103.40,  302.07  C  103.40   301.29   102.77   300.65   101.98   300.65 " style="stroke-width: 0.85 ;&st7; " /><path d=" M  101.98,  300.65  C  101.20   300.65   100.57   301.29   100.57   302.07 " style="stroke-width: 0.85 ;&st7; " /><path d=" M  100.57,  302.07  C  100.57   302.85   101.20   303.48   101.98   303.48 " style="stroke-width: 0.85 ;&st7; " /><path d=" M  101.98,  303.48  C  102.77   303.48   103.40   302.85   103.40   302.07 " style="stroke-width: 0.85 ;&st7; " /><path d=" M   99.86,  239.75  C   97.51   239.75    95.61   241.65    95.61   243.99 " style="stroke-width: 1.42 ;&st7; " /><path d=" M  129.60,  248.24  C  131.95   248.24   133.85   246.34   133.85   243.99 " style="stroke-width: 1.42 ;&st7; " /><path d=" M  121.10,  243.99  C  121.10   246.34   123.01   248.24   125.35   248.24 " style="stroke-width: 1.42 ;&st7; " /><path d=" M  133.85,  243.99  C  133.85   241.65   131.95   239.75   129.60   239.75 " style="stroke-width: 1.42 ;&st7; " /><path d=" M  125.35,  239.75  C  123.01   239.75   121.10   241.65   121.10   243.99 " style="stroke-width: 1.42 ;&st7; " /><path d=" M  104.11,  248.24  C  106.45   248.24   108.36   246.34   108.36   243.99 " style="stroke-width: 1.42 ;&st7; " /><path d=" M  301.98,  295.27  C  301.98   292.77   299.95   290.74   297.45   290.74 " style="stroke-width: 1.42 ;&st7; " /><path d=" M  297.45,  290.74  C  294.95   290.74   292.92   292.77   292.92   295.27 " style="stroke-width: 1.42 ;&st7; " /><path d=" M  292.92,  295.27  C  292.92   297.77   294.95   299.80   297.45   299.80 " style="stroke-width: 1.42 ;&st7; " /><path d=" M  297.45,  299.80  C  299.95   299.80   301.98   297.77   301.98   295.27 " style="stroke-width: 1.42 ;&st7; " /><text style="&st18;" transform="matrix(&st16;  346.11  297.24 )">B</text><text style="&st18;" transform="matrix(&st16;  426.19  255.88 )">+BM</text><text style="&st18;" transform="matrix(&st17;  429.73  216.58 )">P</text><text style="&st18;" transform="matrix(&st17;  429.73  140.09 )">P</text><text style="&st18;" transform="matrix(&st16;  431.1  245.68 )">B</text><text style="&st18;" transform="matrix(&st16;  419.4  245.68 )">41</text><text style="&st18;" transform="matrix(&st16;  415.43  169.48 )">16</text><text style="&st18;" transform="matrix(&st16;  431.84  101.49 )">1</text><text style="&st18;" transform="matrix(&st16;  450.73  56.17 )">10A <tspan dy="6" x="0">ETCS</tspan></text><text style="&st18;" transform="matrix(&st16;  424.31  32.08 )">(BAT)</text><text style="&st18;" transform="matrix(&st16;  426.64  86.47 )">2</text><text style="&st18;" transform="matrix(&st16;  90.07  245.96 )">1</text><text style="&st18;" transform="matrix(&st16;  98.06  245.96 )">1B</text><text style="&st18;" transform="matrix(&st16;  114.79  245.96 )">2</text><text style="&st18;" transform="matrix(&st16;  123.56  245.96 )">1B</text><text ewd:textID="20" style="&st18;" transform="matrix(&st17;  83.86  306.03 )">EFI MAIN <tspan dy="6" x="0">Relay</tspan></text><text style="&st18;" transform="matrix(&st16;  164.74  533.5 )">GR</text><text ewd:textID="26" style="&st18;" transform="matrix(&st17;  354.66  182.78 )">Junction Connector</text><text style="&st18;" transform="matrix(&st17;  347.55  182.78 )">A53(B)</text><text style="&st18;" transform="matrix(&st17;  327.75  218.98 )">LG</text><text style="&st18;" transform="matrix(&st17;  98.29  207.73 )">L</text><text style="&st18;" transform="matrix(&st17;  123.78  209.11 )">W</text><text style="&st18;" transform="matrix(&st17;  98.29  363.95 )">GR</text><text style="&st18;" transform="matrix(&st17;  123.78  366.43 )">W-B</text><text style="&st18;" transform="matrix(&st17;  429.73  550.5 )">BR</text><text style="&st18;" transform="matrix(&st17;  472.22  550.5 )">BR</text><text style="&st18;" transform="matrix(&st16;  348.75  56.17 )">10A <tspan dy="6" x="0">IGN</tspan></text><text style="&st18;" transform="matrix(&st16;  325.37  32.08 )">(IG)</text><text style="&st18;" transform="matrix(&st16;  329.86  101.49 )">1</text><text style="&st18;" transform="matrix(&st16;  334.59  267.19 )">A27(A),D56(B)</text><text style="&st18;" transform="matrix(&st16;  334.59  274.29 )">ECM</text><text style="&st18;" transform="matrix(&st16;  431.1  297.24 )">B</text><text style="&st18;" transform="matrix(&st16;  415.44  297.24 )">122</text><text style="&st18;" transform="matrix(&st16;  473.59  297.24 )">B</text><text style="&st18;" transform="matrix(&st16;  461.12  297.24 )">99</text><text style="&st18;" transform="matrix(&st17;  429.73  348.83 )">G-Y</text><text style="&st18;" transform="matrix(&st17;  472.22  343.71 )">L</text><text style="&st18;" transform="matrix(&st16;  424.49  287.04 )">THO1</text><text style="&st18;" transform="matrix(&st16;  466.6  287.04 )">THO2</text><text style="&st18;" transform="matrix(&st17;  429.73  399.72 )">O</text><text style="&st18;" transform="matrix(&st17;  472.22  398.95 )">L</text><text style="&st18;" transform="matrix(&st17;  429.73  476.21 )">O</text><text style="&st18;" transform="matrix(&st17;  472.22  475.43 )">L</text><text style="&st18;" transform="matrix(&st16;  478.75  491.01 )">OT2-</text><text style="&st18;" transform="matrix(&st16;  436.26  491.01 )">OT-</text><text style="&st18;" transform="matrix(&st16;  478.75  383.92 )">OT2+</text><text style="&st18;" transform="matrix(&st16;  436.26  383.92 )">OT+</text><text style="&st18;" transform="matrix(&st16;  89.29  339.45 )">4</text><text style="&st18;" transform="matrix(&st16;  98.06  339.45 )">1B</text><text style="&st18;" transform="matrix(&st16;  317.39  186.76 )">15</text><text style="&st18;" transform="matrix(&st16;  114.79  339.45 )">3</text><text style="&st18;" transform="matrix(&st16;  123.56  339.45 )">1B</text><text style="&st18;" transform="matrix(&st16;  329.11  186.76 )">B</text><text style="&st18;" transform="matrix(&st16;  317.39  160.69 )">14</text><text style="&st18;" transform="matrix(&st16;  329.11  160.69 )">B</text><text style="&st18;" transform="matrix(&st16;  333.64  297.24 )">98</text><text style="&st18;" transform="matrix(&st16;  58.88  32.08 )">(BAT)</text><text style="&st18;" transform="matrix(&st16;  85.29  56.17 )">25A <tspan dy="6" x="0">EFI NO.1</tspan></text><text style="&st18;" transform="matrix(&st16;  324.66  86.47 )">2</text><text style="&st18;" transform="matrix(&st17;  225.77  346.96 )">GR</text><text style="&st18;" transform="matrix(&st16;  223.14  287.04 )">+B2</text><text style="&st18;" transform="matrix(&st16;  218.61  297.24 )">2</text><text style="&st18;" transform="matrix(&st16;  227.13  297.24 )">A</text><text style="&st18;" transform="matrix(&st16;  185.79  255.88 )">MREL</text><text style="&st18;" transform="matrix(&st16;  220.56  255.88 )">BATT</text><text style="&st18;" transform="matrix(&st17;  225.77  216.23 )">L</text><text style="&st18;" transform="matrix(&st17;  191.77  217.6 )">W</text><text style="&st18;" transform="matrix(&st16;  180.66  245.68 )">34</text><text style="&st18;" transform="matrix(&st16;  193.14  245.68 )">A</text><text style="&st18;" transform="matrix(&st16;  219.39  245.68 )">1</text><text style="&st18;" transform="matrix(&st16;  227.13  245.68 )">A</text><text style="&st18;" transform="matrix(&st16;  193.14  297.24 )">A</text><text style="&st18;" transform="matrix(&st16;  184.62  297.24 )">3</text><text style="&st18;" transform="matrix(&st16;  191.12  287.04 )">+B</text><text style="&st18;" transform="matrix(&st17;  191.77  346.96 )">GR</text><text style="&st18;" transform="matrix(&st16;  339.19  287.04 )">ETHA</text><text style="&st18;" transform="matrix(&st17;  327.75  139.74 )">L</text><text style="&st18;" transform="matrix(&st16;  329.11  245.68 )">A</text><text style="&st18;" transform="matrix(&st16;  316.64  245.68 )">28</text><text style="&st18;" transform="matrix(&st16;  322.01  255.88 )">IGSW</text><text style="&st18;" transform="matrix(&st16;  120.69  596.38 )">4</text><text style="&st18;" transform="matrix(&st16;  120.69  567.5 )">2</text><text ewd:textID="26" style="&st18;" transform="matrix(&st16;  139.12  580.24 )">Junction Connector</text><text style="&st18;" transform="matrix(&st16;  139.12  573.13 )">A54</text><text style="&st18;" transform="matrix(&st17;  123.78  519.4 )">W-B</text><text style="&st18;" transform="matrix(&st17;  123.78  668.12 )">W-B</text><text style="&st18;" transform="matrix(&st17;  344.75  346.53 )">BR</text><text style="&st18;" transform="matrix(&st17;  259.76  349.43 )">W-B</text><text style="&st18;" transform="matrix(&st16;  261.12  297.24 )">A</text><text style="&st18;" transform="matrix(&st16;  249.43  297.24 )">31</text><text style="&st18;" transform="matrix(&st16;  258.65  287.04 )">EC</text><text style="&st18;" transform="matrix(&st17;  259.76  621.38 )">W-B</text><text style="&st18;" transform="matrix(&st16;  403.13  601.49 )">BR</text><text style="&st18;" transform="matrix(&st16;  461.86  373.16 )">10</text><text style="&st18;" transform="matrix(&st16;  473.59  373.16 )">A</text><text style="&st18;" transform="matrix(&st16;  422.55  373.16 )">9</text><text style="&st18;" transform="matrix(&st16;  431.1  373.16 )">A</text><text style="&st18;" transform="matrix(&st16;  423.33  501.2 )">1</text><text style="&st18;" transform="matrix(&st16;  431.1  501.2 )">A</text><text style="&st18;" transform="matrix(&st16;  465.04  501.2 )">2</text><text style="&st18;" transform="matrix(&st16;  473.59  501.2 )">A</text><text ewd:textID="21" style="&st18;" transform="matrix(&st17;  398.29  488.73 )">Electronically Controlled <tspan dy="6" x="0">Transmission Solenoid</tspan></text><text style="&st18;" transform="matrix(&st17;  391.18  488.73 )">D41(A),D42(B)</text><text style="&st18;" transform="matrix(&st16;  61.2  86.47 )">2</text><text style="&st18;" transform="matrix(&st17;  313.56  463.23 )">A46</text><text ewd:textID="26" style="&st18;" transform="matrix(&st17;  320.67  463.23 )">Junction <tspan dy="6" x="0">Connector</tspan></text><text style="&st18;" transform="matrix(&st16;  287.48  468.9 )">12</text><text style="&st18;" transform="matrix(&st16;  287.48  440.02 )">10</text><text style="&st18;" transform="matrix(&st17;  293.76  349.43 )">W-B</text><text style="&st18;" transform="matrix(&st16;  295.12  297.24 )">A</text><text style="&st18;" transform="matrix(&st16;  286.6  297.24 )">4</text><text style="&st18;" transform="matrix(&st16;  289.29  287.04 )">ADJ1</text><text style="&st18;" transform="matrix(&st17;  293.76  621.38 )">W-B</text><text style="&st18;" transform="matrix(&st17;  305.09  351.87 )">(2WD)</text><text style="&st18;" transform="matrix(&st17;  305.09  623.82 )">(2WD)</text></svg>