﻿<?xml version="1.0" encoding="utf-8"?>
<!DOCTYPE svg PUBLIC "-//W3C//DTD SVG 1.0//EN" "http://www.w3.org/TR/2001/REC-SVG-20010904/DTD/svg10.dtd"[
	<!ENTITY ns_flows "http://ns.adobe.com/Flows/1.0/">
	<!ENTITY ns_svg "http://www.w3.org/2000/svg">
	<!ENTITY ns_xlink "http://www.w3.org/1999/xlink">
	<!ENTITY st0 "font-size:7px;font-family:'MS-PGothic';adobe-font-script:japanese;">
	<!ENTITY st1 "font-size:6px;font-family:'ArialMT';">
	<!-- White fill  -->
	<!ENTITY st2 "fill:#FFFFFF;stroke:#000000; stroke-width:1.41;stroke-linecap:round;stroke-linejoin:round;">
	<!-- Yellow fill  -->
	<!ENTITY st3 "fill:#FFFFCC;stroke:#FFFFCC; stroke-width:0.1;stroke-linecap:round;stroke-linejoin:round;">
	<!-- Gray fill  -->
	<!ENTITY st4 "fill:#CCCCCC;stroke:#CCCCCC; stroke-width:0.1;stroke-linecap:round;stroke-linejoin:round;">
	<!-- Light-blue fill -->
	<!ENTITY st5 "fill:#CCECF4;stroke:#000000; stroke-width:1.133;stroke-linecap:round;stroke-linejoin:round;">
	<!ENTITY st6 "fill:none;stroke-linecap:butt; stroke-linejoin:round;">
	<!ENTITY st7 "fill:none;stroke:#000000;stroke-linecap:round;stroke-linejoin:round;">
	<!ENTITY st8 "enable-background:new    ;">
	<!-- Black fill -->
	<!ENTITY st9 "fill:#000000;stroke:#000000; stroke-linecap:round;stroke-linejoin:round;">
	<!-- SRS note   -->
	<!ENTITY st10 "font-size:9px;font-family:'ArialMT';">
	<!ENTITY st11 "font-size:9px;font-family:'Svg Symbol';">
	<!ENTITY st12 "font-size:6px;font-family:'Svg Symbol';">
	<!ENTITY st13 "fill:none;stroke:#ff0000;stroke-linecap:round;stroke-linejoin:round;">
	<!-- Yellow fill  -->
	<!ENTITY st14 "fill:#FFFF00;stroke:#FFFF00; stroke-width:0.1;stroke-linecap:round;stroke-linejoin:round;">
	<!ENTITY st15 "font-size:6px;font-family:'MS-PGothic';adobe-font-script:japanese;">
	<!ENTITY st16 "1.00 0.00 0.00 1.00">
	<!ENTITY st17 "0.00 -1.00 1.00 0.00">
	<!ENTITY st18 "font-size:6px;font-family:'Arial';">
	<!ENTITY st19 "font-size:9px;font-family:'Arial';">
	<!ENTITY st20 "font-size:6px;font-family:'MS-PGothic','MS PGothic';adobe-font-script:japanese;">
	<!ENTITY st21 "font-size:7px;font-family:'MS-PGothic','MS PGothic';adobe-font-script:japanese;">
	<!ATTLIST svg
		xmlns:ewd CDATA #FIXED "http://shcl.co.jp/ewd"
		xmlns:a CDATA #FIXED "http://ns.adobe.com/AdobeSVGViewerExtensions/3.0/"
		ewd:ver CDATA #IMPLIED
	>
	<!ATTLIST a
		ewd:lineID CDATA #IMPLIED
		ewd:groupID CDATA #IMPLIED
		ewd:figtype CDATA #IMPLIED
		ewd:code CDATA #IMPLIED
		ewd:figID CDATA #IMPLIED
		ewd:pinNo CDATA #IMPLIED
		ewd:comment CDATA #IMPLIED >
	<!ATTLIST g
		ewd:lineID CDATA #IMPLIED
		ewd:groupID CDATA #IMPLIED
		ewd:figtype CDATA #IMPLIED
		ewd:code CDATA #IMPLIED
		ewd:figID CDATA #IMPLIED
		ewd:pinNo CDATA #IMPLIED
		ewd:comment CDATA #IMPLIED >
	<!ATTLIST text
		ewd:textID CDATA #IMPLIED >
	<!ATTLIST title
		ewd:textID CDATA #IMPLIED >
]>
<!-- Generator: Shintec Hozumi YS   -->
<svg onload="call_execInitLoadProc_svg('system')" style="overflow:visible;  enable-background:new 0 0 4139.517 710.000" viewBox="0 0 4139.517 710.000" height="710.000" width="4139.517" xml:space="preserve" ewd:ver="L2.1.2.7" xmlns="&ns_svg;" xmlns:a="http://ns.adobe.com/AdobeSVGViewerExtensions/3.0/" xmlns:ewd="http://shcl.co.jp/ewd" xmlns:xlink="&ns_xlink;">
<path d=" M  339.94,   69.77  L  339.94,   78.27 " style="stroke-width: 0.85 ;&st7; " /><path d=" M  342.07,   95.27  L  337.82,   95.27 " style="stroke-width: 1.42 ;&st7; " /><path d=" M  342.07,  103.77  L  337.82,  103.77 " style="stroke-width: 1.42 ;&st7; " /><path d=" M  195.47,  397.69  L  190.50,  392.72 " style="stroke-width: 1.42 ;&st7; " /><path d=" M  178.47,  404.75  L  183.44,  409.72 " style="stroke-width: 1.42 ;&st7; " /><path d=" M  190.50,  409.72  L  195.47,  404.75 " style="stroke-width: 1.42 ;&st7; " /><path d=" M  183.44,  392.72  L  178.47,  397.69 " style="stroke-width: 1.42 ;&st7; " /><path d=" M  416.43,  469.21  L  416.43,  456.46 " style="stroke-width: 0.85 ;&st7; " /><path d=" M  419.26,  452.21  L  413.60,  455.04 " style="stroke-width: 0.85 ;&st7; " /><path d=" M  413.60,  449.38  L  419.26,  452.21 " style="stroke-width: 0.85 ;&st7; " /><path d=" M  419.26,  446.54  L  413.60,  449.38 " style="stroke-width: 0.85 ;&st7; " /><path d=" M  413.60,  443.71  L  419.26,  446.54 " style="stroke-width: 0.85 ;&st7; " /><path d=" M  419.26,  440.88  L  413.60,  443.71 " style="stroke-width: 0.85 ;&st7; " /><path d=" M  416.43,  439.46  L  419.26,  440.88 " style="stroke-width: 0.85 ;&st7; " /><path d=" M  413.60,  455.04  L  416.43,  456.46 " style="stroke-width: 0.85 ;&st7; " /><path d=" M  416.43,  439.46  L  416.43,  426.71 " style="stroke-width: 0.85 ;&st7; " /><path d=" M  407.93,  439.46  L  407.93,  456.46 " style="stroke-width: 0.85 ;&st7; " /><path d=" M  424.93,  439.46  L  424.93,  456.46 " style="stroke-width: 0.85 ;&st7; " /><path d=" M  475.92,  618.65  L  470.95,  613.68 " style="stroke-width: 1.42 ;&st7; " /><path d=" M  458.92,  625.71  L  463.89,  630.68 " style="stroke-width: 1.42 ;&st7; " /><path d=" M  470.95,  630.68  L  475.92,  625.71 " style="stroke-width: 1.42 ;&st7; " /><path d=" M  463.89,  613.68  L  458.92,  618.65 " style="stroke-width: 1.42 ;&st7; " /><path d=" M   70.11,  341.73  L   65.86,  341.73 " style="stroke-width: 1.42 ;&st7; " /><path d=" M   33.99,   69.77  L   33.99,   78.27 " style="stroke-width: 0.85 ;&st7; " /><path d=" M   70.11,  333.23  L   65.86,  333.23 " style="stroke-width: 1.42 ;&st7; " /><path d=" M   95.61,  341.73  L   91.36,  341.73 " style="stroke-width: 1.42 ;&st7; " /><path d=" M   95.61,  333.23  L   91.36,  333.23 " style="stroke-width: 1.42 ;&st7; " /><path d=" M   93.48,  299.24  L   93.48,  307.73 " style="stroke-width: 0.85 ;&st7; " /><path d=" M   93.48,  273.74  L   93.48,  282.24 " style="stroke-width: 0.85 ;&st7; " /><path d=" M   67.99,  277.99  L   67.99,  273.74 " style="stroke-width: 0.85 ;&st7; " /><path d=" M   67.99,  307.73  L   67.99,  303.48 " style="stroke-width: 0.85 ;&st7; " /><path d=" M   67.99,  300.65  L   62.32,  277.99 " style="stroke-width: 1.42 ;&st7; " /><path d=" M   70.11,  239.75  L   65.86,  239.75 " style="stroke-width: 1.42 ;&st7; " /><path d=" M   70.11,  248.24  L   65.86,  248.24 " style="stroke-width: 1.42 ;&st7; " /><path d=" M   95.61,  239.75  L   91.36,  239.75 " style="stroke-width: 1.42 ;&st7; " /><path d=" M   95.61,  248.24  L   91.36,  248.24 " style="stroke-width: 1.42 ;&st7; " /><path d=" M  452.55,  103.77  L  448.30,  103.77 " style="stroke-width: 1.42 ;&st7; " /><path d=" M  452.55,   95.27  L  448.30,   95.27 " style="stroke-width: 1.42 ;&st7; " /><path d=" M  450.42,   69.77  L  450.42,   95.27 " style="stroke-width: 0.85 ;&st7; " /><path d=" M  339.94,  181.67  L  345.61,  159.01 " style="stroke-width: 1.42 ;&st7; " /><path d=" M  339.94,  188.75  L  339.94,  184.50 " style="stroke-width: 0.85 ;&st7; " /><path d=" M  339.94,  159.01  L  339.94,  154.76 " style="stroke-width: 0.85 ;&st7; " /><path d=" M  365.44,  159.01  L  365.44,  154.76 " style="stroke-width: 0.85 ;&st7; " /><path d=" M  365.44,  188.75  L  365.44,  184.50 " style="stroke-width: 0.85 ;&st7; " /><path d=" M  365.44,  181.67  L  363.74,  157.56 " style="stroke-width: 1.42 ;&st7; " /><path d=" M   93.48,  435.21  L   93.48,  452.21 " style="stroke-width: 0.85 ;&st7; " /><path d=" M   84.99,  435.21  L  101.98,  435.21  L  101.98,  452.21  L   84.99,  452.21  L   84.99,  435.21 " style="stroke-width: 1.42 ;&st7; " /><path d=" M   92.07,  710.00  L   94.90,  710.00 " style="stroke-width: 0.85 ;&st7; " /><path d=" M   90.65,  707.17  L   96.32,  707.17 " style="stroke-width: 0.85 ;&st7; " /><path d=" M   89.24,  704.33  L   97.73,  704.33 " style="stroke-width: 0.85 ;&st7; " /><path d=" M   84.99,  701.50  L  101.98,  701.50 " style="stroke-width: 0.85 ;&st7; " /><path d=" M   93.48,  697.25  L   93.48,  701.50 " style="stroke-width: 0.85 ;&st7; " /><path d=" M  441.93,  180.26  L  458.92,  180.26 " style="stroke-width: 1.13 ;&st7;stroke-dasharray:3, 1.5;" /><path d=" M  441.93,  171.76  L  458.92,  171.76 " style="stroke-width: 1.13 ;&st7;stroke-dasharray:3, 1.5;" /><path d=" M  342.42,  171.76  L  364.74,  171.76 " style="stroke-width: 0.85 ;&st7;stroke-dasharray:3, 1.5;" /><path d=" M  441.93,  163.26  L  441.93,  188.75  L  458.92,  188.75  L  458.92,  163.26  L  441.93,  163.26 " style="stroke-width: 1.42 ;&st7; " /><path d=" M  331.44,  154.76  L  373.94,  154.76  L  373.94,  188.75  L  331.44,  188.75  L  331.44,  154.76 " style="stroke-width: 1.42 ;&st7; " /><path d=" M  450.42,  163.26  L  450.42,  188.75 " style="stroke-width: 0.85 ;&st7; " /><path d=" M  463.17,   78.27  L  463.17,   35.78  L  437.68,   35.78  L  437.68,   78.27  L  463.17,   78.27 " style="stroke-width: 1.42 ;&st7; " /><path d=" M  450.42,   90.37  L  447.59,   87.54  L  447.59,   91.79  L  450.42,   94.62  L  453.26,   91.79  L  453.26,   87.54  L  450.42,   90.37 " style="stroke-width: 0.28 ;&st9;" /><path d=" M   93.48,  248.24  L   93.48,  273.74 " style="stroke-width: 0.85 ;&st7; " /><path d=" M   93.48,  253.14  L   96.32,  255.97  L   96.32,  251.72  L   93.48,  248.89  L   90.65,  251.72  L   90.65,  255.97  L   93.48,  253.14 " style="stroke-width: 0.28 ;&st9;" /><path d=" M   67.99,  307.73  L   67.99,  333.23 " style="stroke-width: 0.85 ;&st7; " /><path d=" M   93.48,  307.73  L   93.48,  333.23 " style="stroke-width: 0.85 ;&st7; " /><path d=" M   67.99,  248.24  L   67.99,  273.74 " style="stroke-width: 0.85 ;&st7; " /><path d=" M  101.98,  273.74  L   59.49,  273.74  L   59.49,  307.73  L  101.98,  307.73  L  101.98,  273.74 " style="stroke-width: 1.42 ;&st7; " /><path d=" M   67.99,  253.14  L   70.82,  255.97  L   70.82,  251.72  L   67.99,  248.89  L   65.16,  251.72  L   65.16,  255.97  L   67.99,  253.14 " style="stroke-width: 0.28 ;&st9;" /><path d=" M   33.99,   78.27  L   33.99,  265.24  L   67.99,  265.24 " style="stroke-width: 0.85 ;&st7; " /><path d=" M  169.97,  265.24  L 2566.57,  265.24  L 2566.57,  324.73  L  169.97,  324.73  L  169.97,  265.24 " style="stroke-width: 1.42 ;&st7; " /><path d=" M   46.74,   78.27  L   46.74,   35.78  L   21.25,   35.78  L   21.25,   78.27  L   46.74,   78.27 " style="stroke-width: 1.42 ;&st7; " /><path d=" M   67.99,  328.33  L   65.16,  325.50  L   65.16,  329.75  L   67.99,  332.58  L   70.82,  329.75  L   70.82,  325.50  L   67.99,  328.33 " style="stroke-width: 0.28 ;&st9;" /><path d=" M   66.80,  264.24  L   66.52,  264.71  L   66.43,  265.24  L   66.52,  265.77  L   66.80,  266.24  L   67.21,  266.59  L   67.72,  266.78  L   68.26,  266.78  L   68.77,  266.59  L   69.18,  266.24  L   69.45,  265.77  L   69.55,  265.24  L   69.45,  264.71  L   69.18,  264.24  L   68.77,  263.89  L   68.26,  263.71  L   67.72,  263.71  L   67.21,  263.89  L   66.80,  264.24  L   67.19,  264.95  L   67.19,  265.53  L   67.56,  265.98  L   68.14,  266.08  L   68.64,  265.79  L   68.84,  265.24  L   68.64,  264.69  L   68.14,  264.41  L   67.56,  264.50  L   67.99,  265.24 " style="stroke-width: 0.85 ;&st7; " /><path d=" M   93.48,  328.33  L   90.65,  325.50  L   90.65,  329.75  L   93.48,  332.58  L   96.32,  329.75  L   96.32,  325.50  L   93.48,  328.33 " style="stroke-width: 0.28 ;&st9;" /><path d=" M  327.20,   35.78  L  327.20,   78.27  L  352.69,   78.27  L  352.69,   35.78  L  327.20,   35.78 " style="stroke-width: 1.42 ;&st7; " /><path d=" M  339.94,   90.37  L  337.11,   87.54  L  337.11,   91.79  L  339.94,   94.62  L  342.78,   91.79  L  342.78,   87.54  L  339.94,   90.37 " style="stroke-width: 0.28 ;&st9;" /><path d=" M  339.94,   78.27  L  339.94,   95.27 " style="stroke-width: 0.85 ;&st7; " /><path d=" M  254.96,  154.76  L  254.96,  180.26  L  271.95,  180.26  L  271.95,  154.76  L  254.96,  154.76 " style="stroke-width: 1.42 ;&st7; " /><path d=" M  254.96,  163.26  L  271.95,  163.26 " style="stroke-width: 1.13 ;&st7;stroke-dasharray:3, 1.5;" /><path d=" M  254.96,  171.76  L  271.95,  171.76 " style="stroke-width: 1.13 ;&st7;stroke-dasharray:3, 1.5;" /><path d=" M  263.46,  154.76  L  263.46,  180.26 " style="stroke-width: 0.85 ;&st7; " /><path d=" M  403.68,  469.21  L  403.68,  426.71  L  429.18,  426.71  L  429.18,  469.21  L  403.68,  469.21 " style="stroke-width: 1.42 ;&st7; " /><path d=" M  280.45,  435.21  L  280.45,  477.71  L  339.94,  477.71  L  339.94,  435.21  L  280.45,  435.21 " style="stroke-width: 1.42 ;&st7; " /><path d=" M  456.80,   99.52  C  456.80    97.17   454.90    95.27   452.55    95.27 " style="stroke-width: 1.42 ;&st7; " /><path d=" M  452.55,  103.77  C  454.90   103.77   456.80   101.87   456.80    99.52 " style="stroke-width: 1.42 ;&st7; " /><path d=" M  444.05,   99.52  C  444.05   101.87   445.95   103.77   448.30   103.77 " style="stroke-width: 1.42 ;&st7; " /><path d=" M  448.30,   95.27  C  445.95    95.27   444.05    97.17   444.05    99.52 " style="stroke-width: 1.42 ;&st7; " /><path d=" M  451.84,   68.36  C  451.84    67.57   451.21    66.94   450.42    66.94 " style="stroke-width: 0.85 ;&st7; " /><path d=" M  450.42,   66.94  C  449.64    66.94   449.01    67.57   449.01    68.36 " style="stroke-width: 0.85 ;&st7; " /><path d=" M  449.01,   68.36  C  449.01    69.14   449.64    69.77   450.42    69.77 " style="stroke-width: 0.85 ;&st7; " /><path d=" M  450.42,   69.77  C  451.21    69.77   451.84    69.14   451.84    68.36 " style="stroke-width: 0.85 ;&st7; " /><path d=" M  451.84,   45.69  C  451.84    44.91   451.21    44.28   450.42    44.28 " style="stroke-width: 0.85 ;&st7; " /><path d=" M  450.42,   44.28  C  449.64    44.28   449.01    44.91   449.01    45.69 " style="stroke-width: 0.85 ;&st7; " /><path d=" M  449.01,   45.69  C  449.01    46.48   449.64    47.11   450.42    47.11 " style="stroke-width: 0.85 ;&st7; " /><path d=" M  450.42,   47.11  C  451.21    47.11   451.84    46.48   451.84    45.69 " style="stroke-width: 0.85 ;&st7; " /><path d=" M  450.42,   66.94  C  453.16    65.33   454.07    61.80   452.46    59.06 " style="stroke-width: 1.42 ;&st7; " /><path d=" M  452.46,   59.06  C  451.94    58.18   451.31    57.55   450.42    57.03 " style="stroke-width: 1.42 ;&st7; " /><path d=" M  450.42,   47.11  C  447.69    48.72   446.77    52.25   448.39    54.99 " style="stroke-width: 1.42 ;&st7; " /><path d=" M  448.39,   54.99  C  448.91    55.87   449.54    56.51   450.42    57.03 " style="stroke-width: 1.42 ;&st7; " /><path d=" M  341.36,  183.09  C  341.36   182.31   340.73   181.67   339.94   181.67 " style="stroke-width: 0.85 ;&st7; " /><path d=" M  339.94,  181.67  C  339.16   181.67   338.53   182.31   338.53   183.09 " style="stroke-width: 0.85 ;&st7; " /><path d=" M  338.53,  183.09  C  338.53   183.87   339.16   184.50   339.94   184.50 " style="stroke-width: 0.85 ;&st7; " /><path d=" M  339.94,  184.50  C  340.73   184.50   341.36   183.87   341.36   183.09 " style="stroke-width: 0.85 ;&st7; " /><path d=" M  341.36,  160.43  C  341.36   159.64   340.73   159.01   339.94   159.01 " style="stroke-width: 0.85 ;&st7; " /><path d=" M  339.94,  159.01  C  339.16   159.01   338.53   159.64   338.53   160.43 " style="stroke-width: 0.85 ;&st7; " /><path d=" M  338.53,  160.43  C  338.53   161.21   339.16   161.84   339.94   161.84 " style="stroke-width: 0.85 ;&st7; " /><path d=" M  339.94,  161.84  C  340.73   161.84   341.36   161.21   341.36   160.43 " style="stroke-width: 0.85 ;&st7; " /><path d=" M  366.86,  160.43  C  366.86   159.64   366.22   159.01   365.44   159.01 " style="stroke-width: 0.85 ;&st7; " /><path d=" M  365.44,  159.01  C  364.66   159.01   364.02   159.64   364.02   160.43 " style="stroke-width: 0.85 ;&st7; " /><path d=" M  364.02,  160.43  C  364.02   161.21   364.66   161.84   365.44   161.84 " style="stroke-width: 0.85 ;&st7; " /><path d=" M  365.44,  161.84  C  366.22   161.84   366.86   161.21   366.86   160.43 " style="stroke-width: 0.85 ;&st7; " /><path d=" M  366.86,  183.09  C  366.86   182.31   366.22   181.67   365.44   181.67 " style="stroke-width: 0.85 ;&st7; " /><path d=" M  365.44,  181.67  C  364.66   181.67   364.02   182.31   364.02   183.09 " style="stroke-width: 0.85 ;&st7; " /><path d=" M  364.02,  183.09  C  364.02   183.87   364.66   184.50   365.44   184.50 " style="stroke-width: 0.85 ;&st7; " /><path d=" M  365.44,  184.50  C  366.22   184.50   366.86   183.87   366.86   183.09 " style="stroke-width: 0.85 ;&st7; " /><path d=" M  369.97,  260.71  C  369.97   258.21   367.94   256.18   365.44   256.18 " style="stroke-width: 1.42 ;&st7; " /><path d=" M  365.44,  256.18  C  362.94   256.18   360.91   258.21   360.91   260.71 " style="stroke-width: 1.42 ;&st7; " /><path d=" M  360.91,  260.71  C  360.91   263.21   362.94   265.24   365.44   265.24 " style="stroke-width: 1.42 ;&st7; " /><path d=" M  365.44,  265.24  C  367.94   265.24   369.97   263.21   369.97   260.71 " style="stroke-width: 1.42 ;&st7; " /><path d=" M  454.96,  193.29  C  454.96   190.78   452.93   188.75   450.42   188.75 " style="stroke-width: 1.42 ;&st7; " /><path d=" M  450.42,  188.75  C  447.92   188.75   445.89   190.78   445.89   193.29 " style="stroke-width: 1.42 ;&st7; " /><path d=" M  445.89,  193.29  C  445.89   195.79   447.92   197.82   450.42   197.82 " style="stroke-width: 1.42 ;&st7; " /><path d=" M  450.42,  197.82  C  452.93   197.82   454.96   195.79   454.96   193.29 " style="stroke-width: 1.42 ;&st7; " /><path d=" M  454.96,  158.73  C  454.96   156.22   452.93   154.19   450.42   154.19 " style="stroke-width: 1.42 ;&st7; " /><path d=" M  450.42,  154.19  C  447.92   154.19   445.89   156.22   445.89   158.73 " style="stroke-width: 1.42 ;&st7; " /><path d=" M  445.89,  158.73  C  445.89   161.23   447.92   163.26   450.42   163.26 " style="stroke-width: 1.42 ;&st7; " /><path d=" M  450.42,  163.26  C  452.93   163.26   454.96   161.23   454.96   158.73 " style="stroke-width: 1.42 ;&st7; " /><path d=" M   61.61,  243.99  C   61.61   246.34    63.52   248.24    65.86   248.24 " style="stroke-width: 1.42 ;&st7; " /><path d=" M  339.94,   47.11  C  337.21    48.72   336.29    52.25   337.91    54.99 " style="stroke-width: 1.42 ;&st7; " /><path d=" M  337.91,   54.99  C  338.43    55.87   339.06    56.51   339.94    57.03 " style="stroke-width: 1.42 ;&st7; " /><path d=" M  339.94,   66.94  C  342.68    65.33   343.59    61.80   341.98    59.06 " style="stroke-width: 1.42 ;&st7; " /><path d=" M  341.98,   59.06  C  341.46    58.18   340.83    57.55   339.94    57.03 " style="stroke-width: 1.42 ;&st7; " /><path d=" M  341.36,   45.69  C  341.36    44.91   340.73    44.28   339.94    44.28 " style="stroke-width: 0.85 ;&st7; " /><path d=" M  339.94,   44.28  C  339.16    44.28   338.53    44.91   338.53    45.69 " style="stroke-width: 0.85 ;&st7; " /><path d=" M  338.53,   45.69  C  338.53    46.48   339.16    47.11   339.94    47.11 " style="stroke-width: 0.85 ;&st7; " /><path d=" M  339.94,   47.11  C  340.73    47.11   341.36    46.48   341.36    45.69 " style="stroke-width: 0.85 ;&st7; " /><path d=" M  341.36,   68.36  C  341.36    67.57   340.73    66.94   339.94    66.94 " style="stroke-width: 0.85 ;&st7; " /><path d=" M  339.94,   66.94  C  339.16    66.94   338.53    67.57   338.53    68.36 " style="stroke-width: 0.85 ;&st7; " /><path d=" M  338.53,   68.36  C  338.53    69.14   339.16    69.77   339.94    69.77 " style="stroke-width: 0.85 ;&st7; " /><path d=" M  339.94,   69.77  C  340.73    69.77   341.36    69.14   341.36    68.36 " style="stroke-width: 0.85 ;&st7; " /><path d=" M  337.82,   95.27  C  335.47    95.27   333.57    97.17   333.57    99.52 " style="stroke-width: 1.42 ;&st7; " /><path d=" M  333.57,   99.52  C  333.57   101.87   335.47   103.77   337.82   103.77 " style="stroke-width: 1.42 ;&st7; " /><path d=" M  342.07,  103.77  C  344.41   103.77   346.32   101.87   346.32    99.52 " style="stroke-width: 1.42 ;&st7; " /><path d=" M  346.32,   99.52  C  346.32    97.17   344.41    95.27   342.07    95.27 " style="stroke-width: 1.42 ;&st7; " /><path d=" M  267.99,  184.79  C  267.99   182.28   265.96   180.26   263.46   180.26 " style="stroke-width: 1.42 ;&st7; " /><path d=" M  263.46,  180.26  C  260.95   180.26   258.92   182.28   258.92   184.79 " style="stroke-width: 1.42 ;&st7; " /><path d=" M  258.92,  184.79  C  258.92   187.29   260.95   189.32   263.46   189.32 " style="stroke-width: 1.42 ;&st7; " /><path d=" M  263.46,  189.32  C  265.96   189.32   267.99   187.29   267.99   184.79 " style="stroke-width: 1.42 ;&st7; " /><path d=" M  267.99,  150.23  C  267.99   147.72   265.96   145.69   263.46   145.69 " style="stroke-width: 1.42 ;&st7; " /><path d=" M  263.46,  145.69  C  260.95   145.69   258.92   147.72   258.92   150.23 " style="stroke-width: 1.42 ;&st7; " /><path d=" M  258.92,  150.23  C  258.92   152.73   260.95   154.76   263.46   154.76 " style="stroke-width: 1.42 ;&st7; " /><path d=" M  263.46,  154.76  C  265.96   154.76   267.99   152.73   267.99   150.23 " style="stroke-width: 1.42 ;&st7; " /><path d=" M  407.93,  456.46  C  407.93   461.15   411.74   464.96   416.43   464.96 " style="stroke-width: 0.85 ;&st7; " /><path d=" M  416.43,  464.96  C  421.12   464.96   424.93   461.15   424.93   456.46 " style="stroke-width: 0.85 ;&st7; " /><path d=" M  424.93,  439.46  C  424.93   434.77   421.12   430.96   416.43   430.96 " style="stroke-width: 0.85 ;&st7; " /><path d=" M  416.43,  430.96  C  411.74   430.96   407.93   434.77   407.93   439.46 " style="stroke-width: 0.85 ;&st7; " /><path d=" M  420.96,  329.26  C  420.96   326.76   418.93   324.73   416.43   324.73 " style="stroke-width: 1.42 ;&st7; " /><path d=" M  416.43,  324.73  C  413.93   324.73   411.90   326.76   411.90   329.26 " style="stroke-width: 1.42 ;&st7; " /><path d=" M  411.90,  329.26  C  411.90   331.77   413.93   333.80   416.43   333.80 " style="stroke-width: 1.42 ;&st7; " /><path d=" M  416.43,  333.80  C  418.93   333.80   420.96   331.77   420.96   329.26 " style="stroke-width: 1.42 ;&st7; " /><path d=" M  267.99,  329.26  C  267.99   326.76   265.96   324.73   263.46   324.73 " style="stroke-width: 1.42 ;&st7; " /><path d=" M  263.46,  324.73  C  260.95   324.73   258.92   326.76   258.92   329.26 " style="stroke-width: 1.42 ;&st7; " /><path d=" M  258.92,  329.26  C  258.92   331.77   260.95   333.80   263.46   333.80 " style="stroke-width: 1.42 ;&st7; " /><path d=" M  263.46,  333.80  C  265.96   333.80   267.99   331.77   267.99   329.26 " style="stroke-width: 1.42 ;&st7; " /><path d=" M  301.98,  329.26  C  301.98   326.76   299.95   324.73   297.45   324.73 " style="stroke-width: 1.42 ;&st7; " /><path d=" M  297.45,  324.73  C  294.95   324.73   292.92   326.76   292.92   329.26 " style="stroke-width: 1.42 ;&st7; " /><path d=" M  292.92,  329.26  C  292.92   331.77   294.95   333.80   297.45   333.80 " style="stroke-width: 1.42 ;&st7; " /><path d=" M  297.45,  333.80  C  299.95   333.80   301.98   331.77   301.98   329.26 " style="stroke-width: 1.42 ;&st7; " /><path d=" M  369.97,  329.26  C  369.97   326.76   367.94   324.73   365.44   324.73 " style="stroke-width: 1.42 ;&st7; " /><path d=" M  365.44,  324.73  C  362.94   324.73   360.91   326.76   360.91   329.26 " style="stroke-width: 1.42 ;&st7; " /><path d=" M  360.91,  329.26  C  360.91   331.77   362.94   333.80   365.44   333.80 " style="stroke-width: 1.42 ;&st7; " /><path d=" M  365.44,  333.80  C  367.94   333.80   369.97   331.77   369.97   329.26 " style="stroke-width: 1.42 ;&st7; " /><path d=" M  191.50,  329.26  C  191.50   326.76   189.47   324.73   186.97   324.73 " style="stroke-width: 1.42 ;&st7; " /><path d=" M  186.97,  324.73  C  184.47   324.73   182.44   326.76   182.44   329.26 " style="stroke-width: 1.42 ;&st7; " /><path d=" M  182.44,  329.26  C  182.44   331.77   184.47   333.80   186.97   333.80 " style="stroke-width: 1.42 ;&st7; " /><path d=" M  186.97,  333.80  C  189.47   333.80   191.50   331.77   191.50   329.26 " style="stroke-width: 1.42 ;&st7; " /><path d=" M  191.50,  260.71  C  191.50   258.21   189.47   256.18   186.97   256.18 " style="stroke-width: 1.42 ;&st7; " /><path d=" M  186.97,  256.18  C  184.47   256.18   182.44   258.21   182.44   260.71 " style="stroke-width: 1.42 ;&st7; " /><path d=" M  182.44,  260.71  C  182.44   263.21   184.47   265.24   186.97   265.24 " style="stroke-width: 1.42 ;&st7; " /><path d=" M  186.97,  265.24  C  189.47   265.24   191.50   263.21   191.50   260.71 " style="stroke-width: 1.42 ;&st7; " /><path d=" M  225.50,  260.71  C  225.50   258.21   223.47   256.18   220.96   256.18 " style="stroke-width: 1.42 ;&st7; " /><path d=" M  220.96,  256.18  C  218.46   256.18   216.43   258.21   216.43   260.71 " style="stroke-width: 1.42 ;&st7; " /><path d=" M  216.43,  260.71  C  216.43   263.21   218.46   265.24   220.96   265.24 " style="stroke-width: 1.42 ;&st7; " /><path d=" M  220.96,  265.24  C  223.47   265.24   225.50   263.21   225.50   260.71 " style="stroke-width: 1.42 ;&st7; " /><path d=" M  225.50,  329.26  C  225.50   326.76   223.47   324.73   220.96   324.73 " style="stroke-width: 1.42 ;&st7; " /><path d=" M  220.96,  324.73  C  218.46   324.73   216.43   326.76   216.43   329.26 " style="stroke-width: 1.42 ;&st7; " /><path d=" M  216.43,  329.26  C  216.43   331.77   218.46   333.80   220.96   333.80 " style="stroke-width: 1.42 ;&st7; " /><path d=" M  220.96,  333.80  C  223.47   333.80   225.50   331.77   225.50   329.26 " style="stroke-width: 1.42 ;&st7; " /><path d=" M   35.41,   68.36  C   35.41    67.57    34.78    66.94    33.99    66.94 " style="stroke-width: 0.85 ;&st7; " /><path d=" M   33.99,   66.94  C   33.21    66.94    32.58    67.57    32.58    68.36 " style="stroke-width: 0.85 ;&st7; " /><path d=" M   32.58,   68.36  C   32.58    69.14    33.21    69.77    33.99    69.77 " style="stroke-width: 0.85 ;&st7; " /><path d=" M   33.99,   69.77  C   34.78    69.77    35.41    69.14    35.41    68.36 " style="stroke-width: 0.85 ;&st7; " /><path d=" M   35.41,   45.69  C   35.41    44.91    34.78    44.28    33.99    44.28 " style="stroke-width: 0.85 ;&st7; " /><path d=" M   33.99,   44.28  C   33.21    44.28    32.58    44.91    32.58    45.69 " style="stroke-width: 0.85 ;&st7; " /><path d=" M   32.58,   45.69  C   32.58    46.48    33.21    47.11    33.99    47.11 " style="stroke-width: 0.85 ;&st7; " /><path d=" M   33.99,   47.11  C   34.78    47.11    35.41    46.48    35.41    45.69 " style="stroke-width: 0.85 ;&st7; " /><path d=" M   33.99,   66.94  C   36.73    65.33    37.64    61.80    36.03    59.06 " style="stroke-width: 1.42 ;&st7; " /><path d=" M   36.03,   59.06  C   35.51    58.18    34.88    57.55    33.99    57.03 " style="stroke-width: 1.42 ;&st7; " /><path d=" M   33.99,   47.11  C   31.26    48.72    30.34    52.25    31.96    54.99 " style="stroke-width: 1.42 ;&st7; " /><path d=" M   31.96,   54.99  C   32.48    55.87    33.11    56.51    33.99    57.03 " style="stroke-width: 1.42 ;&st7; " /><path d=" M   74.36,  337.48  C   74.36   335.13    72.46   333.23    70.11   333.23 " style="stroke-width: 1.42 ;&st7; " /><path d=" M   70.11,  341.73  C   72.46   341.73    74.36   339.83    74.36   337.48 " style="stroke-width: 1.42 ;&st7; " /><path d=" M   61.61,  337.48  C   61.61   339.83    63.52   341.73    65.86   341.73 " style="stroke-width: 1.42 ;&st7; " /><path d=" M   65.86,  333.23  C   63.52   333.23    61.61   335.13    61.61   337.48 " style="stroke-width: 1.42 ;&st7; " /><path d=" M  267.99,  260.71  C  267.99   258.21   265.96   256.18   263.46   256.18 " style="stroke-width: 1.42 ;&st7; " /><path d=" M  263.46,  256.18  C  260.95   256.18   258.92   258.21   258.92   260.71 " style="stroke-width: 1.42 ;&st7; " /><path d=" M  258.92,  260.71  C  258.92   263.21   260.95   265.24   263.46   265.24 " style="stroke-width: 1.42 ;&st7; " /><path d=" M  263.46,  265.24  C  265.96   265.24   267.99   263.21   267.99   260.71 " style="stroke-width: 1.42 ;&st7; " /><path d=" M   99.86,  337.48  C   99.86   335.13    97.96   333.23    95.61   333.23 " style="stroke-width: 1.42 ;&st7; " /><path d=" M   95.61,  341.73  C   97.96   341.73    99.86   339.83    99.86   337.48 " style="stroke-width: 1.42 ;&st7; " /><path d=" M   87.11,  337.48  C   87.11   339.83    89.01   341.73    91.36   341.73 " style="stroke-width: 1.42 ;&st7; " /><path d=" M   91.36,  333.23  C   89.01   333.23    87.11   335.13    87.11   337.48 " style="stroke-width: 1.42 ;&st7; " /><path d=" M  471.95,  329.26  C  471.95   326.76   469.93   324.73   467.42   324.73 " style="stroke-width: 1.42 ;&st7; " /><path d=" M  467.42,  324.73  C  464.92   324.73   462.89   326.76   462.89   329.26 " style="stroke-width: 1.42 ;&st7; " /><path d=" M  462.89,  329.26  C  462.89   331.77   464.92   333.80   467.42   333.80 " style="stroke-width: 1.42 ;&st7; " /><path d=" M  467.42,  333.80  C  469.93   333.80   471.95   331.77   471.95   329.26 " style="stroke-width: 1.42 ;&st7; " /><path d=" M   74.36,  243.99  C   74.36   241.65    72.46   239.75    70.11   239.75 " style="stroke-width: 1.42 ;&st7; " /><path d=" M   93.48,  299.24  C   95.44   299.24    97.03   297.65    97.03   295.69 " style="stroke-width: 0.85 ;&st7; " /><path d=" M   97.03,  295.69  C   97.03   293.74    95.44   292.15    93.48   292.15 " style="stroke-width: 0.85 ;&st7; " /><path d=" M   93.48,  292.15  C   92.49   292.15    91.65   292.51    90.96   293.22 " style="stroke-width: 0.85 ;&st7; " /><path d=" M   90.95,  293.22  C   92.32   294.61    94.57   294.64    95.96   293.27 " style="stroke-width: 0.85 ;&st7; " /><path d=" M   95.96,  293.27  C   97.36   291.90    97.38   289.66    96.01   288.26 " style="stroke-width: 0.85 ;&st7; " /><path d=" M   96.01,  288.26  C   94.65   286.86    92.40   286.84    91.01   288.21 " style="stroke-width: 0.85 ;&st7; " /><path d=" M   91.01,  288.21  C   90.99   288.22    90.97   288.24    90.95   288.26 " style="stroke-width: 0.85 ;&st7; " /><path d=" M   90.95,  288.26  C   92.32   289.66    94.57   289.68    95.96   288.31 " style="stroke-width: 0.85 ;&st7; " /><path d=" M   95.96,  288.31  C   97.36   286.94    97.38   284.70    96.01   283.30 " style="stroke-width: 0.85 ;&st7; " /><path d=" M   96.01,  283.30  C   95.32   282.59    94.48   282.24    93.48   282.24 " style="stroke-width: 0.85 ;&st7; " /><path d=" M   69.41,  279.41  C   69.41   278.62    68.77   277.99    67.99   277.99 " style="stroke-width: 0.85 ;&st7; " /><path d=" M   67.99,  277.99  C   67.21   277.99    66.57   278.62    66.57   279.41 " style="stroke-width: 0.85 ;&st7; " /><path d=" M   66.57,  279.41  C   66.57   280.19    67.21   280.82    67.99   280.82 " style="stroke-width: 0.85 ;&st7; " /><path d=" M   67.99,  280.82  C   68.77   280.82    69.41   280.19    69.41   279.41 " style="stroke-width: 0.85 ;&st7; " /><path d=" M   69.41,  302.07  C   69.41   301.29    68.77   300.65    67.99   300.65 " style="stroke-width: 0.85 ;&st7; " /><path d=" M   67.99,  300.65  C   67.21   300.65    66.57   301.29    66.57   302.07 " style="stroke-width: 0.85 ;&st7; " /><path d=" M   66.57,  302.07  C   66.57   302.85    67.21   303.48    67.99   303.48 " style="stroke-width: 0.85 ;&st7; " /><path d=" M   67.99,  303.48  C   68.77   303.48    69.41   302.85    69.41   302.07 " style="stroke-width: 0.85 ;&st7; " /><path d=" M   65.86,  239.75  C   63.52   239.75    61.61   241.65    61.61   243.99 " style="stroke-width: 1.42 ;&st7; " /><path d=" M   95.61,  248.24  C   97.96   248.24    99.86   246.34    99.86   243.99 " style="stroke-width: 1.42 ;&st7; " /><path d=" M   87.11,  243.99  C   87.11   246.34    89.01   248.24    91.36   248.24 " style="stroke-width: 1.42 ;&st7; " /><path d=" M   99.86,  243.99  C   99.86   241.65    97.96   239.75    95.61   239.75 " style="stroke-width: 1.42 ;&st7; " /><path d=" M   91.36,  239.75  C   89.01   239.75    87.11   241.65    87.11   243.99 " style="stroke-width: 1.42 ;&st7; " /><path d=" M   70.11,  248.24  C   72.46   248.24    74.36   246.34    74.36   243.99 " style="stroke-width: 1.42 ;&st7; " /><text style="&st18;" transform="matrix(&st16;  465.09  331.23 )">B</text><text style="&st18;" transform="matrix(&st16;  256.67  272.88 )">STP</text><text style="&st18;" transform="matrix(&st17;  259.76  235.98 )">LG</text><text style="&st18;" transform="matrix(&st16;  261.12  262.68 )">A</text><text style="&st18;" transform="matrix(&st16;  248.65  262.68 )">26</text><text style="&st18;" transform="matrix(&st16;  56.08  245.96 )">1</text><text style="&st18;" transform="matrix(&st16;  64.07  245.96 )">1B</text><text style="&st18;" transform="matrix(&st16;  80.79  245.96 )">2</text><text style="&st18;" transform="matrix(&st16;  89.56  245.96 )">1B</text><text ewd:textID="12" style="&st18;" transform="matrix(&st17;  49.86  306.03 )">EFI MAIN <tspan dy="6" x="0">Relay</tspan></text><text style="&st18;" transform="matrix(&st16;  160.49  397.52 )">GR</text><text style="&st18;" transform="matrix(&st17;  64.29  207.73 )">L</text><text style="&st18;" transform="matrix(&st17;  89.79  209.11 )">W</text><text style="&st18;" transform="matrix(&st17;  64.29  363.95 )">GR</text><text style="&st18;" transform="matrix(&st17;  89.79  366.43 )">W-B</text><text style="&st18;" transform="matrix(&st16;  467.73  56.17 )">10A <tspan dy="6" x="0">IGN</tspan></text><text style="&st18;" transform="matrix(&st16;  448.84  101.49 )">1</text><text style="&st18;" transform="matrix(&st17;  466.53  191.28 )">A52(A),A53(B)</text><text ewd:textID="15" style="&st18;" transform="matrix(&st17;  473.64  191.28 )">Junction <tspan dy="6" x="0">Connector</tspan></text><text style="&st18;" transform="matrix(&st17;  361.74  225.22 )">R</text><text style="&st18;" transform="matrix(&st16;  358.65  151.07 )">4</text><text style="&st18;" transform="matrix(&st16;  358.65  196.95 )">3</text><text style="&st18;" transform="matrix(&st16;  333.93  196.95 )">1</text><text style="&st18;" transform="matrix(&st16;  333.15  151.07 )">2</text><text style="&st18;" transform="matrix(&st16;  357.39  272.88 )">ST1-</text><text style="&st18;" transform="matrix(&st16;  350.63  262.68 )">35</text><text style="&st18;" transform="matrix(&st16;  363.11  262.68 )">A</text><text ewd:textID="22" style="&st18;" transform="matrix(&st17;  388.66  191.28 )">Stop Light <tspan dy="6" x="0">Switch Assembly</tspan></text><text style="&st18;" transform="matrix(&st17;  381.55  191.28 )">A4</text><text style="&st18;" transform="matrix(&st17;  446.73  131.24 )">L</text><text style="&st18;" transform="matrix(&st16;  443.64  86.47 )">2</text><text style="&st18;" transform="matrix(&st16;  448.09  160.69 )">B</text><text style="&st18;" transform="matrix(&st16;  444.35  32.08 )">(IG)</text><text style="&st18;" transform="matrix(&st16;  317.59  292.68 )">A27(A),D56(B)</text><text style="&st18;" transform="matrix(&st16;  317.59  299.79 )">ECM</text><text style="&st18;" transform="matrix(&st16;  448.09  195.26 )">A</text><text style="&st18;" transform="matrix(&st16;  436.37  160.69 )">14</text><text style="&st18;" transform="matrix(&st16;  55.3  339.45 )">4</text><text style="&st18;" transform="matrix(&st16;  64.07  339.45 )">1B</text><text style="&st18;" transform="matrix(&st16;  435.59  195.26 )">22</text><text style="&st18;" transform="matrix(&st16;  80.79  339.45 )">3</text><text style="&st18;" transform="matrix(&st16;  89.56  339.45 )">1B</text><text style="&st18;" transform="matrix(&st16;  452.62  331.23 )">98</text><text style="&st18;" transform="matrix(&st16;  24.88  32.08 )">(BAT)</text><text style="&st18;" transform="matrix(&st16;  51.3  56.17 )">25A <tspan dy="6" x="0">EFI NO.1</tspan></text><text style="&st18;" transform="matrix(&st17;  217.27  363.95 )">GR</text><text style="&st18;" transform="matrix(&st16;  214.64  321.03 )">+B2</text><text style="&st18;" transform="matrix(&st16;  210.11  331.23 )">2</text><text style="&st18;" transform="matrix(&st16;  218.63  331.23 )">A</text><text style="&st18;" transform="matrix(&st16;  177.29  272.88 )">MREL</text><text style="&st18;" transform="matrix(&st16;  212.06  272.88 )">BATT</text><text style="&st18;" transform="matrix(&st17;  217.27  233.22 )">L</text><text style="&st18;" transform="matrix(&st17;  183.27  234.6 )">W</text><text style="&st18;" transform="matrix(&st16;  172.16  262.68 )">34</text><text style="&st18;" transform="matrix(&st16;  184.64  262.68 )">A</text><text style="&st18;" transform="matrix(&st16;  210.89  262.68 )">1</text><text style="&st18;" transform="matrix(&st16;  218.63  262.68 )">A</text><text style="&st18;" transform="matrix(&st16;  184.64  331.23 )">A</text><text style="&st18;" transform="matrix(&st16;  176.12  331.23 )">3</text><text style="&st18;" transform="matrix(&st16;  182.62  321.03 )">+B</text><text style="&st18;" transform="matrix(&st17;  183.27  363.95 )">GR</text><text style="&st18;" transform="matrix(&st16;  458.17  321.03 )">ETHA</text><text style="&st18;" transform="matrix(&st16;  316.16  485.9 )">3</text><text style="&st18;" transform="matrix(&st16;  290.66  431.52 )">2</text><text ewd:textID="9" style="&st18;" transform="matrix(&st17;  354.66  480.23 )">Crank Position Sensor</text><text style="&st18;" transform="matrix(&st17;  347.55  480.23 )">D1</text><text style="&st18;" transform="matrix(&st16;  290.63  442.85 )">NE-</text><text style="&st18;" transform="matrix(&st16;  290.63  474.01 )">NE+</text><text style="&st18;" transform="matrix(&st16;  318.14  474.01 )">VC</text><text style="&st18;" transform="matrix(&st16;  86.7  460.4 )">4</text><text style="&st18;" transform="matrix(&st16;  86.7  431.52 )">2</text><text ewd:textID="15" style="&st18;" transform="matrix(&st16;  105.12  444.26 )">Junction <tspan dy="6" x="0">Connector</tspan></text><text style="&st18;" transform="matrix(&st16;  105.12  437.16 )">A54</text><text style="&st18;" transform="matrix(&st17;  89.79  570.39 )">W-B</text><text style="&st18;" transform="matrix(&st17;  463.73  363.53 )">BR</text><text style="&st18;" transform="matrix(&st16;  357.25  56.17 )">15A <tspan dy="6" x="0">STOP</tspan></text><text style="&st18;" transform="matrix(&st16;  333.15  86.47 )">2</text><text style="&st18;" transform="matrix(&st16;  338.35  101.49 )">1</text><text style="&st18;" transform="matrix(&st16;  330.83  32.08 )">(BAT)</text><text style="&st18;" transform="matrix(&st17;  336.25  131.24 )">L</text><text style="&st18;" transform="matrix(&st16;  261.12  186.76 )">B</text><text style="&st18;" transform="matrix(&st16;  252.58  186.76 )">8</text><text style="&st18;" transform="matrix(&st16;  261.12  152.2 )">A</text><text style="&st18;" transform="matrix(&st16;  249.4  152.2 )">12</text><text ewd:textID="15" style="&st18;" transform="matrix(&st17;  286.67  182.78 )">Junction <tspan dy="6" x="0">Connector</tspan></text><text style="&st18;" transform="matrix(&st17;  279.57  182.78 )">A48(A),A49(B)</text><text style="&st18;" transform="matrix(&st17;  336.25  227.41 )">BE</text><text style="&st18;" transform="matrix(&st17;  259.76  133.93 )">BE</text><text style="&st18;" transform="matrix(&st16;  488.11  618.48 )">BR</text><text style="&st18;" transform="matrix(&st16;  409.64  423.02 )">2</text><text style="&st18;" transform="matrix(&st16;  410.42  477.4 )">1</text><text style="&st18;" transform="matrix(&st17;  412.74  365.82 )">G-B</text><text style="&st18;" transform="matrix(&st17;  412.73  508.0 )">BR</text><text style="&st18;" transform="matrix(&st16;  408.48  321.03 )">THW</text><text style="&st18;" transform="matrix(&st17;  436.79  471.73 )">D15</text><text style="&st18;" transform="matrix(&st16;  401.63  331.23 )">76</text><text style="&st18;" transform="matrix(&st16;  414.1  331.23 )">B</text><text ewd:textID="11" style="&st18;" transform="matrix(&st17;  443.9  471.73 )">E.F.I. Engine Coolant <tspan dy="6" x="0">Temperature Sensor</tspan></text><text style="&st18;" transform="matrix(&st16;  380.1  125.57 )">B</text><text style="&st18;" transform="matrix(&st17;  446.73  225.08 )">B</text><text style="&st18;" transform="matrix(&st16;  291.44  485.9 )">1</text><text style="&st18;" transform="matrix(&st16;  290.63  321.03 )">NE-</text><text style="&st18;" transform="matrix(&st16;  281.02  331.23 )">111</text><text style="&st18;" transform="matrix(&st16;  295.12  331.23 )">B</text><text style="&st18;" transform="matrix(&st17;  293.75  361.06 )">Y</text><text style="&st18;" transform="matrix(&st17;  259.76  362.08 )">W</text><text style="&st18;" transform="matrix(&st16;  356.33  321.03 )">VCV2</text><text style="&st18;" transform="matrix(&st16;  246.25  331.23 )">110</text><text style="&st18;" transform="matrix(&st16;  261.12  331.23 )">B</text><text style="&st18;" transform="matrix(&st16;  256.64  321.03 )">NE+</text><text style="&st18;" transform="matrix(&st16;  363.11  331.23 )">B</text><text style="&st18;" transform="matrix(&st16;  350.61  331.23 )">66</text><text style="&st18;" transform="matrix(&st17;  361.74  360.7 )">L</text><text style="&st18;" transform="matrix(&st17;  319.25  505.18 )">L</text><text style="&st18;" transform="matrix(&st17;  293.75  506.56 )">W</text><text style="&st18;" transform="matrix(&st16;  27.21  86.47 )">2</text></svg>