﻿<?xml version="1.0" encoding="utf-8"?>
<!DOCTYPE svg PUBLIC "-//W3C//DTD SVG 1.0//EN" "http://www.w3.org/TR/2001/REC-SVG-20010904/DTD/svg10.dtd"[
	<!ENTITY ns_flows "http://ns.adobe.com/Flows/1.0/">
	<!ENTITY ns_svg "http://www.w3.org/2000/svg">
	<!ENTITY ns_xlink "http://www.w3.org/1999/xlink">
	<!ENTITY st0 "font-size:7px;font-family:'MS-PGothic';adobe-font-script:japanese;">
	<!ENTITY st1 "font-size:6px;font-family:'ArialMT';">
	<!-- White fill  -->
	<!ENTITY st2 "fill:#FFFFFF;stroke:#000000; stroke-width:1.41;stroke-linecap:round;stroke-linejoin:round;">
	<!-- Yellow fill  -->
	<!ENTITY st3 "fill:#FFFFCC;stroke:#FFFFCC; stroke-width:0.1;stroke-linecap:round;stroke-linejoin:round;">
	<!-- Gray fill  -->
	<!ENTITY st4 "fill:#CCCCCC;stroke:#CCCCCC; stroke-width:0.1;stroke-linecap:round;stroke-linejoin:round;">
	<!-- Light-blue fill -->
	<!ENTITY st5 "fill:#CCECF4;stroke:#000000; stroke-width:1.133;stroke-linecap:round;stroke-linejoin:round;">
	<!ENTITY st6 "fill:none;stroke-linecap:butt; stroke-linejoin:round;">
	<!ENTITY st7 "fill:none;stroke:#000000;stroke-linecap:round;stroke-linejoin:round;">
	<!ENTITY st8 "enable-background:new    ;">
	<!-- Black fill -->
	<!ENTITY st9 "fill:#000000;stroke:#000000; stroke-linecap:round;stroke-linejoin:round;">
	<!-- SRS note   -->
	<!ENTITY st10 "font-size:9px;font-family:'ArialMT';">
	<!ENTITY st11 "font-size:9px;font-family:'Svg Symbol';">
	<!ENTITY st12 "font-size:6px;font-family:'Svg Symbol';">
	<!ENTITY st13 "fill:none;stroke:#ff0000;stroke-linecap:round;stroke-linejoin:round;">
	<!-- Yellow fill  -->
	<!ENTITY st14 "fill:#FFFF00;stroke:#FFFF00; stroke-width:0.1;stroke-linecap:round;stroke-linejoin:round;">
	<!ENTITY st15 "font-size:6px;font-family:'MS-PGothic';adobe-font-script:japanese;">
	<!ENTITY st16 "1.00 0.00 0.00 1.00">
	<!ENTITY st17 "0.00 -1.00 1.00 0.00">
	<!ENTITY st18 "font-size:6px;font-family:'Arial';">
	<!ENTITY st19 "font-size:9px;font-family:'Arial';">
	<!ENTITY st20 "font-size:6px;font-family:'MS-PGothic','MS PGothic';adobe-font-script:japanese;">
	<!ENTITY st21 "font-size:7px;font-family:'MS-PGothic','MS PGothic';adobe-font-script:japanese;">
	<!ATTLIST svg
		xmlns:ewd CDATA #FIXED "http://shcl.co.jp/ewd"
		xmlns:a CDATA #FIXED "http://ns.adobe.com/AdobeSVGViewerExtensions/3.0/"
		ewd:ver CDATA #IMPLIED
	>
	<!ATTLIST a
		ewd:lineID CDATA #IMPLIED
		ewd:groupID CDATA #IMPLIED
		ewd:figtype CDATA #IMPLIED
		ewd:code CDATA #IMPLIED
		ewd:figID CDATA #IMPLIED
		ewd:pinNo CDATA #IMPLIED
		ewd:comment CDATA #IMPLIED >
	<!ATTLIST g
		ewd:lineID CDATA #IMPLIED
		ewd:groupID CDATA #IMPLIED
		ewd:figtype CDATA #IMPLIED
		ewd:code CDATA #IMPLIED
		ewd:figID CDATA #IMPLIED
		ewd:pinNo CDATA #IMPLIED
		ewd:comment CDATA #IMPLIED >
	<!ATTLIST text
		ewd:textID CDATA #IMPLIED >
	<!ATTLIST title
		ewd:textID CDATA #IMPLIED >
]>
<!-- Generator: Shintec Hozumi YS   -->
<svg onload="call_execInitLoadProc_svg('system')" style="overflow:visible;  enable-background:new 0 0 5180.884 710.000" viewBox="0 0 5180.884 710.000" height="710.000" width="5180.884" xml:space="preserve" ewd:ver="L2.1.2.7" xmlns="&ns_svg;" xmlns:a="http://ns.adobe.com/AdobeSVGViewerExtensions/3.0/" xmlns:ewd="http://shcl.co.jp/ewd" xmlns:xlink="&ns_xlink;">
<path d=" M 2855.52,  294.27  L 2860.49,  299.24 " style="stroke-width: 1.42 ;&st7; " /><path d=" M 2867.55,  299.24  L 2872.52,  294.27 " style="stroke-width: 1.42 ;&st7; " /><path d=" M 2860.49,  282.24  L 2855.52,  287.21 " style="stroke-width: 1.42 ;&st7; " /><path d=" M 2872.52,  321.20  L 2867.55,  316.23 " style="stroke-width: 1.42 ;&st7; " /><path d=" M 2855.52,  328.26  L 2860.49,  333.23 " style="stroke-width: 1.42 ;&st7; " /><path d=" M 2867.55,  333.23  L 2872.52,  328.26 " style="stroke-width: 1.42 ;&st7; " /><path d=" M 2860.49,  316.23  L 2855.52,  321.20 " style="stroke-width: 1.42 ;&st7; " /><path d=" M 2957.51,  134.24  L 2952.53,  129.26 " style="stroke-width: 1.42 ;&st7; " /><path d=" M 2940.51,  141.29  L 2945.48,  146.26 " style="stroke-width: 1.42 ;&st7; " /><path d=" M 2952.53,  146.26  L 2957.51,  141.29 " style="stroke-width: 1.42 ;&st7; " /><path d=" M 2945.48,  129.26  L 2940.51,  134.24 " style="stroke-width: 1.42 ;&st7; " /><path d=" M 2894.49,  426.71  L 2889.52,  431.69 " style="stroke-width: 1.42 ;&st7; " /><path d=" M 2901.54,  443.71  L 2906.51,  438.74 " style="stroke-width: 1.42 ;&st7; " /><path d=" M 2889.52,  438.74  L 2894.49,  443.71 " style="stroke-width: 1.42 ;&st7; " /><path d=" M 2906.51,  431.69  L 2901.54,  426.71 " style="stroke-width: 1.42 ;&st7; " /><path d=" M 2945.48,   95.27  L 2940.51,  100.24 " style="stroke-width: 1.42 ;&st7; " /><path d=" M 2952.53,  112.27  L 2957.51,  107.30 " style="stroke-width: 1.42 ;&st7; " /><path d=" M 2940.51,  107.30  L 2945.48,  112.27 " style="stroke-width: 1.42 ;&st7; " /><path d=" M 2957.51,  100.24  L 2952.53,   95.27 " style="stroke-width: 1.42 ;&st7; " /><path d=" M 2906.51,  474.18  L 2901.54,  469.21 " style="stroke-width: 1.42 ;&st7; " /><path d=" M 2889.52,  481.24  L 2894.49,  486.20 " style="stroke-width: 1.42 ;&st7; " /><path d=" M 2901.54,  486.20  L 2906.51,  481.24 " style="stroke-width: 1.42 ;&st7; " /><path d=" M 2894.49,  469.21  L 2889.52,  474.18 " style="stroke-width: 1.42 ;&st7; " /><path d=" M 2945.48,   27.28  L 2940.51,   32.25 " style="stroke-width: 1.42 ;&st7; " /><path d=" M 2952.53,   44.28  L 2957.51,   39.31 " style="stroke-width: 1.42 ;&st7; " /><path d=" M 2940.51,   39.31  L 2945.48,   44.28 " style="stroke-width: 1.42 ;&st7; " /><path d=" M 2957.51,   32.25  L 2952.53,   27.28 " style="stroke-width: 1.42 ;&st7; " /><path d=" M 2906.51,  508.17  L 2901.54,  503.20 " style="stroke-width: 1.42 ;&st7; " /><path d=" M 2889.52,  515.23  L 2894.49,  520.20 " style="stroke-width: 1.42 ;&st7; " /><path d=" M 2901.54,  520.20  L 2906.51,  515.23 " style="stroke-width: 1.42 ;&st7; " /><path d=" M 2894.49,  503.20  L 2889.52,  508.17 " style="stroke-width: 1.42 ;&st7; " /><path d=" M 2906.51,  542.17  L 2901.54,  537.20 " style="stroke-width: 1.42 ;&st7; " /><path d=" M 2889.52,  549.22  L 2894.49,  554.19 " style="stroke-width: 1.42 ;&st7; " /><path d=" M 2901.54,  554.19  L 2906.51,  549.22 " style="stroke-width: 1.42 ;&st7; " /><path d=" M 2894.49,  537.20  L 2889.52,  542.17 " style="stroke-width: 1.42 ;&st7; " /><path d=" M 2767.01,   95.27  L 2762.04,  100.24 " style="stroke-width: 1.42 ;&st7; " /><path d=" M 2774.06,  112.27  L 2779.04,  107.30 " style="stroke-width: 1.42 ;&st7; " /><path d=" M 2762.04,  107.30  L 2767.01,  112.27 " style="stroke-width: 1.42 ;&st7; " /><path d=" M 2779.04,  100.24  L 2774.06,   95.27 " style="stroke-width: 1.42 ;&st7; " /><path d=" M 2906.51,  576.16  L 2901.54,  571.19 " style="stroke-width: 1.42 ;&st7; " /><path d=" M 2889.52,  583.22  L 2894.49,  588.19 " style="stroke-width: 1.42 ;&st7; " /><path d=" M 2901.54,  588.19  L 2906.51,  583.22 " style="stroke-width: 1.42 ;&st7; " /><path d=" M 2894.49,  571.19  L 2889.52,  576.16 " style="stroke-width: 1.42 ;&st7; " /><path d=" M 2970.25,  575.44  L 2966.00,  575.44 " style="stroke-width: 1.42 ;&st7; " /><path d=" M 2970.25,  566.94  L 2966.00,  566.94 " style="stroke-width: 1.42 ;&st7; " /><path d=" M 2957.51,  176.73  L 2952.53,  171.76 " style="stroke-width: 1.42 ;&st7; " /><path d=" M 2940.51,  183.78  L 2945.48,  188.75 " style="stroke-width: 1.42 ;&st7; " /><path d=" M 2952.53,  188.75  L 2957.51,  183.78 " style="stroke-width: 1.42 ;&st7; " /><path d=" M 2945.48,  171.76  L 2940.51,  176.73 " style="stroke-width: 1.42 ;&st7; " /><path d=" M 2970.25,  600.93  L 2966.00,  600.93 " style="stroke-width: 1.42 ;&st7; " /><path d=" M 2970.25,  609.43  L 2966.00,  609.43 " style="stroke-width: 1.42 ;&st7; " /><path d=" M 2779.04,   66.25  L 2774.06,   61.28 " style="stroke-width: 1.42 ;&st7; " /><path d=" M 2762.04,   73.30  L 2767.01,   78.27 " style="stroke-width: 1.42 ;&st7; " /><path d=" M 2830.03,  103.77  L 2830.03,  108.02 " style="stroke-width: 1.42 ;&st7; " /><path d=" M 2830.03,   69.77  L 2830.03,   74.02 " style="stroke-width: 1.42 ;&st7; " /><path d=" M 2779.04,   32.25  L 2774.06,   27.28 " style="stroke-width: 1.42 ;&st7; " /><path d=" M 2762.04,   39.31  L 2767.01,   44.28 " style="stroke-width: 1.42 ;&st7; " /><path d=" M 2774.06,   44.28  L 2779.04,   39.31 " style="stroke-width: 1.42 ;&st7; " /><path d=" M 2767.01,   27.28  L 2762.04,   32.25 " style="stroke-width: 1.42 ;&st7; " /><path d=" M 2774.06,   78.27  L 2779.04,   73.30 " style="stroke-width: 1.42 ;&st7; " /><path d=" M 2767.01,   61.28  L 2762.04,   66.25 " style="stroke-width: 1.42 ;&st7; " /><path d=" M 2860.49,  129.26  L 2855.52,  134.24 " style="stroke-width: 1.42 ;&st7; " /><path d=" M 2867.55,  146.26  L 2872.52,  141.29 " style="stroke-width: 1.42 ;&st7; " /><path d=" M 2855.52,  141.29  L 2860.49,  146.26 " style="stroke-width: 1.42 ;&st7; " /><path d=" M 2872.52,  134.24  L 2867.55,  129.26 " style="stroke-width: 1.42 ;&st7; " /><path d=" M 2872.52,  253.22  L 2867.55,  248.24 " style="stroke-width: 1.42 ;&st7; " /><path d=" M 2855.52,  260.27  L 2860.49,  265.24 " style="stroke-width: 1.42 ;&st7; " /><path d=" M 2867.55,  265.24  L 2872.52,  260.27 " style="stroke-width: 1.42 ;&st7; " /><path d=" M 2860.49,  248.24  L 2855.52,  253.22 " style="stroke-width: 1.42 ;&st7; " /><path d=" M 2872.52,  287.21  L 2867.55,  282.24 " style="stroke-width: 1.42 ;&st7; " /><path d=" M 2951.13,  622.18  L 2946.88,  622.18 " style="stroke-width: 1.42 ;&st7; " /><path d=" M 2951.13,  630.68  L 2946.88,  630.68 " style="stroke-width: 1.42 ;&st7; " /><path d=" M 2600.56,  384.22  L 2600.56,  418.22  L 2685.55,  418.22  L 2685.55,  384.22  L 2600.56,  384.22 " style="stroke-width: 1.42 ;&st7; " /><path d=" M 2600.56,  205.75  L 2600.56,  239.75  L 2685.55,  239.75  L 2685.55,  205.75  L 2600.56,  205.75 " style="stroke-width: 1.42 ;&st7; " /><path d=" M 2600.56,  163.26  L 2600.56,  197.25  L 2685.55,  197.25  L 2685.55,  163.26  L 2600.56,  163.26 " style="stroke-width: 1.42 ;&st7; " /><path d=" M 2949.01,  537.20  L 3016.99,  537.20 " style="stroke-width: 0.85 ;&st7; " /><path d=" M 3016.99,  401.22  L 2949.01,  401.22 " style="stroke-width: 0.85 ;&st7; " /><path d=" M 3016.99,  469.21  L 2949.01,  469.21 " style="stroke-width: 0.85 ;&st7; " /><path d=" M 3016.99,  333.23  L 2949.01,  333.23  L 2949.01,  622.18 " style="stroke-width: 0.85 ;&st7; " /><path d=" M 3016.99,  503.20  L 2949.01,  503.20 " style="stroke-width: 0.85 ;&st7; " /><path d=" M 2947.81,  570.19  L 2947.54,  570.66  L 2947.45,  571.19  L 2947.54,  571.72  L 2947.81,  572.19  L 2948.23,  572.54  L 2948.74,  572.73  L 2949.28,  572.73  L 2949.79,  572.54  L 2950.20,  572.19  L 2950.47,  571.72  L 2950.56,  571.19  L 2950.47,  570.66  L 2950.20,  570.19  L 2949.79,  569.84  L 2949.28,  569.65  L 2948.74,  569.65  L 2948.23,  569.84  L 2947.81,  570.19  L 2948.21,  570.90  L 2948.21,  571.48  L 2948.58,  571.93  L 2949.15,  572.03  L 2949.66,  571.74  L 2949.86,  571.19  L 2949.66,  570.64  L 2949.15,  570.35  L 2948.58,  570.45  L 2949.01,  571.19 " style="stroke-width: 0.85 ;&st7; " /><path d=" M 2956.86,  605.18  L 2954.03,  602.35  L 2958.28,  602.35  L 2961.11,  605.18  L 2958.28,  608.02  L 2954.03,  608.02  L 2956.86,  605.18 " style="stroke-width: 0.28 ;&st9;" /><path d=" M 2949.01,  605.18  L 2961.75,  605.18 " style="stroke-width: 0.85 ;&st7; " /><path d=" M 2600.56,  605.18  L 2600.56,  630.68  L 2685.55,  630.68  L 2685.55,  605.18  L 2600.56,  605.18 " style="stroke-width: 1.42 ;&st7; " /><path d=" M 3016.99,  435.21  L 2949.01,  435.21 " style="stroke-width: 0.85 ;&st7; " /><path d=" M 3016.99,  367.22  L 2949.01,  367.22 " style="stroke-width: 0.85 ;&st7; " /><path d=" M 2600.56,  503.20  L 2600.56,  596.69  L 2685.55,  596.69  L 2685.55,  503.20  L 2600.56,  503.20 " style="stroke-width: 1.42 ;&st7; " /><path d=" M 2600.56,  469.21  L 2600.56,  494.70  L 2685.55,  494.70  L 2685.55,  469.21  L 2600.56,  469.21 " style="stroke-width: 1.42 ;&st7; " /><path d=" M 2600.56,  426.71  L 2600.56,  460.71  L 2685.55,  460.71  L 2685.55,  426.71  L 2600.56,  426.71 " style="stroke-width: 1.42 ;&st7; " /><path d=" M 2600.56,  282.24  L 2600.56,  375.72  L 2685.55,  375.72  L 2685.55,  282.24  L 2600.56,  282.24 " style="stroke-width: 1.42 ;&st7; " /><path d=" M 2600.56,  248.24  L 2600.56,  273.74  L 2685.55,  273.74  L 2685.55,  248.24  L 2600.56,  248.24 " style="stroke-width: 1.42 ;&st7; " /><path d=" M 2820.96,   99.52  L 2825.21,  103.77  L 2820.96,  108.02 " style="stroke-width: 1.42 ;&st7; " /><path d=" M 2600.56,  129.26  L 2600.56,  154.76  L 2685.55,  154.76  L 2685.55,  129.26  L 2600.56,  129.26 " style="stroke-width: 1.42 ;&st7; " /><path d=" M 2824.36,   99.52  L 2828.61,  103.77  L 2824.36,  108.02 " style="stroke-width: 1.42 ;&st7; " /><path d=" M 2820.96,   65.52  L 2825.21,   69.77  L 2820.96,   74.02 " style="stroke-width: 1.42 ;&st7; " /><path d=" M 2824.36,   65.52  L 2828.61,   69.77  L 2824.36,   74.02 " style="stroke-width: 1.42 ;&st7; " /><path d=" M 2600.56,   95.27  L 2600.56,  120.77  L 2685.55,  120.77  L 2685.55,   95.27  L 2600.56,   95.27 " style="stroke-width: 1.42 ;&st7; " /><path d=" M 2956.86,  571.19  L 2954.03,  568.36  L 2958.28,  568.36  L 2961.11,  571.19  L 2958.28,  574.02  L 2954.03,  574.02  L 2956.86,  571.19 " style="stroke-width: 0.28 ;&st9;" /><path d=" M 2947.81,  366.22  L 2947.54,  366.69  L 2947.45,  367.22  L 2947.54,  367.76  L 2947.81,  368.23  L 2948.23,  368.57  L 2948.74,  368.76  L 2949.28,  368.76  L 2949.79,  368.57  L 2950.20,  368.23  L 2950.47,  367.76  L 2950.56,  367.22  L 2950.47,  366.69  L 2950.20,  366.22  L 2949.79,  365.88  L 2949.28,  365.69  L 2948.74,  365.69  L 2948.23,  365.88  L 2947.81,  366.22  L 2948.21,  366.93  L 2948.21,  367.52  L 2948.58,  367.96  L 2949.15,  368.06  L 2949.66,  367.77  L 2949.86,  367.22  L 2949.66,  366.68  L 2949.15,  366.39  L 2948.58,  366.49  L 2949.01,  367.22 " style="stroke-width: 0.85 ;&st7; " /><path d=" M 2947.81,  400.22  L 2947.54,  400.69  L 2947.45,  401.22  L 2947.54,  401.75  L 2947.81,  402.22  L 2948.23,  402.57  L 2948.74,  402.75  L 2949.28,  402.75  L 2949.79,  402.57  L 2950.20,  402.22  L 2950.47,  401.75  L 2950.56,  401.22  L 2950.47,  400.69  L 2950.20,  400.22  L 2949.79,  399.87  L 2949.28,  399.68  L 2948.74,  399.68  L 2948.23,  399.87  L 2947.81,  400.22  L 2948.21,  400.93  L 2948.21,  401.51  L 2948.58,  401.95  L 2949.15,  402.05  L 2949.66,  401.77  L 2949.86,  401.22  L 2949.66,  400.67  L 2949.15,  400.38  L 2948.58,  400.48  L 2949.01,  401.22 " style="stroke-width: 0.85 ;&st7; " /><path d=" M 2947.81,  434.21  L 2947.54,  434.68  L 2947.45,  435.21  L 2947.54,  435.75  L 2947.81,  436.22  L 2948.23,  436.56  L 2948.74,  436.75  L 2949.28,  436.75  L 2949.79,  436.56  L 2950.20,  436.22  L 2950.47,  435.75  L 2950.56,  435.21  L 2950.47,  434.68  L 2950.20,  434.21  L 2949.79,  433.86  L 2949.28,  433.68  L 2948.74,  433.68  L 2948.23,  433.86  L 2947.81,  434.21  L 2948.21,  434.92  L 2948.21,  435.50  L 2948.58,  435.95  L 2949.15,  436.05  L 2949.66,  435.76  L 2949.86,  435.21  L 2949.66,  434.67  L 2949.15,  434.38  L 2948.58,  434.48  L 2949.01,  435.21 " style="stroke-width: 0.85 ;&st7; " /><path d=" M 2947.81,  468.20  L 2947.54,  468.67  L 2947.45,  469.21  L 2947.54,  469.74  L 2947.81,  470.21  L 2948.23,  470.56  L 2948.74,  470.74  L 2949.28,  470.74  L 2949.79,  470.56  L 2950.20,  470.21  L 2950.47,  469.74  L 2950.56,  469.21  L 2950.47,  468.67  L 2950.20,  468.20  L 2949.79,  467.86  L 2949.28,  467.67  L 2948.74,  467.67  L 2948.23,  467.86  L 2947.81,  468.20  L 2948.21,  468.92  L 2948.21,  469.50  L 2948.58,  469.94  L 2949.15,  470.04  L 2949.66,  469.75  L 2949.86,  469.21  L 2949.66,  468.66  L 2949.15,  468.37  L 2948.58,  468.47  L 2949.01,  469.21 " style="stroke-width: 0.85 ;&st7; " /><path d=" M 2947.81,  502.20  L 2947.54,  502.67  L 2947.45,  503.20  L 2947.54,  503.73  L 2947.81,  504.20  L 2948.23,  504.55  L 2948.74,  504.74  L 2949.28,  504.74  L 2949.79,  504.55  L 2950.20,  504.20  L 2950.47,  503.73  L 2950.56,  503.20  L 2950.47,  502.67  L 2950.20,  502.20  L 2949.79,  501.85  L 2949.28,  501.67  L 2948.74,  501.67  L 2948.23,  501.85  L 2947.81,  502.20  L 2948.21,  502.91  L 2948.21,  503.49  L 2948.58,  503.94  L 2949.15,  504.04  L 2949.66,  503.75  L 2949.86,  503.20  L 2949.66,  502.65  L 2949.15,  502.37  L 2948.58,  502.46  L 2949.01,  503.20 " style="stroke-width: 0.85 ;&st7; " /><path d=" M 2947.81,  604.18  L 2947.54,  604.65  L 2947.45,  605.18  L 2947.54,  605.72  L 2947.81,  606.19  L 2948.23,  606.53  L 2948.74,  606.72  L 2949.28,  606.72  L 2949.79,  606.53  L 2950.20,  606.19  L 2950.47,  605.72  L 2950.56,  605.18  L 2950.47,  604.65  L 2950.20,  604.18  L 2949.79,  603.84  L 2949.28,  603.65  L 2948.74,  603.65  L 2948.23,  603.84  L 2947.81,  604.18  L 2948.21,  604.89  L 2948.21,  605.48  L 2948.58,  605.92  L 2949.15,  606.02  L 2949.66,  605.73  L 2949.86,  605.18  L 2949.66,  604.64  L 2949.15,  604.35  L 2948.58,  604.45  L 2949.01,  605.18 " style="stroke-width: 0.85 ;&st7; " /><path d=" M 2949.01,  571.19  L 2961.75,  571.19 " style="stroke-width: 0.85 ;&st7; " /><path d=" M 3016.99,  265.24  L 2949.01,  265.24  L 2949.01,  299.24 " style="stroke-width: 0.85 ;&st7; " /><path d=" M 2947.81,  536.19  L 2947.54,  536.66  L 2947.45,  537.20  L 2947.54,  537.73  L 2947.81,  538.20  L 2948.23,  538.54  L 2948.74,  538.73  L 2949.28,  538.73  L 2949.79,  538.54  L 2950.20,  538.20  L 2950.47,  537.73  L 2950.56,  537.20  L 2950.47,  536.66  L 2950.20,  536.19  L 2949.79,  535.85  L 2949.28,  535.66  L 2948.74,  535.66  L 2948.23,  535.85  L 2947.81,  536.19  L 2948.21,  536.90  L 2948.21,  537.49  L 2948.58,  537.93  L 2949.15,  538.03  L 2949.66,  537.74  L 2949.86,  537.20  L 2949.66,  536.65  L 2949.15,  536.36  L 2948.58,  536.46  L 2949.01,  537.20 " style="stroke-width: 0.85 ;&st7; " /><path d=" M 3016.99,  299.24  L 2949.01,  299.24  L 2949.01,  333.23 " style="stroke-width: 0.85 ;&st7; " /><path d=" M 2947.81,  332.23  L 2947.54,  332.70  L 2947.45,  333.23  L 2947.54,  333.76  L 2947.81,  334.23  L 2948.23,  334.58  L 2948.74,  334.77  L 2949.28,  334.77  L 2949.79,  334.58  L 2950.20,  334.23  L 2950.47,  333.76  L 2950.56,  333.23  L 2950.47,  332.70  L 2950.20,  332.23  L 2949.79,  331.88  L 2949.28,  331.69  L 2948.74,  331.69  L 2948.23,  331.88  L 2947.81,  332.23  L 2948.21,  332.94  L 2948.21,  333.52  L 2948.58,  333.97  L 2949.15,  334.07  L 2949.66,  333.78  L 2949.86,  333.23  L 2949.66,  332.68  L 2949.15,  332.39  L 2948.58,  332.49  L 2949.01,  333.23 " style="stroke-width: 0.85 ;&st7; " /><path d=" M 2949.01,  617.29  L 2946.17,  614.45  L 2946.17,  618.70  L 2949.01,  621.54  L 2951.84,  618.70  L 2951.84,  614.45  L 2949.01,  617.29 " style="stroke-width: 0.28 ;&st9;" /><path d=" M 2947.81,  298.23  L 2947.54,  298.70  L 2947.45,  299.24  L 2947.54,  299.77  L 2947.81,  300.24  L 2948.23,  300.58  L 2948.74,  300.77  L 2949.28,  300.77  L 2949.79,  300.58  L 2950.20,  300.24  L 2950.47,  299.77  L 2950.56,  299.24  L 2950.47,  298.70  L 2950.20,  298.23  L 2949.79,  297.89  L 2949.28,  297.70  L 2948.74,  297.70  L 2948.23,  297.89  L 2947.81,  298.23  L 2948.21,  298.94  L 2948.21,  299.53  L 2948.58,  299.97  L 2949.15,  300.07  L 2949.66,  299.78  L 2949.86,  299.24  L 2949.66,  298.69  L 2949.15,  298.40  L 2948.58,  298.50  L 2949.01,  299.24 " style="stroke-width: 0.85 ;&st7; " /><path d=" M 2966.00,  600.93  C 2963.66   600.93  2961.76   602.84  2961.76   605.18 " style="stroke-width: 1.42 ;&st7; " /><path d=" M 2961.76,  605.18  C 2961.76   607.53  2963.66   609.43  2966.00   609.43 " style="stroke-width: 1.42 ;&st7; " /><path d=" M 2970.25,  609.43  C 2972.60   609.43  2974.50   607.53  2974.50   605.18 " style="stroke-width: 1.42 ;&st7; " /><path d=" M 2974.50,  605.18  C 2974.50   602.84  2972.60   600.93  2970.25   600.93 " style="stroke-width: 1.42 ;&st7; " /><path d=" M 2974.50,  571.19  C 2974.50   568.84  2972.60   566.94  2970.25   566.94 " style="stroke-width: 1.42 ;&st7; " /><path d=" M 2970.25,  575.44  C 2972.60   575.44  2974.50   573.54  2974.50   571.19 " style="stroke-width: 1.42 ;&st7; " /><path d=" M 2961.76,  571.19  C 2961.76   573.54  2963.66   575.44  2966.00   575.44 " style="stroke-width: 1.42 ;&st7; " /><path d=" M 2966.00,  566.94  C 2963.66   566.94  2961.76   568.84  2961.76   571.19 " style="stroke-width: 1.42 ;&st7; " /><path d=" M 2946.88,  622.18  C 2944.54   622.18  2942.63   624.08  2942.63   626.43 " style="stroke-width: 1.42 ;&st7; " /><path d=" M 2942.63,  626.43  C 2942.63   628.78  2944.54   630.68  2946.88   630.68 " style="stroke-width: 1.42 ;&st7; " /><path d=" M 2951.13,  630.68  C 2953.48   630.68  2955.38   628.78  2955.38   626.43 " style="stroke-width: 1.42 ;&st7; " /><path d=" M 2955.38,  626.43  C 2955.38   624.08  2953.48   622.18  2951.13   622.18 " style="stroke-width: 1.42 ;&st7; " /><text style="&st18;" transform="matrix(&st16;  2762.84  474.01 )">W-B</text><text style="&st18;" transform="matrix(&st16;  2762.84  431.52 )">W-B</text><text style="&st18;" transform="matrix(&st16;  2762.84  355.03 )">W-B</text><text style="&st18;" transform="matrix(&st16;  2762.84  321.03 )">W-B</text><text style="&st18;" transform="matrix(&st16;  2762.84  287.04 )">W-B</text><text style="&st18;" transform="matrix(&st16;  2792.58  100.07 )">W-B</text><text style="&st18;" transform="matrix(&st16;  2792.58  66.08 )">W-B</text><text style="&st18;" transform="matrix(&st16;  2609.86  32.08 )">W-B</text><text style="&st18;" transform="matrix(&st16;  2864.82  66.08 )">W-B</text><text style="&st18;" transform="matrix(&st16;  2762.84  253.05 )">W-B</text><text style="&st18;" transform="matrix(&st16;  2762.84  134.07 )">W-B</text><text style="&st18;" transform="matrix(&st16;  2975.3  32.08 )">W-B</text><text style="&st18;" transform="matrix(&st16;  2975.3  100.07 )">W-B</text><text style="&st18;" transform="matrix(&st16;  2864.82  32.08 )">W-B</text><text style="&st18;" transform="matrix(&st17;  2894.32  408.92 )">W-B</text><text style="&st18;" transform="matrix(&st17;  2860.33  315.43 )">W-B</text><text style="&st18;" transform="matrix(&st17;  2860.33  281.44 )">W-B</text><text style="&st18;" transform="matrix(&st17;  2860.33  204.95 )">W-B</text><text style="&st18;" transform="matrix(&st17;  2894.32  464.16 )">W-B</text><text style="&st18;" transform="matrix(&st17;  2894.32  502.4 )">W-B</text><text style="&st18;" transform="matrix(&st17;  2894.32  536.4 )">W-B</text><text style="&st18;" transform="matrix(&st17;  2894.32  570.39 )">W-B</text><text style="&st18;" transform="matrix(&st16;  2664.99  105.74 )">(UN-)</text><text ewd:textID="191" style="&st18;" transform="matrix(&st16;  2602.29  111.4 )">Un-Lock Warning <tspan dy="6" x="0">Switch Assembly</tspan></text><text style="&st18;" transform="matrix(&st16;  2602.29  104.3 )">H21</text><text style="&st18;" transform="matrix(&st16;  2966.15  563.95 )">7</text><text style="&st18;" transform="matrix(&st16;  2963.33  573.16 )">DE</text><text style="&st18;" transform="matrix(&st16;  2975.3  66.08 )">W-B</text><text style="&st18;" transform="matrix(&st16;  2609.86  660.98 )">W-B</text><text style="&st18;" transform="matrix(&st16;  2558.87  660.98 )">W-B</text><text style="&st18;" transform="matrix(&st16;  2988.05  567.49 )">W-B</text><text style="&st18;" transform="matrix(&st16;  2500.57  522.17 )">(GND)</text><text style="&st18;" transform="matrix(&st16;  2525.8  561.83 )">DLC3</text><text ewd:textID="120" style="&st18;" transform="matrix(&st16;  2525.8  595.82 )">Key Inter Lock <tspan dy="6" x="0">Solenoid</tspan></text><text style="&st18;" transform="matrix(&st16;  2500.57  488.17 )">(FRE)</text><text style="&st18;" transform="matrix(&st16;  2525.8  486.73 )">H68</text><text ewd:textID="58" style="&st18;" transform="matrix(&st16;  2525.8  493.84 )">Differential <tspan dy="6" x="0">Lock Switch</tspan></text><text style="&st18;" transform="matrix(&st16;  2500.57  454.18 )">(E)</text><text style="&st18;" transform="matrix(&st16;  2525.8  452.74 )">H72</text><text ewd:textID="100" style="&st18;" transform="matrix(&st16;  2525.8  459.84 )">Height Control <tspan dy="6" x="0">Switch</tspan></text><text style="&st18;" transform="matrix(&st16;  2525.8  554.72 )">H19</text><text style="&st18;" transform="matrix(&st17;  2766.84  60.48 )">W-B</text><text style="&st18;" transform="matrix(&st16;  2500.57  590.16 )">(KLS-)</text><text style="&st18;" transform="matrix(&st16;  2525.8  588.72 )">H28</text><text style="&st18;" transform="matrix(&st16;  2500.57  556.16 )">(CG)</text><text style="&st18;" transform="matrix(&st16;  2500.57  420.18 )">(ESS)</text><text style="&st18;" transform="matrix(&st16;  2525.8  418.74 )">H6</text><text ewd:textID="176" style="&st18;" transform="matrix(&st16;  2525.8  425.85 )">Steering Sensor</text><text style="&st18;" transform="matrix(&st16;  2500.57  386.19 )">(E)</text><text style="&st18;" transform="matrix(&st16;  2525.8  384.75 )">H17</text><text ewd:textID="53" style="&st18;" transform="matrix(&st16;  2525.8  391.86 )">Cigarette Lighter <tspan dy="6" x="0">Assembly</tspan></text><text style="&st18;" transform="matrix(&st16;  2963.18  607.15 )">DD</text><text style="&st18;" transform="matrix(&st16;  2964.17  597.95 )">30</text><text ewd:textID="133" style="&st18;" transform="matrix(&st16;  2602.29  621.32 )">Outer Mirror Control <tspan dy="6" x="0">ECU Assembly</tspan></text><text style="&st18;" transform="matrix(&st17;  2766.84  94.47 )">W-B</text><text style="&st18;" transform="matrix(&st16;  2663.51  615.65 )">(GND)</text><text style="&st18;" transform="matrix(&st16;  2558.87  32.08 )">W-B</text><text style="&st18;" transform="matrix(&st16;  2602.29  614.21 )">M7</text><text style="&st18;" transform="matrix(&st16;  2988.05  601.49 )">W-B</text><text style="&st18;" transform="matrix(&st16;  2666.26  581.66 )">(LP-)</text><text style="&st18;" transform="matrix(&st16;  2674.88  547.66 )">(-)</text><text style="&st18;" transform="matrix(&st16;  2674.24  513.67 )">(E)</text><text ewd:textID="135" style="&st18;" transform="matrix(&st16;  2602.29  519.33 )">Outer Rear View <tspan dy="6" x="0">Mirror Assembly LH</tspan></text><text style="&st18;" transform="matrix(&st16;  2602.29  512.23 )">M5</text><text style="&st18;" transform="matrix(&st16;  2674.24  479.67 )">(E)</text><text ewd:textID="73" style="&st18;" transform="matrix(&st16;  2602.29  485.34 )">Front Door Lock <tspan dy="6" x="0">Assembly LH</tspan></text><text style="&st18;" transform="matrix(&st16;  2602.29  478.23 )">M4</text><text style="&st18;" transform="matrix(&st16;  2720.34  100.07 )">W-B</text><text style="&st18;" transform="matrix(&st16;  2674.24  437.18 )">(E)</text><text ewd:textID="145" style="&st18;" transform="matrix(&st16;  2602.29  442.85 )">Power Window Regulator <tspan dy="6" x="0">Master Switch Assembly</tspan></text><text style="&st18;" transform="matrix(&st16;  2602.29  435.74 )">M2</text><text style="&st18;" transform="matrix(&st16;  2666.26  360.69 )">(LP-)</text><text style="&st18;" transform="matrix(&st17;  2945.31  77.47 )">W-B</text><text style="&st18;" transform="matrix(&st17;  2945.31  128.46 )">W-B</text><text style="&st18;" transform="matrix(&st16;  2674.24  326.7 )">(E)</text><text style="&st18;" transform="matrix(&st16;  2836.55  96.53 )">5</text><text style="&st18;" transform="matrix(&st16;  2674.88  292.71 )">(-)</text><text ewd:textID="136" style="&st18;" transform="matrix(&st16;  2602.29  298.37 )">Outer Rear View <tspan dy="6" x="0">Mirror Assembly RH</tspan></text><text style="&st18;" transform="matrix(&st16;  2602.29  291.27 )">L6</text><text style="&st18;" transform="matrix(&st16;  2674.24  258.71 )">(E)</text><text ewd:textID="62" style="&st18;" transform="matrix(&st16;  2602.29  264.38 )">Door Control <tspan dy="6" x="0">Switch Assembly</tspan></text><text style="&st18;" transform="matrix(&st16;  2602.29  257.27 )">L5</text><text style="&st18;" transform="matrix(&st16;  2674.24  139.73 )">(E)</text><text ewd:textID="74" style="&st18;" transform="matrix(&st16;  2602.29  145.4 )">Front Door Lock <tspan dy="6" x="0">Assembly RH</tspan></text><text style="&st18;" transform="matrix(&st16;  2602.29  138.29 )">L4</text><text style="&st18;" transform="matrix(&st16;  2836.55  62.54 )">4</text><text style="&st18;" transform="matrix(&st17;  2860.33  128.46 )">W-B</text><text style="&st18;" transform="matrix(&st16;  2762.84  609.99 )">W-B</text><text style="&st18;" transform="matrix(&st16;  2762.84  575.99 )">W-B</text><text style="&st18;" transform="matrix(&st16;  2762.84  542.0 )">W-B</text><text style="&st18;" transform="matrix(&st16;  2975.3  134.07 )">W-B</text><text style="&st18;" transform="matrix(&st16;  2975.3  176.56 )">W-B</text><text style="&st18;" transform="matrix(&st16;  2762.84  508.0 )">W-B</text><text style="&st18;" transform="matrix(&st16;  2663.51  173.73 )">(GND)</text><text ewd:textID="83" style="&st18;" transform="matrix(&st16;  2602.29  179.39 )">Front Power Window <tspan dy="6" x="0">Regulator Switch </tspan><tspan dy="6" x="0">Assembly RH</tspan></text><text style="&st18;" transform="matrix(&st16;  2602.29  172.29 )">L2</text><text style="&st18;" transform="matrix(&st16;  2762.84  168.06 )">W-B</text><text style="&st18;" transform="matrix(&st16;  2762.84  210.55 )">W-B</text><text style="&st18;" transform="matrix(&st16;  2602.29  214.78 )">L3</text><text ewd:textID="82" style="&st18;" transform="matrix(&st16;  2602.29  221.88 )">Front Power Window <tspan dy="6" x="0">Regulator Motor </tspan><tspan dy="6" x="0">Assembly RH</tspan></text><text style="&st18;" transform="matrix(&st16;  2663.51  216.22 )">(GND)</text><text style="&st18;" transform="matrix(&st16;  2663.51  394.69 )">(GND)</text><text ewd:textID="81" style="&st18;" transform="matrix(&st16;  2602.29  400.35 )">Front Power Window <tspan dy="6" x="0">Regulator Motor </tspan><tspan dy="6" x="0">Assembly LH</tspan></text><text style="&st18;" transform="matrix(&st16;  2602.29  393.25 )">M3</text><text style="&st18;" transform="matrix(&st16;  2762.84  389.02 )">W-B</text><text style="&st18;" transform="matrix(&st16;  2975.3  219.05 )">W-B</text><text style="&st18;" transform="matrix(&st16;  2500.57  71.74 )">(GND)</text><text style="&st18;" transform="matrix(&st16;  2525.8  70.3 )">H44</text><text ewd:textID="183" style="&st18;" transform="matrix(&st16;  2525.8  77.41 )">Towing Brake <tspan dy="6" x="0">Controller</tspan></text><text style="&st18;" transform="matrix(&st16;  2500.57  105.74 )">(E1)</text><text style="&st18;" transform="matrix(&st16;  2525.8  104.3 )">H37</text><text ewd:textID="55" style="&st18;" transform="matrix(&st16;  2525.8  111.4 )">Combination <tspan dy="6" x="0">Meter Assembly</tspan></text><text style="&st18;" transform="matrix(&st16;  2500.57  139.73 )">(E)</text><text style="&st18;" transform="matrix(&st16;  2525.8  138.29 )">H29</text><text ewd:textID="192" style="&st18;" transform="matrix(&st16;  2525.8  145.4 )">VSC Off Switch</text><text style="&st18;" transform="matrix(&st16;  2500.57  173.73 )">(E)</text><text style="&st18;" transform="matrix(&st16;  2525.8  172.29 )">H39</text><text ewd:textID="188" style="&st18;" transform="matrix(&st16;  2525.8  179.39 )">Turn Signal <tspan dy="6" x="0">Flasher Assembly</tspan></text><text ewd:textID="144" style="&st18;" transform="matrix(&st16;  2525.8  527.83 )">Power Steering <tspan dy="6" x="0">ECU Assembly</tspan></text><text style="&st18;" transform="matrix(&st16;  2525.8  520.73 )">H117</text><text style="&st18;" transform="matrix(&st16;  2558.87  643.98 )">W-B</text><text style="&st18;" transform="matrix(&st16;  2609.86  643.98 )">W-B</text><text style="&st18;" transform="matrix(&st16;  2890.32  643.98 )">W-B</text><text style="&st18;" transform="matrix(&st16;  2500.57  352.2 )">(-S)</text><text style="&st18;" transform="matrix(&st16;  2525.8  350.76 )">H55</text><text ewd:textID="44" style="&st18;" transform="matrix(&st16;  2525.8  357.86 )">Back Up Light <tspan dy="6" x="0">Relay</tspan></text><text style="&st18;" transform="matrix(&st17;  2945.31  166.71 )">W-B</text><text style="&st18;" transform="matrix(&st16;  2944.06  628.4 )">DD</text><text style="&st18;" transform="matrix(&st16;  2932.36  628.4 )">62</text><text style="&st18;" transform="matrix(&st16;  2500.57  301.2 )">(GND)</text><text style="&st18;" transform="matrix(&st16;  2525.8  299.76 )">H120</text><text ewd:textID="127" style="&st18;" transform="matrix(&st16;  2525.8  306.87 )">Network <tspan dy="6" x="0">Gateway ECU</tspan></text><text style="&st18;" transform="matrix(&st16;  2500.57  267.21 )">(E)</text><text style="&st18;" transform="matrix(&st16;  2525.8  265.77 )">H121</text><text ewd:textID="196" style="&st18;" transform="matrix(&st16;  2525.8  272.88 )">Warning Canceling <tspan dy="6" x="0">Switch Assembly</tspan></text></svg>