﻿<?xml version="1.0" encoding="utf-8"?>
<!DOCTYPE svg PUBLIC "-//W3C//DTD SVG 1.0//EN" "http://www.w3.org/TR/2001/REC-SVG-20010904/DTD/svg10.dtd"[
	<!ENTITY ns_flows "http://ns.adobe.com/Flows/1.0/">
	<!ENTITY ns_svg "http://www.w3.org/2000/svg">
	<!ENTITY ns_xlink "http://www.w3.org/1999/xlink">
	<!ENTITY st0 "font-size:7px;font-family:'MS-PGothic';adobe-font-script:japanese;">
	<!ENTITY st1 "font-size:6px;font-family:'ArialMT';">
	<!-- White fill  -->
	<!ENTITY st2 "fill:#FFFFFF;stroke:#000000; stroke-width:1.41;stroke-linecap:round;stroke-linejoin:round;">
	<!-- Yellow fill  -->
	<!ENTITY st3 "fill:#FFFFCC;stroke:#FFFFCC; stroke-width:0.1;stroke-linecap:round;stroke-linejoin:round;">
	<!-- Gray fill  -->
	<!ENTITY st4 "fill:#CCCCCC;stroke:#CCCCCC; stroke-width:0.1;stroke-linecap:round;stroke-linejoin:round;">
	<!-- Light-blue fill -->
	<!ENTITY st5 "fill:#CCECF4;stroke:#000000; stroke-width:1.133;stroke-linecap:round;stroke-linejoin:round;">
	<!ENTITY st6 "fill:none;stroke-linecap:butt; stroke-linejoin:round;">
	<!ENTITY st7 "fill:none;stroke:#000000;stroke-linecap:round;stroke-linejoin:round;">
	<!ENTITY st8 "enable-background:new    ;">
	<!-- Black fill -->
	<!ENTITY st9 "fill:#000000;stroke:#000000; stroke-linecap:round;stroke-linejoin:round;">
	<!-- SRS note   -->
	<!ENTITY st10 "font-size:9px;font-family:'ArialMT';">
	<!ENTITY st11 "font-size:9px;font-family:'Svg Symbol';">
	<!ENTITY st12 "font-size:6px;font-family:'Svg Symbol';">
	<!ENTITY st13 "fill:none;stroke:#ff0000;stroke-linecap:round;stroke-linejoin:round;">
	<!-- Yellow fill  -->
	<!ENTITY st14 "fill:#FFFF00;stroke:#FFFF00; stroke-width:0.1;stroke-linecap:round;stroke-linejoin:round;">
	<!ENTITY st15 "font-size:6px;font-family:'MS-PGothic';adobe-font-script:japanese;">
	<!ENTITY st16 "1.00 0.00 0.00 1.00">
	<!ENTITY st17 "0.00 -1.00 1.00 0.00">
	<!ENTITY st18 "font-size:6px;font-family:'Arial';">
	<!ENTITY st19 "font-size:9px;font-family:'Arial';">
	<!ENTITY st20 "font-size:6px;font-family:'MS-PGothic','MS PGothic';adobe-font-script:japanese;">
	<!ENTITY st21 "font-size:7px;font-family:'MS-PGothic','MS PGothic';adobe-font-script:japanese;">
	<!ATTLIST svg
		xmlns:ewd CDATA #FIXED "http://shcl.co.jp/ewd"
		xmlns:a CDATA #FIXED "http://ns.adobe.com/AdobeSVGViewerExtensions/3.0/"
		ewd:ver CDATA #IMPLIED
	>
	<!ATTLIST a
		ewd:lineID CDATA #IMPLIED
		ewd:groupID CDATA #IMPLIED
		ewd:figtype CDATA #IMPLIED
		ewd:code CDATA #IMPLIED
		ewd:figID CDATA #IMPLIED
		ewd:pinNo CDATA #IMPLIED
		ewd:comment CDATA #IMPLIED >
	<!ATTLIST g
		ewd:lineID CDATA #IMPLIED
		ewd:groupID CDATA #IMPLIED
		ewd:figtype CDATA #IMPLIED
		ewd:code CDATA #IMPLIED
		ewd:figID CDATA #IMPLIED
		ewd:pinNo CDATA #IMPLIED
		ewd:comment CDATA #IMPLIED >
	<!ATTLIST text
		ewd:textID CDATA #IMPLIED >
	<!ATTLIST title
		ewd:textID CDATA #IMPLIED >
]>
<!-- Generator: Shintec Hozumi YS   -->
<svg onload="call_execInitLoadProc_svg('system')" style="overflow:visible;  enable-background:new 0 0 5180.884 710.000" viewBox="0 0 5180.884 710.000" height="710.000" width="5180.884" xml:space="preserve" ewd:ver="L2.1.2.7" xmlns="&ns_svg;" xmlns:a="http://ns.adobe.com/AdobeSVGViewerExtensions/3.0/" xmlns:ewd="http://shcl.co.jp/ewd" xmlns:xlink="&ns_xlink;">
<path d=" M 3450.42,  277.27  L 3455.40,  282.24 " style="stroke-width: 1.42 ;&st7; " /><path d=" M 3480.17,  235.50  L 3475.92,  235.50 " style="stroke-width: 1.42 ;&st7; " /><path d=" M 3480.17,  243.99  L 3475.92,  243.99 " style="stroke-width: 1.42 ;&st7; " /><path d=" M 3437.68,  235.50  L 3441.92,  235.50 " style="stroke-width: 1.42 ;&st7; " /><path d=" M 3441.92,  243.99  L 3437.68,  243.99 " style="stroke-width: 1.42 ;&st7; " /><path d=" M 3288.95,  499.67  L 3283.98,  494.70 " style="stroke-width: 1.42 ;&st7; " /><path d=" M 3271.95,  506.73  L 3276.92,  511.70 " style="stroke-width: 1.42 ;&st7; " /><path d=" M 3283.98,  511.70  L 3288.95,  506.73 " style="stroke-width: 1.42 ;&st7; " /><path d=" M 3276.92,  494.70  L 3271.95,  499.67 " style="stroke-width: 1.42 ;&st7; " /><path d=" M 3288.95,  389.19  L 3283.98,  384.22 " style="stroke-width: 1.42 ;&st7; " /><path d=" M 3271.95,  396.25  L 3276.92,  401.22 " style="stroke-width: 1.42 ;&st7; " /><path d=" M 3283.98,  401.22  L 3288.95,  396.25 " style="stroke-width: 1.42 ;&st7; " /><path d=" M 3276.92,  384.22  L 3271.95,  389.19 " style="stroke-width: 1.42 ;&st7; " /><path d=" M 3462.45,  282.24  L 3467.42,  277.27 " style="stroke-width: 1.42 ;&st7; " /><path d=" M 3288.95,  355.20  L 3283.98,  350.23 " style="stroke-width: 1.42 ;&st7; " /><path d=" M 3271.95,  362.26  L 3276.92,  367.22 " style="stroke-width: 1.42 ;&st7; " /><path d=" M 3283.98,  367.22  L 3288.95,  362.26 " style="stroke-width: 1.42 ;&st7; " /><path d=" M 3276.92,  350.23  L 3271.95,  355.20 " style="stroke-width: 1.42 ;&st7; " /><path d=" M 3467.42,  270.21  L 3462.45,  265.24 " style="stroke-width: 1.42 ;&st7; " /><path d=" M 3288.95,  321.20  L 3283.98,  316.23 " style="stroke-width: 1.42 ;&st7; " /><path d=" M 3271.95,  328.26  L 3276.92,  333.23 " style="stroke-width: 1.42 ;&st7; " /><path d=" M 3283.98,  333.23  L 3288.95,  328.26 " style="stroke-width: 1.42 ;&st7; " /><path d=" M 3276.92,  316.23  L 3271.95,  321.20 " style="stroke-width: 1.42 ;&st7; " /><path d=" M 3455.40,  265.24  L 3450.42,  270.21 " style="stroke-width: 1.42 ;&st7; " /><path d=" M 3467.42,  304.21  L 3462.45,  299.24 " style="stroke-width: 1.42 ;&st7; " /><path d=" M 3450.42,  311.26  L 3455.40,  316.23 " style="stroke-width: 1.42 ;&st7; " /><path d=" M 3462.45,  316.23  L 3467.42,  311.26 " style="stroke-width: 1.42 ;&st7; " /><path d=" M 3455.40,  299.24  L 3450.42,  304.21 " style="stroke-width: 1.42 ;&st7; " /><path d=" M 3467.42,  346.70  L 3462.45,  341.73 " style="stroke-width: 1.42 ;&st7; " /><path d=" M 3450.42,  353.76  L 3455.40,  358.73 " style="stroke-width: 1.42 ;&st7; " /><path d=" M 3462.45,  358.73  L 3467.42,  353.76 " style="stroke-width: 1.42 ;&st7; " /><path d=" M 3455.40,  341.73  L 3450.42,  346.70 " style="stroke-width: 1.42 ;&st7; " /><path d=" M 3450.42,  426.71  L 3458.92,  426.71 " style="stroke-width: 1.42 ;&st7; " /><path d=" M 3467.42,  380.69  L 3462.45,  375.72 " style="stroke-width: 1.42 ;&st7; " /><path d=" M 3450.42,  387.75  L 3455.40,  392.72 " style="stroke-width: 1.42 ;&st7; " /><path d=" M 3462.45,  392.72  L 3467.42,  387.75 " style="stroke-width: 1.42 ;&st7; " /><path d=" M 3455.40,  375.72  L 3450.42,  380.69 " style="stroke-width: 1.42 ;&st7; " /><path d=" M 3276.92,  282.24  L 3271.95,  287.21 " style="stroke-width: 1.42 ;&st7; " /><path d=" M 3271.95,  294.27  L 3276.92,  299.24 " style="stroke-width: 1.42 ;&st7; " /><path d=" M 3283.98,  299.24  L 3288.95,  294.27 " style="stroke-width: 1.42 ;&st7; " /><path d=" M 3288.95,  287.21  L 3283.98,  282.24 " style="stroke-width: 1.42 ;&st7; " /><path d=" M 3467.42,  465.68  L 3462.45,  460.71 " style="stroke-width: 1.42 ;&st7; " /><path d=" M 3450.42,  472.74  L 3455.40,  477.71 " style="stroke-width: 1.42 ;&st7; " /><path d=" M 3462.45,  477.71  L 3467.42,  472.74 " style="stroke-width: 1.42 ;&st7; " /><path d=" M 3455.40,  460.71  L 3450.42,  465.68 " style="stroke-width: 1.42 ;&st7; " /><path d=" M 3016.99,  214.25  L 3016.99,  239.75  L 3101.98,  239.75  L 3101.98,  214.25  L 3016.99,  214.25 " style="stroke-width: 1.42 ;&st7; " /><path d=" M 3016.99,  494.70  L 3016.99,  554.19  L 3101.98,  554.19  L 3101.98,  494.70  L 3016.99,  494.70 " style="stroke-width: 1.42 ;&st7; " /><path d=" M 3016.99,  596.69  L 3016.99,  622.18  L 3101.98,  622.18  L 3101.98,  596.69  L 3016.99,  596.69 " style="stroke-width: 1.42 ;&st7; " /><path d=" M 3016.99,   95.27  L 3016.99,  120.77  L 3101.98,  120.77  L 3101.98,   95.27  L 3016.99,   95.27 " style="stroke-width: 1.42 ;&st7; " /><path d=" M 3016.99,  562.69  L 3016.99,  588.19  L 3101.98,  588.19  L 3101.98,  562.69  L 3016.99,  562.69 " style="stroke-width: 1.42 ;&st7; " /><path d=" M 3016.99,   27.28  L 3016.99,   52.78  L 3101.98,   52.78  L 3101.98,   27.28  L 3016.99,   27.28 " style="stroke-width: 1.42 ;&st7; " /><path d=" M 3016.99,  129.26  L 3016.99,  163.26  L 3101.98,  163.26  L 3101.98,  129.26  L 3016.99,  129.26 " style="stroke-width: 1.42 ;&st7; " /><path d=" M 3016.99,  171.76  L 3016.99,  205.75  L 3101.98,  205.75  L 3101.98,  171.76  L 3016.99,  171.76 " style="stroke-width: 1.42 ;&st7; " /><path d=" M 3016.99,   61.28  L 3016.99,   86.77  L 3101.98,   86.77  L 3101.98,   61.28  L 3016.99,   61.28 " style="stroke-width: 1.42 ;&st7; " /><path d=" M 3356.94,  231.25  L 3356.94,  511.70  L 3373.93,  511.70  L 3373.93,  231.25  L 3356.94,  231.25 " style="stroke-width: 1.42 ;&st7; " /><path d=" M 3118.98,  282.24  L 3118.98,  341.73  L 3203.96,  341.73  L 3203.96,  282.24  L 3118.98,  282.24 " style="stroke-width: 1.42 ;&st7; " /><path d=" M 3118.98,  350.23  L 3118.98,  375.72  L 3203.96,  375.72  L 3203.96,  350.23  L 3118.98,  350.23 " style="stroke-width: 1.42 ;&st7; " /><path d=" M 3118.98,  384.22  L 3118.98,  409.72  L 3203.96,  409.72  L 3203.96,  384.22  L 3118.98,  384.22 " style="stroke-width: 1.42 ;&st7; " /><path d=" M 3118.98,  460.71  L 3118.98,  486.20  L 3203.96,  486.20  L 3203.96,  460.71  L 3118.98,  460.71 " style="stroke-width: 1.42 ;&st7; " /><path d=" M 3118.98,  494.70  L 3118.98,  520.20  L 3203.96,  520.20  L 3203.96,  494.70  L 3118.98,  494.70 " style="stroke-width: 1.42 ;&st7; " /><path d=" M 3118.98,  528.70  L 3118.98,  554.19  L 3203.96,  554.19  L 3203.96,  528.70  L 3118.98,  528.70 " style="stroke-width: 1.42 ;&st7; " /><path d=" M 3466.77,  239.75  L 3463.94,  236.91  L 3468.19,  236.91  L 3471.02,  239.75  L 3468.19,  242.58  L 3463.94,  242.58  L 3466.77,  239.75 " style="stroke-width: 0.28 ;&st9;" /><path d=" M 3451.07,  239.75  L 3453.90,  236.91  L 3449.65,  236.91  L 3446.82,  239.75  L 3449.65,  242.58  L 3453.90,  242.58  L 3451.07,  239.75 " style="stroke-width: 0.28 ;&st9;" /><path d=" M 3446.17,  239.75  L 3471.67,  239.75 " style="stroke-width: 0.85 ;&st7; " /><path d=" M 3364.24,  272.74  L 3363.97,  273.21  L 3363.88,  273.74  L 3363.97,  274.27  L 3364.24,  274.74  L 3364.66,  275.09  L 3365.17,  275.28  L 3365.71,  275.28  L 3366.22,  275.09  L 3366.63,  274.74  L 3366.90,  274.27  L 3366.99,  273.74  L 3366.90,  273.21  L 3366.63,  272.74  L 3366.22,  272.39  L 3365.71,  272.20  L 3365.17,  272.20  L 3364.66,  272.39  L 3364.24,  272.74  L 3364.64,  273.45  L 3364.64,  274.03  L 3365.01,  274.48  L 3365.58,  274.58  L 3366.09,  274.29  L 3366.29,  273.74  L 3366.09,  273.19  L 3365.58,  272.90  L 3365.01,  273.00  L 3365.44,  273.74 " style="stroke-width: 0.85 ;&st7; " /><path d=" M 3356.94,  503.20  L 3373.93,  503.20 " style="stroke-width: 0.85 ;&st7; " /><path d=" M 3365.44,  273.74  L 3373.93,  273.74 " style="stroke-width: 0.85 ;&st7; " /><path d=" M 3356.94,  392.72  L 3365.44,  392.72 " style="stroke-width: 0.85 ;&st7; " /><path d=" M 3365.44,  511.70  L 3365.44,  239.75  L 3373.93,  239.75 " style="stroke-width: 0.85 ;&st7; " /><path d=" M 3118.98,  418.22  L 3118.98,  443.71  L 3203.96,  443.71  L 3203.96,  418.22  L 3118.98,  418.22 " style="stroke-width: 1.42 ;&st7; " /><path d=" M 3454.67,  417.65  L 3458.92,  421.90  L 3463.17,  417.65 " style="stroke-width: 1.42 ;&st7; " /><path d=" M 3463.17,  421.05  L 3458.92,  425.30  L 3454.67,  421.05 " style="stroke-width: 1.42 ;&st7; " /><path d=" M 3364.24,  502.20  L 3363.97,  502.67  L 3363.88,  503.20  L 3363.97,  503.73  L 3364.24,  504.20  L 3364.66,  504.55  L 3365.17,  504.74  L 3365.71,  504.74  L 3366.22,  504.55  L 3366.63,  504.20  L 3366.90,  503.73  L 3366.99,  503.20  L 3366.90,  502.67  L 3366.63,  502.20  L 3366.22,  501.85  L 3365.71,  501.67  L 3365.17,  501.67  L 3364.66,  501.85  L 3364.24,  502.20  L 3364.64,  502.91  L 3364.64,  503.49  L 3365.01,  503.94  L 3365.58,  504.04  L 3366.09,  503.75  L 3366.29,  503.20  L 3366.09,  502.65  L 3365.58,  502.37  L 3365.01,  502.46  L 3365.44,  503.20 " style="stroke-width: 0.85 ;&st7; " /><path d=" M 3361.19,  704.33  L 3369.69,  704.33 " style="stroke-width: 0.85 ;&st7; " /><path d=" M 3356.94,  701.50  L 3373.93,  701.50 " style="stroke-width: 0.85 ;&st7; " /><path d=" M 3365.44,  697.25  L 3365.44,  701.50 " style="stroke-width: 0.85 ;&st7; " /><path d=" M 3364.24,  391.72  L 3363.97,  392.19  L 3363.88,  392.72  L 3363.97,  393.25  L 3364.24,  393.72  L 3364.66,  394.07  L 3365.17,  394.26  L 3365.71,  394.26  L 3366.22,  394.07  L 3366.63,  393.72  L 3366.90,  393.25  L 3366.99,  392.72  L 3366.90,  392.19  L 3366.63,  391.72  L 3366.22,  391.37  L 3365.71,  391.18  L 3365.17,  391.18  L 3364.66,  391.37  L 3364.24,  391.72  L 3364.64,  392.43  L 3364.64,  393.01  L 3365.01,  393.46  L 3365.58,  393.56  L 3366.09,  393.27  L 3366.29,  392.72  L 3366.09,  392.17  L 3365.58,  391.88  L 3365.01,  391.98  L 3365.44,  392.72 " style="stroke-width: 0.85 ;&st7; " /><path d=" M 3362.60,  707.17  L 3368.27,  707.17 " style="stroke-width: 0.85 ;&st7; " /><path d=" M 3364.02,  710.00  L 3366.85,  710.00 " style="stroke-width: 0.85 ;&st7; " /><path d=" M 3016.99,  460.71  L 3016.99,  486.20  L 3101.98,  486.20  L 3101.98,  460.71  L 3016.99,  460.71 " style="stroke-width: 1.42 ;&st7; " /><path d=" M 3016.99,  426.71  L 3016.99,  452.21  L 3101.98,  452.21  L 3101.98,  426.71  L 3016.99,  426.71 " style="stroke-width: 1.42 ;&st7; " /><path d=" M 3016.99,  392.72  L 3016.99,  418.22  L 3101.98,  418.22  L 3101.98,  392.72  L 3016.99,  392.72 " style="stroke-width: 1.42 ;&st7; " /><path d=" M 3395.18,  576.86  L 3403.68,  576.86 " style="stroke-width: 0.85 ;&st7; " /><path d=" M 3396.60,  579.69  L 3402.26,  579.69 " style="stroke-width: 0.85 ;&st7; " /><path d=" M 3398.01,  582.52  L 3400.85,  582.52 " style="stroke-width: 0.85 ;&st7; " /><path d=" M 3390.93,  574.02  L 3407.93,  574.02 " style="stroke-width: 0.85 ;&st7; " /><path d=" M 3399.43,  569.77  L 3399.43,  574.02 " style="stroke-width: 0.85 ;&st7; " /><path d=" M 3016.99,  358.73  L 3016.99,  384.22  L 3101.98,  384.22  L 3101.98,  358.73  L 3016.99,  358.73 " style="stroke-width: 1.42 ;&st7; " /><path d=" M 3016.99,  324.73  L 3016.99,  350.23  L 3101.98,  350.23  L 3101.98,  324.73  L 3016.99,  324.73 " style="stroke-width: 1.42 ;&st7; " /><path d=" M 3118.98,  239.75  L 3118.98,  265.24  L 3203.96,  265.24  L 3203.96,  239.75  L 3118.98,  239.75 " style="stroke-width: 1.42 ;&st7; " /><path d=" M 3016.99,  256.74  L 3016.99,  282.24  L 3101.98,  282.24  L 3101.98,  256.74  L 3016.99,  256.74 " style="stroke-width: 1.42 ;&st7; " /><path d=" M 3016.99,  290.74  L 3016.99,  316.23  L 3101.98,  316.23  L 3101.98,  290.74  L 3016.99,  290.74 " style="stroke-width: 1.42 ;&st7; " /><path d=" M 3475.92,  235.50  C 3473.57   235.50  3471.67   237.40  3471.67   239.75 " style="stroke-width: 1.42 ;&st7; " /><path d=" M 3471.67,  239.75  C 3471.67   242.09  3473.57   243.99  3475.92   243.99 " style="stroke-width: 1.42 ;&st7; " /><path d=" M 3480.17,  243.99  C 3482.52   243.99  3484.42   242.09  3484.42   239.75 " style="stroke-width: 1.42 ;&st7; " /><path d=" M 3484.42,  239.75  C 3484.42   237.40  3482.52   235.50  3480.17   235.50 " style="stroke-width: 1.42 ;&st7; " /><path d=" M 3437.68,  235.50  C 3435.33   235.50  3433.43   237.40  3433.43   239.75 " style="stroke-width: 1.42 ;&st7; " /><path d=" M 3433.43,  239.75  C 3433.43   242.09  3435.33   243.99  3437.68   243.99 " style="stroke-width: 1.42 ;&st7; " /><path d=" M 3441.92,  243.99  C 3444.27   243.99  3446.17   242.09  3446.17   239.75 " style="stroke-width: 1.42 ;&st7; " /><path d=" M 3446.17,  239.75  C 3446.17   237.40  3444.27   235.50  3441.92   235.50 " style="stroke-width: 1.42 ;&st7; " /><text style="&st18;" transform="matrix(&st16;  3356.25  519.89 )">11</text><text style="&st18;" transform="matrix(&st16;  3376.77  236.05 )">5</text><text style="&st18;" transform="matrix(&st16;  3346.97  389.03 )">12</text><text style="&st18;" transform="matrix(&st16;  3350.15  499.51 )">4</text><text style="&st18;" transform="matrix(&st16;  3376.77  270.05 )">10</text><text style="&st18;" transform="matrix(&st16;  3376.77  499.51 )">13</text><text style="&st18;" transform="matrix(&st16;  3440.93  432.93 )">10</text><text style="&st18;" transform="matrix(&st16;  3018.98  505.17 )">(GND1)</text><text style="&st18;" transform="matrix(&st16;  3077.28  660.98 )">W-B</text><text style="&st18;" transform="matrix(&st16;  3128.28  660.98 )">W-B</text><text style="&st18;" transform="matrix(&st16;  3315.24  499.5 )">W-B</text><text style="&st18;" transform="matrix(&st16;  3230.26  533.5 )">W-B</text><text style="&st18;" transform="matrix(&st16;  3230.26  499.5 )">W-B</text><text style="&st18;" transform="matrix(&st16;  3230.26  465.51 )">W-B</text><text style="&st18;" transform="matrix(&st16;  3230.26  389.02 )">W-B</text><text style="&st18;" transform="matrix(&st16;  3315.24  389.02 )">W-B</text><text style="&st18;" transform="matrix(&st16;  3230.26  355.03 )">W-B</text><text style="&st18;" transform="matrix(&st16;  3230.26  321.03 )">W-B</text><text style="&st18;" transform="matrix(&st16;  3230.26  287.04 )">W-B</text><text style="&st18;" transform="matrix(&st16;  3400.23  236.05 )">W-B</text><text style="&st18;" transform="matrix(&st16;  3400.23  270.04 )">W-B</text><text style="&st18;" transform="matrix(&st16;  3493.71  660.98 )">W-B</text><text style="&st18;" transform="matrix(&st17;  3455.23  336.68 )">W-B</text><text style="&st18;" transform="matrix(&st17;  3455.23  298.44 )">W-B</text><text style="&st18;" transform="matrix(&st17;  3276.76  349.43 )">W-B</text><text style="&st18;" transform="matrix(&st16;  3315.24  660.98 )">W-B</text><text style="&st18;" transform="matrix(&st17;  3276.76  383.42 )">W-B</text><text style="&st18;" transform="matrix(&st17;  3361.74  621.38 )">W-B</text><text style="&st18;" transform="matrix(&st17;  3455.23  374.92 )">W-B</text><text ewd:textID="104" style="&st18;" transform="matrix(&st16;  3044.22  476.84 )">IG1 No.3 Relay</text><text ewd:textID="103" style="&st18;" transform="matrix(&st16;  3044.22  442.85 )">IG1 No.2 Relay</text><text ewd:textID="102" style="&st18;" transform="matrix(&st16;  3044.22  408.85 )">IG1 No.1 Relay</text><text style="&st18;" transform="matrix(&st17;  3395.74  536.4 )">W-B</text><text ewd:textID="137" style="&st18;" transform="matrix(&st16;  3044.22  374.86 )">P/W Relay</text><text style="&st18;" transform="matrix(&st17;  3407.07  534.88 )">(*7)</text><text ewd:textID="33" style="&st18;" transform="matrix(&st16;  3044.22  340.86 )">ACC Relay</text><text style="&st18;" transform="matrix(&st16;  3230.26  244.55 )">W-B</text><text style="&st18;" transform="matrix(&st16;  3192.37  248.8 )">(E)</text><text ewd:textID="139" style="&st18;" transform="matrix(&st16;  3120.7  255.88 )">Pattern Select <tspan dy="6" x="0">Switch Assembly</tspan></text><text style="&st18;" transform="matrix(&st16;  3120.7  248.77 )">H30</text><text style="&st18;" transform="matrix(&st17;  3276.76  315.43 )">W-B</text><text style="&st18;" transform="matrix(&st16;  3230.26  423.02 )">W-B</text><text style="&st18;" transform="matrix(&st17;  3455.23  413.17 )">W-B</text><text ewd:textID="124" style="&st18;" transform="matrix(&st16;  3044.22  510.84 )">Main Body ECU</text><text ewd:textID="49" style="&st18;" transform="matrix(&st16;  3044.22  612.82 )">Center Airbag <tspan dy="6" x="0">Sensor Assembly</tspan></text><text style="&st18;" transform="matrix(&st16;  3044.22  605.71 )">H56</text><text style="&st18;" transform="matrix(&st16;  3018.98  607.15 )">(E1)</text><text style="&st18;" transform="matrix(&st16;  3018.98  539.16 )">(GND2)</text><text ewd:textID="118" style="&st18;" transform="matrix(&st17;  3353.24  369.75 )">Junction Connector</text><text style="&st18;" transform="matrix(&st16;  3018.98  573.16 )">(E)</text><text style="&st18;" transform="matrix(&st16;  3044.22  571.72 )">I22</text><text ewd:textID="35" style="&st18;" transform="matrix(&st16;  3044.22  578.82 )">Accessory <tspan dy="6" x="0">Meter Assembly</tspan></text><text ewd:textID="181" style="&st18;" transform="matrix(&st16;  3044.22  77.41 )">Tire Pressure <tspan dy="6" x="0">Warning ECU</tspan></text><text style="&st18;" transform="matrix(&st16;  3044.22  70.3 )">H40</text><text style="&st18;" transform="matrix(&st16;  3018.98  71.74 )">(GND)</text><text ewd:textID="86" style="&st18;" transform="matrix(&st16;  3044.22  43.41 )">Front Seat Heater <tspan dy="6" x="0">Switch LH</tspan></text><text style="&st18;" transform="matrix(&st16;  3044.22  36.31 )">H47</text><text style="&st18;" transform="matrix(&st16;  3018.98  37.75 )">(E)</text><text ewd:textID="132" style="&st18;" transform="matrix(&st16;  3044.22  187.89 )">Option Connector <tspan dy="6" x="0">(Glass Breakage </tspan><tspan dy="6" x="0">Sensor ECU)</tspan></text><text style="&st18;" transform="matrix(&st16;  3044.22  180.78 )">H64</text><text style="&st18;" transform="matrix(&st16;  3018.98  182.22 )">(GND)</text><text style="&st18;" transform="matrix(&st16;  3018.98  105.74 )">(E)</text><text style="&st18;" transform="matrix(&st16;  3044.22  104.3 )">H48</text><text ewd:textID="87" style="&st18;" transform="matrix(&st16;  3044.22  111.4 )">Front Seat <tspan dy="6" x="0">Heater Switch RH</tspan></text><text style="&st18;" transform="matrix(&st16;  3018.98  139.73 )">(E)</text><text style="&st18;" transform="matrix(&st16;  3044.22  138.29 )">H52</text><text ewd:textID="182" style="&st18;" transform="matrix(&st16;  3044.22  145.4 )">Tire Pressure <tspan dy="6" x="0">Warning Reset </tspan><tspan dy="6" x="0">Switch</tspan></text><text style="&st18;" transform="matrix(&st17;  3346.14  369.75 )">H83</text><text style="&st18;" transform="matrix(&st16;  3188.7  292.71 )">(EL)</text><text ewd:textID="96" style="&st18;" transform="matrix(&st16;  3120.7  298.37 )">Headlight Dimmer <tspan dy="6" x="0">Switch Assembly</tspan></text><text style="&st18;" transform="matrix(&st16;  3120.7  291.27 )">H11</text><text style="&st18;" transform="matrix(&st16;  3183.61  326.7 )">(LFG)</text><text style="&st18;" transform="matrix(&st16;  3192.66  360.69 )">(E)</text><text ewd:textID="186" style="&st18;" transform="matrix(&st16;  3120.7  366.36 )">Transmission <tspan dy="6" x="0">Control Switch</tspan></text><text style="&st18;" transform="matrix(&st16;  3120.7  359.25 )">H31</text><text style="&st18;" transform="matrix(&st16;  3192.66  394.69 )">(E)</text><text ewd:textID="54" style="&st18;" transform="matrix(&st16;  3120.7  400.35 )">Clearance Warning <tspan dy="6" x="0">ECU Assembly</tspan></text><text style="&st18;" transform="matrix(&st16;  3120.7  393.25 )">H128</text><text style="&st18;" transform="matrix(&st16;  3185.95  471.18 )">(EW)</text><text ewd:textID="198" style="&st18;" transform="matrix(&st16;  3120.7  476.84 )">Windshield Wiper <tspan dy="6" x="0">Switch Assembly</tspan></text><text style="&st18;" transform="matrix(&st16;  3120.7  469.74 )">H14</text><text style="&st18;" transform="matrix(&st16;  3192.66  505.17 )">(E)</text><text ewd:textID="171" style="&st18;" transform="matrix(&st16;  3120.7  510.84 )">Shift Lock Control <tspan dy="6" x="0">ECU Sub-Assembly</tspan></text><text style="&st18;" transform="matrix(&st16;  3120.7  503.73 )">H35</text><text style="&st18;" transform="matrix(&st16;  3192.66  539.16 )">(E)</text><text ewd:textID="91" style="&st18;" transform="matrix(&st16;  3120.7  544.83 )">Glove Box Light <tspan dy="6" x="0">Assembly</tspan></text><text style="&st18;" transform="matrix(&st16;  3120.7  537.72 )">H109</text><text style="&st18;" transform="matrix(&st16;  3434.86  241.71 )">DD</text><text style="&st18;" transform="matrix(&st16;  3436.23  232.51 )">16</text><text style="&st18;" transform="matrix(&st16;  3473.1  241.71 )">DD</text><text style="&st18;" transform="matrix(&st16;  3474.09  232.51 )">28</text><text ewd:textID="43" style="&st18;" transform="matrix(&st16;  3120.7  434.35 )">Back Door Power Window <tspan dy="6" x="0">Regulator Switch Assembly</tspan></text><text style="&st18;" transform="matrix(&st16;  3120.7  427.24 )">H9</text><text style="&st18;" transform="matrix(&st16;  3192.66  428.68 )">(E)</text><text ewd:textID="87" style="&st18;" transform="matrix(&st16;  3044.22  230.38 )">Front Seat Heater <tspan dy="6" x="0">Switch RH</tspan></text><text style="&st18;" transform="matrix(&st16;  3044.22  223.28 )">H49</text><text style="&st18;" transform="matrix(&st16;  3018.98  224.72 )">(E)</text><text style="&st18;" transform="matrix(&st17;  3455.23  455.66 )">W-B</text><text ewd:textID="3" style="&st18;" transform="matrix(&st16;  3303.42  71.74 )">* 7 :w/ Seat Position Memory</text><text ewd:textID="5" style="&st18;" transform="matrix(&st16;  3303.42  80.24 )">* 9 :w/ Power Rear No.2 Seat with Stowing Function</text><text ewd:textID="10" style="&st18;" transform="matrix(&st16;  3303.42  88.74 )">*14 :Trailer Socket 4Pin Type</text><text ewd:textID="12" style="&st18;" transform="matrix(&st16;  3303.42  105.74 )">*16 :w/o Seat Position Memory</text><text ewd:textID="13" style="&st18;" transform="matrix(&st16;  3303.42  114.24 )">*17 :10 Way Control</text><text ewd:textID="14" style="&st18;" transform="matrix(&st16;  3303.42  122.73 )">*18 :w/ Climate Control Seat</text><text ewd:textID="106" style="&st18;" transform="matrix(&st16;  3044.22  306.87 )">INVERTER Relay</text><text ewd:textID="19" style="&st18;" transform="matrix(&st16;  3303.42  131.23 )">*24 :w/ Seat Position Memory</text><text ewd:textID="11" style="&st18;" transform="matrix(&st16;  3303.42  97.24 )">*15 :Trailer Socket 4Pin Type and 7Pin Type</text><text ewd:textID="138" style="&st18;" transform="matrix(&st16;  3044.22  272.88 )">POWER OUTLET <tspan dy="6" x="0">Relay</tspan></text><text style="&st18;" transform="matrix(&st16;  3303.42  63.24 )">* 5 :3UR-FBE</text><text ewd:textID="23" style="&st18;" transform="matrix(&st16;  3303.42  139.73 )">*32 :w/ Blind Spot Monitor System</text><text style="&st18;" transform="matrix(&st16;  3303.42  54.75 )">* 4 :3UR-FE</text><text ewd:textID="2" style="&st18;" transform="matrix(&st16;  3303.42  46.25 )">* 3 :w/o Rear Seat Entertainment System</text><text ewd:textID="24" style="&st18;" transform="matrix(&st16;  3303.42  148.23 )">*35 :w/ Dynamic Radar Cruise Control</text></svg>