﻿<?xml version="1.0" encoding="utf-8"?>
<!DOCTYPE svg PUBLIC "-//W3C//DTD SVG 1.0//EN" "http://www.w3.org/TR/2001/REC-SVG-20010904/DTD/svg10.dtd"[
	<!ENTITY ns_flows "http://ns.adobe.com/Flows/1.0/">
	<!ENTITY ns_svg "http://www.w3.org/2000/svg">
	<!ENTITY ns_xlink "http://www.w3.org/1999/xlink">
	<!ENTITY st0 "font-size:7px;font-family:'MS-PGothic';adobe-font-script:japanese;">
	<!ENTITY st1 "font-size:6px;font-family:'ArialMT';">
	<!-- White fill  -->
	<!ENTITY st2 "fill:#FFFFFF;stroke:#000000; stroke-width:1.41;stroke-linecap:round;stroke-linejoin:round;">
	<!-- Yellow fill  -->
	<!ENTITY st3 "fill:#FFFFCC;stroke:#FFFFCC; stroke-width:0.1;stroke-linecap:round;stroke-linejoin:round;">
	<!-- Gray fill  -->
	<!ENTITY st4 "fill:#CCCCCC;stroke:#CCCCCC; stroke-width:0.1;stroke-linecap:round;stroke-linejoin:round;">
	<!-- Light-blue fill -->
	<!ENTITY st5 "fill:#CCECF4;stroke:#000000; stroke-width:1.133;stroke-linecap:round;stroke-linejoin:round;">
	<!ENTITY st6 "fill:none;stroke-linecap:butt; stroke-linejoin:round;">
	<!ENTITY st7 "fill:none;stroke:#000000;stroke-linecap:round;stroke-linejoin:round;">
	<!ENTITY st8 "enable-background:new    ;">
	<!-- Black fill -->
	<!ENTITY st9 "fill:#000000;stroke:#000000; stroke-linecap:round;stroke-linejoin:round;">
	<!-- SRS note   -->
	<!ENTITY st10 "font-size:9px;font-family:'ArialMT';">
	<!ENTITY st11 "font-size:9px;font-family:'Svg Symbol';">
	<!ENTITY st12 "font-size:6px;font-family:'Svg Symbol';">
	<!ENTITY st13 "fill:none;stroke:#ff0000;stroke-linecap:round;stroke-linejoin:round;">
	<!-- Yellow fill  -->
	<!ENTITY st14 "fill:#FFFF00;stroke:#FFFF00; stroke-width:0.1;stroke-linecap:round;stroke-linejoin:round;">
	<!ENTITY st15 "font-size:6px;font-family:'MS-PGothic';adobe-font-script:japanese;">
	<!ENTITY st16 "1.00 0.00 0.00 1.00">
	<!ENTITY st17 "0.00 -1.00 1.00 0.00">
	<!ENTITY st18 "font-size:6px;font-family:'Arial';">
	<!ENTITY st19 "font-size:9px;font-family:'Arial';">
	<!ENTITY st20 "font-size:6px;font-family:'MS-PGothic','MS PGothic';adobe-font-script:japanese;">
	<!ENTITY st21 "font-size:7px;font-family:'MS-PGothic','MS PGothic';adobe-font-script:japanese;">
	<!ATTLIST svg
		xmlns:ewd CDATA #FIXED "http://shcl.co.jp/ewd"
		xmlns:a CDATA #FIXED "http://ns.adobe.com/AdobeSVGViewerExtensions/3.0/"
		ewd:ver CDATA #IMPLIED
	>
	<!ATTLIST a
		ewd:lineID CDATA #IMPLIED
		ewd:groupID CDATA #IMPLIED
		ewd:figtype CDATA #IMPLIED
		ewd:code CDATA #IMPLIED
		ewd:figID CDATA #IMPLIED
		ewd:pinNo CDATA #IMPLIED
		ewd:comment CDATA #IMPLIED >
	<!ATTLIST g
		ewd:lineID CDATA #IMPLIED
		ewd:groupID CDATA #IMPLIED
		ewd:figtype CDATA #IMPLIED
		ewd:code CDATA #IMPLIED
		ewd:figID CDATA #IMPLIED
		ewd:pinNo CDATA #IMPLIED
		ewd:comment CDATA #IMPLIED >
	<!ATTLIST text
		ewd:textID CDATA #IMPLIED >
	<!ATTLIST title
		ewd:textID CDATA #IMPLIED >
]>
<!-- Generator: Shintec Hozumi YS   -->
<svg onload="call_execInitLoadProc_svg('system')" style="overflow:visible;  enable-background:new 0 0 4122.520 710.000" viewBox="0 0 4122.520 710.000" height="710.000" width="4122.520" xml:space="preserve" ewd:ver="L2.1.2.7" xmlns="&ns_svg;" xmlns:a="http://ns.adobe.com/AdobeSVGViewerExtensions/3.0/" xmlns:ewd="http://shcl.co.jp/ewd" xmlns:xlink="&ns_xlink;">
<path d=" M  118.98,  410.28  L  118.98,  460.71 " style="stroke:#000000;stroke-width: 5.10 ;&st6;" /><path d=" M  161.47,  410.28  L  161.47,  460.71 " style="stroke:#FF0000;stroke-width: 5.10 ;&st6;" /><path d=" M  165.72,  520.20  L  157.22,  520.20 " style="stroke-width: 0.85 ;&st7; " /><path d=" M  174.20,  510.54  L  166.84,  514.78 " style="stroke-width: 0.85 ;&st7; " /><path d=" M  168.85,  518.25  L  176.21,  514.00 " style="stroke-width: 0.85 ;&st7; " /><path d=" M  191.22,  520.20  L  182.72,  520.20 " style="stroke-width: 0.85 ;&st7; " /><path d=" M  199.70,  510.54  L  192.34,  514.78 " style="stroke-width: 0.85 ;&st7; " /><path d=" M  194.35,  518.25  L  201.71,  514.00 " style="stroke-width: 0.85 ;&st7; " /><path d=" M  219.84,  518.25  L  227.20,  514.00 " style="stroke-width: 0.85 ;&st7; " /><path d=" M  225.20,  510.54  L  217.84,  514.78 " style="stroke-width: 0.85 ;&st7; " /><path d=" M  216.71,  520.20  L  208.22,  520.20 " style="stroke-width: 0.85 ;&st7; " /><path d=" M  245.34,  518.25  L  252.70,  514.00 " style="stroke-width: 0.85 ;&st7; " /><path d=" M  250.69,  510.54  L  243.33,  514.78 " style="stroke-width: 0.85 ;&st7; " /><path d=" M  242.21,  520.20  L  233.71,  520.20 " style="stroke-width: 0.85 ;&st7; " /><path d=" M  270.83,  518.25  L  278.19,  514.00 " style="stroke-width: 0.85 ;&st7; " /><path d=" M  276.19,  510.54  L  268.83,  514.78 " style="stroke-width: 0.85 ;&st7; " /><path d=" M  267.71,  520.20  L  259.21,  520.20 " style="stroke-width: 0.85 ;&st7; " /><path d=" M  330.32,  518.25  L  337.68,  514.00 " style="stroke-width: 0.85 ;&st7; " /><path d=" M  335.68,  510.54  L  328.32,  514.78 " style="stroke-width: 0.85 ;&st7; " /><path d=" M  327.20,  520.20  L  318.70,  520.20 " style="stroke-width: 0.85 ;&st7; " /><path d=" M  355.82,  518.25  L  363.18,  514.00 " style="stroke-width: 0.85 ;&st7; " /><path d=" M  361.17,  510.54  L  353.81,  514.78 " style="stroke-width: 0.85 ;&st7; " /><path d=" M  352.69,  520.20  L  344.19,  520.20 " style="stroke-width: 0.85 ;&st7; " /><path d=" M  381.31,  518.25  L  388.67,  514.00 " style="stroke-width: 0.85 ;&st7; " /><path d=" M  386.67,  510.54  L  379.31,  514.78 " style="stroke-width: 0.85 ;&st7; " /><path d=" M  378.19,  520.20  L  369.69,  520.20 " style="stroke-width: 0.85 ;&st7; " /><path d=" M  424.93,  282.24  L  424.93,  316.23  L  458.92,  316.23  L  458.92,  282.24  L  424.93,  282.24 " style="stroke-width: 1.42 ;&st7; " /><path d=" M  118.98,  384.22  L  118.98,  401.22 " style="stroke-width: 0.85 ;&st7; " /><path d=" M   84.99,  384.22  L  424.93,  384.22  L  424.93,  401.22  L   84.99,  401.22  L   84.99,  384.22 " style="stroke-width: 1.42 ;&st7; " /><path d=" M  161.47,  384.22  L  161.47,  401.22 " style="stroke-width: 0.85 ;&st7; " /><path d=" M   84.99,  410.28  L   84.99,  562.69  L  424.93,  562.69  L  424.93,  410.28  L   84.99,  410.28 " style="stroke-width: 1.42 ;&st7; " /><path d=" M  152.97,  171.76  L 1767.70,  171.76  L 1767.70,  154.76  L  152.97,  154.76  L  152.97,  171.76 " style="stroke-width: 1.42 ;&st7; " /><path d=" M  441.93,  171.76  L  441.93,  163.26 " style="stroke-width: 0.85 ;&st7; " /><path d=" M  440.73,  162.26  L  440.46,  162.73  L  440.37,  163.26  L  440.46,  163.79  L  440.73,  164.26  L  441.15,  164.61  L  441.65,  164.79  L  442.20,  164.79  L  442.71,  164.61  L  443.12,  164.26  L  443.39,  163.79  L  443.48,  163.26  L  443.39,  162.73  L  443.12,  162.26  L  442.71,  161.91  L  442.20,  161.72  L  441.65,  161.72  L  441.15,  161.91  L  440.73,  162.26  L  441.13,  162.97  L  441.13,  163.55  L  441.50,  163.99  L  442.07,  164.09  L  442.58,  163.80  L  442.78,  163.26  L  442.58,  162.71  L  442.07,  162.42  L  441.50,  162.52  L  441.93,  163.26 " style="stroke-width: 0.85 ;&st7; " /><path d=" M  161.47,  171.76  L  161.47,  163.26  L 1138.81,  163.26 " style="stroke-width: 0.85 ;&st7; " /><path d=" M  386.67,  510.54  L  384.34,  513.58  L  382.87,  511.03  L  386.67,  510.54  L  385.39,  511.27  L  384.40,  512.56  L  383.78,  511.48  L  385.39,  511.27  L  384.75,  511.65  L  384.44,  512.05  L  384.24,  511.71  L  384.75,  511.65 " style="stroke-width: 0.85 ;&st7; " /><path d=" M  101.98,  460.71  L  101.98,  545.69  L  288.95,  545.69  L  288.95,  460.71  L  101.98,  460.71 " style="stroke-width: 1.42 ;&st7; " /><path d=" M  161.47,  511.70  L  161.47,  503.20  L  158.64,  501.78  L  164.31,  498.95  L  158.64,  496.12  L  164.31,  493.29  L  158.64,  490.45  L  164.31,  487.62  L  161.47,  486.20  L  161.47,  477.71 " style="stroke-width: 0.85 ;&st7; " /><path d=" M  373.94,  520.20  L  368.27,  511.70  L  379.60,  511.70  L  373.94,  520.20 " style="stroke-width: 0.28 ;&st9;" /><path d=" M   25.50,  697.25  L   25.50,  701.50 " style="stroke-width: 0.85 ;&st7; " /><path d=" M   17.00,  701.50  L   33.99,  701.50 " style="stroke-width: 0.85 ;&st7; " /><path d=" M   21.25,  704.33  L   29.75,  704.33 " style="stroke-width: 0.85 ;&st7; " /><path d=" M   22.66,  707.17  L   28.33,  707.17 " style="stroke-width: 0.85 ;&st7; " /><path d=" M   24.08,  710.00  L   26.91,  710.00 " style="stroke-width: 0.85 ;&st7; " /><path d=" M   17.00,  622.18  L   33.99,  622.18  L   33.99,  639.18  L   17.00,  639.18  L   17.00,  622.18 " style="stroke-width: 1.42 ;&st7; " /><path d=" M   25.50,  622.18  L   25.50,  639.18 " style="stroke-width: 0.85 ;&st7; " /><path d=" M   17.00,  554.19  L   33.99,  554.19  L   33.99,  571.19  L   17.00,  571.19  L   17.00,  554.19 " style="stroke-width: 1.42 ;&st7; " /><path d=" M   25.50,  554.19  L   25.50,  571.19 " style="stroke-width: 0.85 ;&st7; " /><path d=" M   84.99,  697.25  L   84.99,  701.50 " style="stroke-width: 0.85 ;&st7; " /><path d=" M   76.49,  701.50  L   93.48,  701.50 " style="stroke-width: 0.85 ;&st7; " /><path d=" M   80.74,  704.33  L   89.24,  704.33 " style="stroke-width: 0.85 ;&st7; " /><path d=" M   82.15,  707.17  L   87.82,  707.17 " style="stroke-width: 0.85 ;&st7; " /><path d=" M   83.57,  710.00  L   86.40,  710.00 " style="stroke-width: 0.85 ;&st7; " /><path d=" M   25.50,  630.68  L   33.99,  630.68 " style="stroke-width: 0.85 ;&st7; " /><path d=" M   24.30,  629.68  L   24.03,  630.15  L   23.94,  630.68  L   24.03,  631.21  L   24.30,  631.68  L   24.72,  632.03  L   25.22,  632.22  L   25.77,  632.22  L   26.27,  632.03  L   26.69,  631.68  L   26.96,  631.21  L   27.05,  630.68  L   26.96,  630.15  L   26.69,  629.68  L   26.27,  629.33  L   25.77,  629.14  L   25.22,  629.14  L   24.72,  629.33  L   24.30,  629.68  L   24.70,  630.39  L   24.70,  630.97  L   25.07,  631.42  L   25.64,  631.52  L   26.15,  631.23  L   26.35,  630.68  L   26.15,  630.13  L   25.64,  629.84  L   25.07,  629.94  L   25.50,  630.68 " style="stroke-width: 0.85 ;&st7; " /><path d=" M  373.94,  511.70  L  373.94,  503.20  L  371.10,  501.78  L  376.77,  498.95  L  371.10,  496.12  L  376.77,  493.29  L  371.10,  490.45  L  376.77,  487.62  L  373.94,  486.20  L  373.94,  477.71 " style="stroke-width: 0.85 ;&st7; " /><path d=" M  201.71,  514.00  L  199.37,  517.05  L  197.90,  514.50  L  201.71,  514.00  L  200.42,  514.75  L  199.44,  516.03  L  198.82,  514.95  L  200.42,  514.75  L  199.78,  515.11  L  199.47,  515.52  L  199.28,  515.18  L  199.78,  515.11 " style="stroke-width: 0.85 ;&st7; " /><path d=" M  186.97,  511.70  L  186.97,  503.20  L  184.14,  501.78  L  189.80,  498.95  L  184.14,  496.12  L  189.80,  493.29  L  184.14,  490.45  L  189.80,  487.62  L  186.97,  486.20  L  186.97,  477.71 " style="stroke-width: 0.85 ;&st7; " /><path d=" M  199.70,  510.54  L  197.37,  513.58  L  195.90,  511.03  L  199.70,  510.54  L  198.42,  511.27  L  197.43,  512.56  L  196.82,  511.48  L  198.42,  511.27  L  197.78,  511.65  L  197.47,  512.05  L  197.27,  511.71  L  197.78,  511.65 " style="stroke-width: 0.85 ;&st7; " /><path d=" M  388.67,  514.00  L  386.34,  517.05  L  384.87,  514.50  L  388.67,  514.00  L  387.39,  514.75  L  386.41,  516.03  L  385.79,  514.95  L  387.39,  514.75  L  386.75,  515.11  L  386.44,  515.52  L  386.25,  515.18  L  386.75,  515.11 " style="stroke-width: 0.85 ;&st7; " /><path d=" M  186.97,  520.20  L  181.30,  511.70  L  192.63,  511.70  L  186.97,  520.20 " style="stroke-width: 0.28 ;&st9;" /><path d=" M  161.47,  520.20  L  155.81,  511.70  L  167.14,  511.70  L  161.47,  520.20 " style="stroke-width: 0.28 ;&st9;" /><path d=" M  174.21,  510.54  L  171.87,  513.58  L  170.40,  511.03  L  174.21,  510.54  L  172.92,  511.27  L  171.94,  512.56  L  171.32,  511.48  L  172.92,  511.27  L  172.28,  511.65  L  171.97,  512.05  L  171.78,  511.71  L  172.28,  511.65 " style="stroke-width: 0.85 ;&st7; " /><path d=" M  176.21,  514.00  L  173.88,  517.05  L  172.41,  514.50  L  176.21,  514.00  L  174.93,  514.75  L  173.94,  516.03  L  173.32,  514.95  L  174.93,  514.75  L  174.29,  515.11  L  173.97,  515.52  L  173.78,  515.18  L  174.29,  515.11 " style="stroke-width: 0.85 ;&st7; " /><path d=" M  227.20,  514.00  L  224.87,  517.05  L  223.40,  514.50  L  227.20,  514.00  L  225.92,  514.75  L  224.93,  516.03  L  224.31,  514.95  L  225.92,  514.75  L  225.28,  515.11  L  224.97,  515.52  L  224.77,  515.18  L  225.28,  515.11 " style="stroke-width: 0.85 ;&st7; " /><path d=" M  212.46,  511.70  L  212.46,  503.20  L  209.63,  501.78  L  215.30,  498.95  L  209.63,  496.12  L  215.30,  493.29  L  209.63,  490.45  L  215.30,  487.62  L  212.46,  486.20  L  212.46,  477.71 " style="stroke-width: 0.85 ;&st7; " /><path d=" M  225.20,  510.54  L  222.86,  513.58  L  221.40,  511.03  L  225.20,  510.54  L  223.91,  511.27  L  222.93,  512.56  L  222.31,  511.48  L  223.91,  511.27  L  223.27,  511.65  L  222.96,  512.05  L  222.77,  511.71  L  223.27,  511.65 " style="stroke-width: 0.85 ;&st7; " /><path d=" M  348.44,  520.20  L  342.78,  511.70  L  354.11,  511.70  L  348.44,  520.20 " style="stroke-width: 0.28 ;&st9;" /><path d=" M  361.18,  510.54  L  358.84,  513.58  L  357.37,  511.03  L  361.18,  510.54  L  359.89,  511.27  L  358.91,  512.56  L  358.29,  511.48  L  359.89,  511.27  L  359.25,  511.65  L  358.94,  512.05  L  358.74,  511.71  L  359.25,  511.65 " style="stroke-width: 0.85 ;&st7; " /><path d=" M  212.46,  520.20  L  206.80,  511.70  L  218.13,  511.70  L  212.46,  520.20 " style="stroke-width: 0.28 ;&st9;" /><path d=" M  252.70,  514.00  L  250.36,  517.05  L  248.89,  514.50  L  252.70,  514.00  L  251.41,  514.75  L  250.43,  516.03  L  249.81,  514.95  L  251.41,  514.75  L  250.77,  515.11  L  250.46,  515.52  L  250.27,  515.18  L  250.77,  515.11 " style="stroke-width: 0.85 ;&st7; " /><path d=" M  237.96,  511.70  L  237.96,  503.20  L  235.13,  501.78  L  240.79,  498.95  L  235.13,  496.12  L  240.79,  493.29  L  235.13,  490.45  L  240.79,  487.62  L  237.96,  486.20  L  237.96,  477.71 " style="stroke-width: 0.85 ;&st7; " /><path d=" M  250.69,  510.54  L  248.36,  513.58  L  246.89,  511.03  L  250.69,  510.54  L  249.41,  511.27  L  248.42,  512.56  L  247.81,  511.48  L  249.41,  511.27  L  248.77,  511.65  L  248.46,  512.05  L  248.26,  511.71  L  248.77,  511.65 " style="stroke-width: 0.85 ;&st7; " /><path d=" M  348.44,  511.70  L  348.44,  503.20  L  345.61,  501.78  L  351.27,  498.95  L  345.61,  496.12  L  351.27,  493.29  L  345.61,  490.45  L  351.27,  487.62  L  348.44,  486.20  L  348.44,  477.71 " style="stroke-width: 0.85 ;&st7; " /><path d=" M  363.18,  514.00  L  360.84,  517.05  L  359.38,  514.50  L  363.18,  514.00  L  361.89,  514.75  L  360.91,  516.03  L  360.29,  514.95  L  361.89,  514.75  L  361.25,  515.11  L  360.94,  515.52  L  360.75,  515.18  L  361.25,  515.11 " style="stroke-width: 0.85 ;&st7; " /><path d=" M  237.96,  520.20  L  232.29,  511.70  L  243.63,  511.70  L  237.96,  520.20 " style="stroke-width: 0.28 ;&st9;" /><path d=" M  278.19,  514.00  L  275.86,  517.05  L  274.39,  514.50  L  278.19,  514.00  L  276.91,  514.75  L  275.93,  516.03  L  275.31,  514.95  L  276.91,  514.75  L  276.27,  515.11  L  275.96,  515.52  L  275.76,  515.18  L  276.27,  515.11 " style="stroke-width: 0.85 ;&st7; " /><path d=" M  263.46,  511.70  L  263.46,  503.20  L  260.62,  501.78  L  266.29,  498.95  L  260.62,  496.12  L  266.29,  493.29  L  260.62,  490.45  L  266.29,  487.62  L  263.46,  486.20  L  263.46,  477.71 " style="stroke-width: 0.85 ;&st7; " /><path d=" M  276.19,  510.54  L  273.86,  513.58  L  272.39,  511.03  L  276.19,  510.54  L  274.91,  511.27  L  273.92,  512.56  L  273.30,  511.48  L  274.91,  511.27  L  274.27,  511.65  L  273.95,  512.05  L  273.76,  511.71  L  274.27,  511.65 " style="stroke-width: 0.85 ;&st7; " /><path d=" M  322.95,  520.20  L  317.28,  511.70  L  328.61,  511.70  L  322.95,  520.20 " style="stroke-width: 0.28 ;&st9;" /><path d=" M  263.46,  520.20  L  257.79,  511.70  L  269.12,  511.70  L  263.46,  520.20 " style="stroke-width: 0.28 ;&st9;" /><path d=" M  118.98,  460.71  L  118.98,  537.20  L  288.95,  537.20 " style="stroke-width: 0.85 ;&st7; " /><path d=" M  161.47,  460.71  L  161.47,  477.71 " style="stroke-width: 0.85 ;&st7; " /><path d=" M  161.47,  469.21  L  288.95,  469.21 " style="stroke-width: 0.85 ;&st7; " /><path d=" M  186.97,  469.21  L  186.97,  477.71 " style="stroke-width: 0.85 ;&st7; " /><path d=" M  212.46,  469.21  L  212.46,  477.71 " style="stroke-width: 0.85 ;&st7; " /><path d=" M  237.96,  469.21  L  237.96,  477.71 " style="stroke-width: 0.85 ;&st7; " /><path d=" M  263.46,  469.21  L  263.46,  477.71 " style="stroke-width: 0.85 ;&st7; " /><path d=" M  161.47,  511.70  L  161.47,  537.20 " style="stroke-width: 0.85 ;&st7; " /><path d=" M  186.97,  511.70  L  186.97,  537.20 " style="stroke-width: 0.85 ;&st7; " /><path d=" M  212.46,  511.70  L  212.46,  537.20 " style="stroke-width: 0.85 ;&st7; " /><path d=" M  237.96,  511.70  L  237.96,  537.20 " style="stroke-width: 0.85 ;&st7; " /><path d=" M  263.46,  511.70  L  263.46,  537.20 " style="stroke-width: 0.85 ;&st7; " /><path d=" M  335.68,  510.54  L  333.35,  513.58  L  331.88,  511.03  L  335.68,  510.54  L  334.40,  511.27  L  333.41,  512.56  L  332.79,  511.48  L  334.40,  511.27  L  333.76,  511.65  L  333.44,  512.05  L  333.25,  511.71  L  333.76,  511.65 " style="stroke-width: 0.85 ;&st7; " /><path d=" M  160.28,  468.20  L  160.01,  468.67  L  159.91,  469.21  L  160.01,  469.74  L  160.28,  470.21  L  160.69,  470.56  L  161.20,  470.74  L  161.74,  470.74  L  162.25,  470.56  L  162.67,  470.21  L  162.94,  469.74  L  163.03,  469.21  L  162.94,  468.67  L  162.67,  468.20  L  162.25,  467.86  L  161.74,  467.67  L  161.20,  467.67  L  160.69,  467.86  L  160.28,  468.20  L  160.67,  468.92  L  160.67,  469.50  L  161.05,  469.94  L  161.62,  470.04  L  162.12,  469.75  L  162.32,  469.21  L  162.12,  468.66  L  161.62,  468.37  L  161.05,  468.47  L  161.47,  469.21 " style="stroke-width: 0.85 ;&st7; " /><path d=" M  185.78,  468.20  L  185.50,  468.67  L  185.41,  469.21  L  185.50,  469.74  L  185.78,  470.21  L  186.19,  470.56  L  186.70,  470.74  L  187.24,  470.74  L  187.75,  470.56  L  188.16,  470.21  L  188.43,  469.74  L  188.53,  469.21  L  188.43,  468.67  L  188.16,  468.20  L  187.75,  467.86  L  187.24,  467.67  L  186.70,  467.67  L  186.19,  467.86  L  185.78,  468.20  L  186.17,  468.92  L  186.17,  469.50  L  186.54,  469.94  L  187.12,  470.04  L  187.62,  469.75  L  187.82,  469.21  L  187.62,  468.66  L  187.12,  468.37  L  186.54,  468.47  L  186.97,  469.21 " style="stroke-width: 0.85 ;&st7; " /><path d=" M  322.95,  511.70  L  322.95,  503.20  L  320.11,  501.78  L  325.78,  498.95  L  320.11,  496.12  L  325.78,  493.29  L  320.11,  490.45  L  325.78,  487.62  L  322.95,  486.20  L  322.95,  477.71 " style="stroke-width: 0.85 ;&st7; " /><path d=" M  211.27,  468.20  L  211.00,  468.67  L  210.91,  469.21  L  211.00,  469.74  L  211.27,  470.21  L  211.69,  470.56  L  212.19,  470.74  L  212.74,  470.74  L  213.24,  470.56  L  213.66,  470.21  L  213.93,  469.74  L  214.02,  469.21  L  213.93,  468.67  L  213.66,  468.20  L  213.24,  467.86  L  212.74,  467.67  L  212.19,  467.67  L  211.69,  467.86  L  211.27,  468.20  L  211.67,  468.92  L  211.67,  469.50  L  212.04,  469.94  L  212.61,  470.04  L  213.12,  469.75  L  213.31,  469.21  L  213.12,  468.66  L  212.61,  468.37  L  212.04,  468.47  L  212.46,  469.21 " style="stroke-width: 0.85 ;&st7; " /><path d=" M  337.68,  514.00  L  335.35,  517.05  L  333.88,  514.50  L  337.68,  514.00  L  336.40,  514.75  L  335.42,  516.03  L  334.80,  514.95  L  336.40,  514.75  L  335.76,  515.11  L  335.45,  515.52  L  335.25,  515.18  L  335.76,  515.11 " style="stroke-width: 0.85 ;&st7; " /><path d=" M  236.77,  468.20  L  236.50,  468.67  L  236.40,  469.21  L  236.50,  469.74  L  236.77,  470.21  L  237.18,  470.56  L  237.69,  470.74  L  238.23,  470.74  L  238.74,  470.56  L  239.15,  470.21  L  239.42,  469.74  L  239.52,  469.21  L  239.42,  468.67  L  239.15,  468.20  L  238.74,  467.86  L  238.23,  467.67  L  237.69,  467.67  L  237.18,  467.86  L  236.77,  468.20  L  237.16,  468.92  L  237.16,  469.50  L  237.54,  469.94  L  238.11,  470.04  L  238.61,  469.75  L  238.81,  469.21  L  238.61,  468.66  L  238.11,  468.37  L  237.54,  468.47  L  237.96,  469.21 " style="stroke-width: 0.85 ;&st7; " /><path d=" M  262.26,  468.20  L  261.99,  468.67  L  261.90,  469.21  L  261.99,  469.74  L  262.26,  470.21  L  262.68,  470.56  L  263.18,  470.74  L  263.73,  470.74  L  264.23,  470.56  L  264.65,  470.21  L  264.92,  469.74  L  265.01,  469.21  L  264.92,  468.67  L  264.65,  468.20  L  264.23,  467.86  L  263.73,  467.67  L  263.18,  467.67  L  262.68,  467.86  L  262.26,  468.20  L  262.66,  468.92  L  262.66,  469.50  L  263.03,  469.94  L  263.60,  470.04  L  264.11,  469.75  L  264.31,  469.21  L  264.11,  468.66  L  263.60,  468.37  L  263.03,  468.47  L  263.46,  469.21 " style="stroke-width: 0.85 ;&st7; " /><path d=" M  262.26,  536.19  L  261.99,  536.66  L  261.90,  537.20  L  261.99,  537.73  L  262.26,  538.20  L  262.68,  538.54  L  263.18,  538.73  L  263.73,  538.73  L  264.23,  538.54  L  264.65,  538.20  L  264.92,  537.73  L  265.01,  537.20  L  264.92,  536.66  L  264.65,  536.19  L  264.23,  535.85  L  263.73,  535.66  L  263.18,  535.66  L  262.68,  535.85  L  262.26,  536.19  L  262.66,  536.90  L  262.66,  537.49  L  263.03,  537.93  L  263.60,  538.03  L  264.11,  537.74  L  264.31,  537.20  L  264.11,  536.65  L  263.60,  536.36  L  263.03,  536.46  L  263.46,  537.20 " style="stroke-width: 0.85 ;&st7; " /><path d=" M  305.95,  537.20  L  373.94,  537.20 " style="stroke-width: 0.85 ;&st7; " /><path d=" M  236.77,  536.19  L  236.50,  536.66  L  236.40,  537.20  L  236.50,  537.73  L  236.77,  538.20  L  237.18,  538.54  L  237.69,  538.73  L  238.23,  538.73  L  238.74,  538.54  L  239.15,  538.20  L  239.42,  537.73  L  239.52,  537.20  L  239.42,  536.66  L  239.15,  536.19  L  238.74,  535.85  L  238.23,  535.66  L  237.69,  535.66  L  237.18,  535.85  L  236.77,  536.19  L  237.16,  536.90  L  237.16,  537.49  L  237.54,  537.93  L  238.11,  538.03  L  238.61,  537.74  L  238.81,  537.20  L  238.61,  536.65  L  238.11,  536.36  L  237.54,  536.46  L  237.96,  537.20 " style="stroke-width: 0.85 ;&st7; " /><path d=" M  288.95,  537.20  L  305.95,  537.20 " style="stroke-width: 0.85 ;&st7; " /><path d=" M  211.27,  536.19  L  211.00,  536.66  L  210.91,  537.20  L  211.00,  537.73  L  211.27,  538.20  L  211.69,  538.54  L  212.19,  538.73  L  212.74,  538.73  L  213.24,  538.54  L  213.66,  538.20  L  213.93,  537.73  L  214.02,  537.20  L  213.93,  536.66  L  213.66,  536.19  L  213.24,  535.85  L  212.74,  535.66  L  212.19,  535.66  L  211.69,  535.85  L  211.27,  536.19  L  211.67,  536.90  L  211.67,  537.49  L  212.04,  537.93  L  212.61,  538.03  L  213.12,  537.74  L  213.31,  537.20  L  213.12,  536.65  L  212.61,  536.36  L  212.04,  536.46  L  212.46,  537.20 " style="stroke-width: 0.85 ;&st7; " /><path d=" M  185.78,  536.19  L  185.50,  536.66  L  185.41,  537.20  L  185.50,  537.73  L  185.78,  538.20  L  186.19,  538.54  L  186.70,  538.73  L  187.24,  538.73  L  187.75,  538.54  L  188.16,  538.20  L  188.43,  537.73  L  188.53,  537.20  L  188.43,  536.66  L  188.16,  536.19  L  187.75,  535.85  L  187.24,  535.66  L  186.70,  535.66  L  186.19,  535.85  L  185.78,  536.19  L  186.17,  536.90  L  186.17,  537.49  L  186.54,  537.93  L  187.12,  538.03  L  187.62,  537.74  L  187.82,  537.20  L  187.62,  536.65  L  187.12,  536.36  L  186.54,  536.46  L  186.97,  537.20 " style="stroke-width: 0.85 ;&st7; " /><path d=" M  160.28,  536.19  L  160.01,  536.66  L  159.91,  537.20  L  160.01,  537.73  L  160.28,  538.20  L  160.69,  538.54  L  161.20,  538.73  L  161.74,  538.73  L  162.25,  538.54  L  162.67,  538.20  L  162.94,  537.73  L  163.03,  537.20  L  162.94,  536.66  L  162.67,  536.19  L  162.25,  535.85  L  161.74,  535.66  L  161.20,  535.66  L  160.69,  535.85  L  160.28,  536.19  L  160.67,  536.90  L  160.67,  537.49  L  161.05,  537.93  L  161.62,  538.03  L  162.12,  537.74  L  162.32,  537.20  L  162.12,  536.65  L  161.62,  536.36  L  161.05,  536.46  L  161.47,  537.20 " style="stroke-width: 0.85 ;&st7; " /><path d=" M  322.95,  469.21  L  322.95,  477.71 " style="stroke-width: 0.85 ;&st7; " /><path d=" M  348.44,  469.21  L  348.44,  477.71 " style="stroke-width: 0.85 ;&st7; " /><path d=" M  373.94,  469.21  L  373.94,  477.71 " style="stroke-width: 0.85 ;&st7; " /><path d=" M  322.95,  511.70  L  322.95,  537.20 " style="stroke-width: 0.85 ;&st7; " /><path d=" M  348.44,  511.70  L  348.44,  537.20 " style="stroke-width: 0.85 ;&st7; " /><path d=" M  373.94,  511.70  L  373.94,  537.20 " style="stroke-width: 0.85 ;&st7; " /><path d=" M  321.75,  468.20  L  321.48,  468.67  L  321.39,  469.21  L  321.48,  469.74  L  321.75,  470.21  L  322.17,  470.56  L  322.67,  470.74  L  323.22,  470.74  L  323.72,  470.56  L  324.14,  470.21  L  324.41,  469.74  L  324.50,  469.21  L  324.41,  468.67  L  324.14,  468.20  L  323.72,  467.86  L  323.22,  467.67  L  322.67,  467.67  L  322.17,  467.86  L  321.75,  468.20  L  322.15,  468.92  L  322.15,  469.50  L  322.52,  469.94  L  323.09,  470.04  L  323.60,  469.75  L  323.80,  469.21  L  323.60,  468.66  L  323.09,  468.37  L  322.52,  468.47  L  322.95,  469.21 " style="stroke-width: 0.85 ;&st7; " /><path d=" M  347.25,  468.20  L  346.98,  468.67  L  346.88,  469.21  L  346.98,  469.74  L  347.25,  470.21  L  347.66,  470.56  L  348.17,  470.74  L  348.71,  470.74  L  349.22,  470.56  L  349.63,  470.21  L  349.91,  469.74  L  350.00,  469.21  L  349.91,  468.67  L  349.63,  468.20  L  349.22,  467.86  L  348.71,  467.67  L  348.17,  467.67  L  347.66,  467.86  L  347.25,  468.20  L  347.64,  468.92  L  347.64,  469.50  L  348.02,  469.94  L  348.59,  470.04  L  349.09,  469.75  L  349.29,  469.21  L  349.09,  468.66  L  348.59,  468.37  L  348.02,  468.47  L  348.44,  469.21 " style="stroke-width: 0.85 ;&st7; " /><path d=" M  305.95,  469.21  L  373.94,  469.21 " style="stroke-width: 0.85 ;&st7; " /><path d=" M  305.95,  460.71  L  305.95,  545.69  L  407.93,  545.69  L  407.93,  460.71  L  305.95,  460.71 " style="stroke-width: 1.42 ;&st7; " /><path d=" M  347.25,  536.19  L  346.98,  536.66  L  346.88,  537.20  L  346.98,  537.73  L  347.25,  538.20  L  347.66,  538.54  L  348.17,  538.73  L  348.71,  538.73  L  349.22,  538.54  L  349.63,  538.20  L  349.91,  537.73  L  350.00,  537.20  L  349.91,  536.66  L  349.63,  536.19  L  349.22,  535.85  L  348.71,  535.66  L  348.17,  535.66  L  347.66,  535.85  L  347.25,  536.19  L  347.64,  536.90  L  347.64,  537.49  L  348.02,  537.93  L  348.59,  538.03  L  349.09,  537.74  L  349.29,  537.20  L  349.09,  536.65  L  348.59,  536.36  L  348.02,  536.46  L  348.44,  537.20 " style="stroke-width: 0.85 ;&st7; " /><path d=" M  288.95,  469.21  L  305.95,  469.21 " style="stroke-width: 0.85 ;&st7; " /><path d=" M  321.75,  536.19  L  321.48,  536.66  L  321.39,  537.20  L  321.48,  537.73  L  321.75,  538.20  L  322.17,  538.54  L  322.67,  538.73  L  323.22,  538.73  L  323.72,  538.54  L  324.14,  538.20  L  324.41,  537.73  L  324.50,  537.20  L  324.41,  536.66  L  324.14,  536.19  L  323.72,  535.85  L  323.22,  535.66  L  322.67,  535.66  L  322.17,  535.85  L  321.75,  536.19  L  322.15,  536.90  L  322.15,  537.49  L  322.52,  537.93  L  323.09,  538.03  L  323.60,  537.74  L  323.80,  537.20  L  323.60,  536.65  L  323.09,  536.36  L  322.52,  536.46  L  322.95,  537.20 " style="stroke-width: 0.85 ;&st7; " /><path d=" M  166.01,  379.69  C  166.01   377.19   163.98   375.16   161.47   375.16 " style="stroke-width: 1.42 ;&st7; " /><path d=" M  161.47,  375.16  C  158.97   375.16   156.94   377.19   156.94   379.69 " style="stroke-width: 1.42 ;&st7; " /><path d=" M  156.94,  379.69  C  156.94   382.19   158.97   384.22   161.47   384.22 " style="stroke-width: 1.42 ;&st7; " /><path d=" M  161.47,  384.22  C  163.98   384.22   166.01   382.19   166.01   379.69 " style="stroke-width: 1.42 ;&st7; " /><path d=" M  123.51,  379.69  C  123.51   377.19   121.48   375.16   118.98   375.16 " style="stroke-width: 1.42 ;&st7; " /><path d=" M  118.98,  375.16  C  116.48   375.16   114.45   377.19   114.45   379.69 " style="stroke-width: 1.42 ;&st7; " /><path d=" M  114.45,  379.69  C  114.45   382.19   116.48   384.22   118.98   384.22 " style="stroke-width: 1.42 ;&st7; " /><path d=" M  118.98,  384.22  C  121.48   384.22   123.51   382.19   123.51   379.69 " style="stroke-width: 1.42 ;&st7; " /><path d=" M  166.01,  405.75  C  166.01   403.25   163.98   401.22   161.47   401.22 " style="stroke-width: 1.42 ;&st7; " /><path d=" M  161.47,  401.22  C  158.97   401.22   156.94   403.25   156.94   405.75 " style="stroke-width: 1.42 ;&st7; " /><path d=" M  156.94,  405.75  C  156.94   408.25   158.97   410.28   161.47   410.28 " style="stroke-width: 1.42 ;&st7; " /><path d=" M  161.47,  410.28  C  163.98   410.28   166.01   408.25   166.01   405.75 " style="stroke-width: 1.42 ;&st7; " /><path d=" M  123.51,  405.75  C  123.51   403.25   121.48   401.22   118.98   401.22 " style="stroke-width: 1.42 ;&st7; " /><path d=" M  118.98,  401.22  C  116.48   401.22   114.45   403.25   114.45   405.75 " style="stroke-width: 1.42 ;&st7; " /><path d=" M  114.45,  405.75  C  114.45   408.25   116.48   410.28   118.98   410.28 " style="stroke-width: 1.42 ;&st7; " /><path d=" M  118.98,  410.28  C  121.48   410.28   123.51   408.25   123.51   405.75 " style="stroke-width: 1.42 ;&st7; " /><text style="&st18;" transform="matrix(&st17;  115.29  366.43 )">W-B</text><text style="&st18;" transform="matrix(&st17;  438.23  251.0 )">G</text><text style="&st18;" transform="matrix(&st16;  431.96  324.43 )">12</text><text style="&st18;" transform="matrix(&st16;  434.97  312.54 )">ILL-</text><text style="&st18;" transform="matrix(&st16;  434.97  289.87 )">ILL+</text><text style="&st18;" transform="matrix(&st16;  435.14  278.55 )">7</text><text style="&st18;" transform="matrix(&st16;  90.96  570.3 )">z12(C)</text><text style="&st18;" transform="matrix(&st16;  121.81  392.41 )">EAC</text><text style="&st18;" transform="matrix(&st16;  164.31  392.41 )">IL+2</text><text style="&st18;" transform="matrix(&st16;  116.51  407.72 )">C</text><text style="&st18;" transform="matrix(&st16;  108.1  407.72 )">2</text><text style="&st18;" transform="matrix(&st16;  159.0  407.72 )">C</text><text style="&st18;" transform="matrix(&st16;  150.6  407.72 )">5</text><text style="&st18;" transform="matrix(&st16;  116.65  381.66 )">A</text><text style="&st18;" transform="matrix(&st16;  108.1  381.66 )">9</text><text style="&st18;" transform="matrix(&st16;  159.14  381.66 )">A</text><text style="&st18;" transform="matrix(&st16;  147.42  381.66 )">12</text><text ewd:textID="57" style="&st18;" transform="matrix(&st16;  90.96  577.41 )">Steering Pad Switch Assembly</text><text style="&st18;" transform="matrix(&st16;  154.68  179.95 )">5</text><text ewd:textID="37" style="&st18;" transform="matrix(&st16;  175.95  151.06 )">Junction Connector</text><text style="&st18;" transform="matrix(&st16;  175.95  143.96 )">H123</text><text style="&st18;" transform="matrix(&st16;  435.14  179.95 )">4</text><text style="&st18;" transform="matrix(&st17;  438.23  361.2 )">R</text><text style="&st18;" transform="matrix(&st16;  490.45  542.0 )">R</text><text ewd:textID="35" style="&st18;" transform="matrix(&st17;  473.64  318.76 )">Integration Control <tspan dy="6" x="0">and Panel Assembly</tspan></text><text style="&st18;" transform="matrix(&st17;  466.82  318.76 )">H45</text><text ewd:textID="55" style="&st18;" transform="matrix(&st16;  235.44  380.52 )">Spiral Cable Sub-Assembly</text><text style="&st18;" transform="matrix(&st16;  235.44  373.7 )">H54(A),z12(C)</text><text style="&st18;" transform="matrix(&st16;  15.53  647.37 )">10</text><text style="&st18;" transform="matrix(&st16;  19.48  618.49 )">1</text><text style="&st18;" transform="matrix(&st16;  19.48  579.38 )">1</text><text style="&st18;" transform="matrix(&st16;  18.71  550.5 )">8</text><text ewd:textID="37" style="&st18;" transform="matrix(&st16;  37.14  563.24 )">Junction <tspan dy="6" x="0">Connector</tspan></text><text style="&st18;" transform="matrix(&st16;  37.14  556.14 )">H84</text><text ewd:textID="37" style="&st18;" transform="matrix(&st16;  31.47  653.9 )">Junction <tspan dy="6" x="0">Connector</tspan></text><text style="&st18;" transform="matrix(&st16;  31.47  646.79 )">H85</text><text style="&st18;" transform="matrix(&st17;  157.78  250.57 )">P</text><text style="&st18;" transform="matrix(&st17;  21.8  672.37 )">W-B</text><text style="&st18;" transform="matrix(&st17;  81.29  672.37 )">W-B</text><text style="&st18;" transform="matrix(&st17;  21.8  604.39 )">W-B</text><text style="&st18;" transform="matrix(&st17;  21.8  536.4 )">W-B</text><text style="&st18;" transform="matrix(&st16;  36.83  626.99 )">5</text><text ewd:textID="59" style="&st18;" transform="matrix(&st17;  401.41  534.04 )">Steering Switch RH</text><text ewd:textID="58" style="&st18;" transform="matrix(&st17;  112.46  533.54 )">Steering Switch LH</text><text style="&st18;" transform="matrix(&st17;  115.28  437.54 )">B</text><text style="&st18;" transform="matrix(&st17;  157.78  437.68 )">R</text></svg>