﻿<?xml version="1.0" encoding="utf-8"?>
<!DOCTYPE svg PUBLIC "-//W3C//DTD SVG 1.0//EN" "http://www.w3.org/TR/2001/REC-SVG-20010904/DTD/svg10.dtd"[
	<!ENTITY ns_flows "http://ns.adobe.com/Flows/1.0/">
	<!ENTITY ns_svg "http://www.w3.org/2000/svg">
	<!ENTITY ns_xlink "http://www.w3.org/1999/xlink">
	<!ENTITY st0 "font-size:7px;font-family:'MS-PGothic';adobe-font-script:japanese;">
	<!ENTITY st1 "font-size:6px;font-family:'ArialMT';">
	<!-- White fill  -->
	<!ENTITY st2 "fill:#FFFFFF;stroke:#000000; stroke-width:1.41;stroke-linecap:round;stroke-linejoin:round;">
	<!-- Yellow fill  -->
	<!ENTITY st3 "fill:#FFFFCC;stroke:#FFFFCC; stroke-width:0.1;stroke-linecap:round;stroke-linejoin:round;">
	<!-- Gray fill  -->
	<!ENTITY st4 "fill:#CCCCCC;stroke:#CCCCCC; stroke-width:0.1;stroke-linecap:round;stroke-linejoin:round;">
	<!-- Light-blue fill -->
	<!ENTITY st5 "fill:#CCECF4;stroke:#000000; stroke-width:1.133;stroke-linecap:round;stroke-linejoin:round;">
	<!ENTITY st6 "fill:none;stroke-linecap:butt; stroke-linejoin:round;">
	<!ENTITY st7 "fill:none;stroke:#000000;stroke-linecap:round;stroke-linejoin:round;">
	<!ENTITY st8 "enable-background:new    ;">
	<!-- Black fill -->
	<!ENTITY st9 "fill:#000000;stroke:#000000; stroke-linecap:round;stroke-linejoin:round;">
	<!-- SRS note   -->
	<!ENTITY st10 "font-size:9px;font-family:'ArialMT';">
	<!ENTITY st11 "font-size:9px;font-family:'Svg Symbol';">
	<!ENTITY st12 "font-size:6px;font-family:'Svg Symbol';">
	<!ENTITY st13 "fill:none;stroke:#ff0000;stroke-linecap:round;stroke-linejoin:round;">
	<!-- Yellow fill  -->
	<!ENTITY st14 "fill:#FFFF00;stroke:#FFFF00; stroke-width:0.1;stroke-linecap:round;stroke-linejoin:round;">
	<!ENTITY st15 "font-size:6px;font-family:'MS-PGothic';adobe-font-script:japanese;">
	<!ENTITY st16 "1.00 0.00 0.00 1.00">
	<!ENTITY st17 "0.00 -1.00 1.00 0.00">
	<!ENTITY st18 "font-size:6px;font-family:'Arial';">
	<!ENTITY st19 "font-size:9px;font-family:'Arial';">
	<!ENTITY st20 "font-size:6px;font-family:'MS-PGothic','MS PGothic';adobe-font-script:japanese;">
	<!ENTITY st21 "font-size:7px;font-family:'MS-PGothic','MS PGothic';adobe-font-script:japanese;">
	<!ATTLIST svg
		xmlns:ewd CDATA #FIXED "http://shcl.co.jp/ewd"
		xmlns:a CDATA #FIXED "http://ns.adobe.com/AdobeSVGViewerExtensions/3.0/"
		ewd:ver CDATA #IMPLIED
	>
	<!ATTLIST a
		ewd:lineID CDATA #IMPLIED
		ewd:groupID CDATA #IMPLIED
		ewd:figtype CDATA #IMPLIED
		ewd:code CDATA #IMPLIED
		ewd:figID CDATA #IMPLIED
		ewd:pinNo CDATA #IMPLIED
		ewd:comment CDATA #IMPLIED >
	<!ATTLIST g
		ewd:lineID CDATA #IMPLIED
		ewd:groupID CDATA #IMPLIED
		ewd:figtype CDATA #IMPLIED
		ewd:code CDATA #IMPLIED
		ewd:figID CDATA #IMPLIED
		ewd:pinNo CDATA #IMPLIED
		ewd:comment CDATA #IMPLIED >
	<!ATTLIST text
		ewd:textID CDATA #IMPLIED >
	<!ATTLIST title
		ewd:textID CDATA #IMPLIED >
]>
<!-- Generator: Shintec Hozumi YS   -->
<svg onload="call_execInitLoadProc_svg('system')" style="overflow:visible;  enable-background:new 0 0 3377.946 710.000" viewBox="0 0 3377.946 710.000" height="710.000" width="3377.946" xml:space="preserve" ewd:ver="L2.1.2.7" xmlns="&ns_svg;" xmlns:a="http://ns.adobe.com/AdobeSVGViewerExtensions/3.0/" xmlns:ewd="http://shcl.co.jp/ewd" xmlns:xlink="&ns_xlink;">
<path d=" M 2492.92,  634.93  L 2492.92,  626.43 " style="stroke-width: 1.42 ;&st7; " /><path d=" M 2488.95,  634.93  L 2492.92,  634.93 " style="stroke-width: 1.42 ;&st7; " /><path d=" M 2492.92,  626.43  L 2488.95,  626.43 " style="stroke-width: 1.42 ;&st7; " /><path d=" M 2470.25,  634.93  L 2470.25,  626.43 " style="stroke-width: 1.42 ;&st7; " /><path d=" M 2474.22,  634.93  L 2470.25,  634.93 " style="stroke-width: 1.42 ;&st7; " /><path d=" M 2470.25,  626.43  L 2474.22,  626.43 " style="stroke-width: 1.42 ;&st7; " /><path d=" M 2158.64,  146.26  L 2158.64,  154.76 " style="stroke-width: 0.85 ;&st7; " /><path d=" M 2160.76,  171.76  L 2156.51,  171.76 " style="stroke-width: 1.42 ;&st7; " /><path d=" M 2160.76,  180.26  L 2156.51,  180.26 " style="stroke-width: 1.42 ;&st7; " /><path d=" M 2124.65,  163.26  L 2116.15,  163.26 " style="stroke-width: 1.42 ;&st7; " /><path d=" M 2124.65,  222.75  L 2116.15,  222.75 " style="stroke-width: 1.42 ;&st7; " /><path d=" M 2362.61,  324.73  L 2371.10,  324.73 " style="stroke-width: 1.42 ;&st7; " /><path d=" M 2405.10,  324.73  L 2413.60,  324.73 " style="stroke-width: 1.42 ;&st7; " /><path d=" M 2447.59,  324.73  L 2456.09,  324.73 " style="stroke-width: 1.42 ;&st7; " /><path d=" M 2243.63,  324.73  L 2252.12,  324.73 " style="stroke-width: 1.42 ;&st7; " /><path d=" M 2413.60,  159.01  L 2413.60,  120.77 " style="stroke-width: 0.85 ;&st7; " /><path d=" M 2413.60,  222.75  L 2413.60,  184.50 " style="stroke-width: 0.85 ;&st7; " /><path d=" M 2383.84,  196.09  L 2376.47,  200.34 " style="stroke-width: 0.85 ;&st7; " /><path d=" M 2366.85,  197.25  L 2375.35,  197.25 " style="stroke-width: 0.85 ;&st7; " /><path d=" M 2378.48,  203.80  L 2385.84,  199.56 " style="stroke-width: 0.85 ;&st7; " /><path d=" M 2497.46,  169.81  L 2504.82,  165.56 " style="stroke-width: 0.85 ;&st7; " /><path d=" M 2502.82,  162.09  L 2495.46,  166.34 " style="stroke-width: 0.85 ;&st7; " /><path d=" M 2485.83,  163.26  L 2494.33,  163.26 " style="stroke-width: 0.85 ;&st7; " /><path d=" M 2379.60,  282.24  L 2371.10,  282.24 " style="stroke-width: 1.42 ;&st7; " /><path d=" M 2243.63,  494.70  L 2252.12,  494.70 " style="stroke-width: 1.42 ;&st7; " /><path d=" M 2456.09,  537.20  L 2447.59,  537.20 " style="stroke-width: 1.42 ;&st7; " /><path d=" M 2456.09,  159.01  L 2456.09,  120.77 " style="stroke-width: 0.85 ;&st7; " /><path d=" M 2456.09,  222.75  L 2456.09,  184.50 " style="stroke-width: 0.85 ;&st7; " /><path d=" M 2366.85,  137.76  L 2375.35,  137.76 " style="stroke-width: 0.85 ;&st7; " /><path d=" M 2456.09,  181.67  L 2461.76,  159.01 " style="stroke-width: 1.42 ;&st7; " /><path d=" M 2413.60,  181.67  L 2419.26,  159.01 " style="stroke-width: 1.42 ;&st7; " /><path d=" M 2464.59,  282.24  L 2456.09,  282.24 " style="stroke-width: 1.42 ;&st7; " /><path d=" M 2422.10,  282.24  L 2413.60,  282.24 " style="stroke-width: 1.42 ;&st7; " /><path d=" M 2485.83,  137.76  L 2494.33,  137.76 " style="stroke-width: 0.85 ;&st7; " /><path d=" M 2320.11,  324.73  L 2328.61,  324.73 " style="stroke-width: 1.42 ;&st7; " /><path d=" M 2260.62,  282.24  L 2252.12,  282.24 " style="stroke-width: 1.42 ;&st7; " /><path d=" M 2375.35,  287.90  L 2371.10,  283.65  L 2366.85,  287.90 " style="stroke-width: 1.42 ;&st7; " /><path d=" M 2490.08,  222.75  L 2490.08,  205.75  L 2487.25,  204.33  L 2492.92,  201.50  L 2487.25,  198.67  L 2492.92,  195.84  L 2487.25,  193.00  L 2492.92,  190.17  L 2490.08,  188.75  L 2490.08,  180.26 " style="stroke-width: 0.85 ;&st7; " /><path d=" M 2385.84,  199.56  L 2383.51,  202.60  L 2382.04,  200.06  L 2385.84,  199.56  L 2384.56,  200.30  L 2383.57,  201.58  L 2382.95,  200.51  L 2384.56,  200.30  L 2383.92,  200.67  L 2383.60,  201.07  L 2383.41,  200.73  L 2383.92,  200.67 " style="stroke-width: 0.85 ;&st7; " /><path d=" M 2383.84,  196.09  L 2381.50,  199.13  L 2380.03,  196.59  L 2383.84,  196.09  L 2382.55,  196.83  L 2381.57,  198.11  L 2380.95,  197.04  L 2382.55,  196.83  L 2381.91,  197.20  L 2381.60,  197.60  L 2381.41,  197.26  L 2381.91,  197.20 " style="stroke-width: 0.85 ;&st7; " /><path d=" M 2371.10,  197.25  L 2376.77,  205.75  L 2365.44,  205.75  L 2371.10,  197.25 " style="stroke-width: 0.28 ;&st9;" /><path d=" M 2502.82,  162.09  L 2500.48,  165.13  L 2499.01,  162.59  L 2502.82,  162.09  L 2501.53,  162.83  L 2500.55,  164.12  L 2499.93,  163.04  L 2501.53,  162.83  L 2500.89,  163.20  L 2500.58,  163.61  L 2500.39,  163.27  L 2500.89,  163.20 " style="stroke-width: 0.85 ;&st7; " /><path d=" M 2490.08,  163.26  L 2495.75,  171.76  L 2484.42,  171.76  L 2490.08,  163.26 " style="stroke-width: 0.28 ;&st9;" /><path d=" M 2375.35,  291.30  L 2371.10,  287.05  L 2366.85,  291.30 " style="stroke-width: 1.42 ;&st7; " /><path d=" M 2454.90,  119.76  L 2454.62,  120.23  L 2454.53,  120.77  L 2454.62,  121.30  L 2454.90,  121.77  L 2455.31,  122.11  L 2455.82,  122.30  L 2456.36,  122.30  L 2456.87,  122.11  L 2457.28,  121.77  L 2457.55,  121.30  L 2457.65,  120.77  L 2457.55,  120.23  L 2457.28,  119.76  L 2456.87,  119.42  L 2456.36,  119.23  L 2455.82,  119.23  L 2455.31,  119.42  L 2454.90,  119.76  L 2455.29,  120.47  L 2455.29,  121.06  L 2455.66,  121.50  L 2456.24,  121.60  L 2456.74,  121.31  L 2456.94,  120.77  L 2456.74,  120.22  L 2456.24,  119.93  L 2455.66,  120.03  L 2456.09,  120.77 " style="stroke-width: 0.85 ;&st7; " /><path d=" M 2490.08,  120.77  L 2371.10,  120.77  L 2371.10,  154.76 " style="stroke-width: 0.85 ;&st7; " /><path d=" M 2371.10,  222.75  L 2371.10,  180.26  L 2368.27,  178.84  L 2373.94,  176.01  L 2368.27,  173.17  L 2373.94,  170.34  L 2368.27,  167.51  L 2373.94,  164.67  L 2371.10,  163.26  L 2371.10,  154.76 " style="stroke-width: 0.85 ;&st7; " /><path d=" M 2371.10,  137.76  L 2376.77,  146.26  L 2365.44,  146.26  L 2371.10,  137.76 " style="stroke-width: 0.28 ;&st9;" /><path d=" M 2490.08,  120.77  L 2490.08,  180.26 " style="stroke-width: 0.85 ;&st7; " /><path d=" M 2412.40,  119.76  L 2412.13,  120.23  L 2412.04,  120.77  L 2412.13,  121.30  L 2412.40,  121.77  L 2412.82,  122.11  L 2413.32,  122.30  L 2413.87,  122.30  L 2414.37,  122.11  L 2414.79,  121.77  L 2415.06,  121.30  L 2415.15,  120.77  L 2415.06,  120.23  L 2414.79,  119.76  L 2414.37,  119.42  L 2413.87,  119.23  L 2413.32,  119.23  L 2412.82,  119.42  L 2412.40,  119.76  L 2412.80,  120.47  L 2412.80,  121.06  L 2413.17,  121.50  L 2413.74,  121.60  L 2414.25,  121.31  L 2414.45,  120.77  L 2414.25,  120.22  L 2413.74,  119.93  L 2413.17,  120.03  L 2413.60,  120.77 " style="stroke-width: 0.85 ;&st7; " /><path d=" M 2490.08,  137.76  L 2495.75,  146.26  L 2484.42,  146.26  L 2490.08,  137.76 " style="stroke-width: 0.28 ;&st9;" /><path d=" M 2311.61,  103.77  L 2311.61,  222.75  L 2515.58,  222.75  L 2515.58,  103.77  L 2311.61,  103.77 " style="stroke-width: 1.42 ;&st7; " /><path d=" M 2369.91,  119.76  L 2369.64,  120.23  L 2369.54,  120.77  L 2369.64,  121.30  L 2369.91,  121.77  L 2370.32,  122.11  L 2370.83,  122.30  L 2371.37,  122.30  L 2371.88,  122.11  L 2372.30,  121.77  L 2372.57,  121.30  L 2372.66,  120.77  L 2372.57,  120.23  L 2372.30,  119.76  L 2371.88,  119.42  L 2371.37,  119.23  L 2370.83,  119.23  L 2370.32,  119.42  L 2369.91,  119.76  L 2370.30,  120.47  L 2370.30,  121.06  L 2370.68,  121.50  L 2371.25,  121.60  L 2371.75,  121.31  L 2371.95,  120.77  L 2371.75,  120.22  L 2371.25,  119.93  L 2370.68,  120.03  L 2371.10,  120.77 " style="stroke-width: 0.85 ;&st7; " /><path d=" M 2371.10,  120.77  L 2328.61,  120.77  L 2328.61,  222.75 " style="stroke-width: 0.85 ;&st7; " /><path d=" M 2235.13,  392.72  L 2235.13,  443.71  L 3356.94,  443.71  L 3356.94,  392.72  L 2235.13,  392.72 " style="stroke-width: 1.42 ;&st7; " /><path d=" M 2256.37,  291.30  L 2252.12,  287.05  L 2247.87,  291.30 " style="stroke-width: 1.42 ;&st7; " /><path d=" M 2256.37,  287.90  L 2252.12,  283.65  L 2247.87,  287.90 " style="stroke-width: 1.42 ;&st7; " /><path d=" M 2324.36,  315.67  L 2328.61,  319.92  L 2332.86,  315.67 " style="stroke-width: 1.42 ;&st7; " /><path d=" M 2332.86,  319.07  L 2328.61,  323.31  L 2324.36,  319.07 " style="stroke-width: 1.42 ;&st7; " /><path d=" M 2311.61,  697.25  L 2311.61,  701.50 " style="stroke-width: 0.85 ;&st7; " /><path d=" M 2303.11,  701.50  L 2320.11,  701.50 " style="stroke-width: 0.85 ;&st7; " /><path d=" M 2307.36,  704.33  L 2315.86,  704.33 " style="stroke-width: 0.85 ;&st7; " /><path d=" M 2308.78,  707.17  L 2314.45,  707.17 " style="stroke-width: 0.85 ;&st7; " /><path d=" M 2310.20,  710.00  L 2313.03,  710.00 " style="stroke-width: 0.85 ;&st7; " /><path d=" M 2417.84,  287.90  L 2413.60,  283.65  L 2409.35,  287.90 " style="stroke-width: 1.42 ;&st7; " /><path d=" M 2417.84,  291.30  L 2413.60,  287.05  L 2409.35,  291.30 " style="stroke-width: 1.42 ;&st7; " /><path d=" M 2460.34,  287.90  L 2456.09,  283.65  L 2451.84,  287.90 " style="stroke-width: 1.42 ;&st7; " /><path d=" M 2460.34,  291.30  L 2456.09,  287.05  L 2451.84,  291.30 " style="stroke-width: 1.42 ;&st7; " /><path d=" M 2451.84,  542.86  L 2447.59,  538.61  L 2443.34,  542.86 " style="stroke-width: 1.42 ;&st7; " /><path d=" M 2451.84,  546.26  L 2447.59,  542.01  L 2443.34,  546.26 " style="stroke-width: 1.42 ;&st7; " /><path d=" M 2247.87,  485.64  L 2252.12,  489.89  L 2256.37,  485.64 " style="stroke-width: 1.42 ;&st7; " /><path d=" M 2256.37,  489.04  L 2252.12,  493.29  L 2247.87,  489.04 " style="stroke-width: 1.42 ;&st7; " /><path d=" M 2145.89,  112.27  L 2145.89,  154.76  L 2171.39,  154.76  L 2171.39,  112.27  L 2145.89,  112.27 " style="stroke-width: 1.42 ;&st7; " /><path d=" M 2158.64,  166.86  L 2155.81,  164.03  L 2155.81,  168.28  L 2158.64,  171.11  L 2161.47,  168.28  L 2161.47,  164.03  L 2158.64,  166.86 " style="stroke-width: 0.28 ;&st9;" /><path d=" M 2150.14,  231.25  L 2167.14,  231.25  L 2167.14,  248.24  L 2150.14,  248.24  L 2150.14,  231.25 " style="stroke-width: 1.42 ;&st7; " /><path d=" M 2158.64,  231.25  L 2158.64,  248.24 " style="stroke-width: 0.85 ;&st7; " /><path d=" M 2158.64,  154.76  L 2158.64,  171.76 " style="stroke-width: 0.85 ;&st7; " /><path d=" M 2107.65,  307.73  L 2167.14,  307.73  L 2167.14,  324.73  L 2107.65,  324.73  L 2107.65,  307.73 " style="stroke-width: 1.42 ;&st7; " /><path d=" M 2158.64,  307.73  L 2158.64,  316.23  L 2116.15,  316.23  L 2116.15,  307.73 " style="stroke-width: 0.85 ;&st7; " /><path d=" M 2120.39,  172.32  L 2116.15,  168.07  L 2111.90,  172.32 " style="stroke-width: 1.42 ;&st7; " /><path d=" M 2120.39,  168.92  L 2116.15,  164.67  L 2111.90,  168.92 " style="stroke-width: 1.42 ;&st7; " /><path d=" M 2120.39,  231.81  L 2116.15,  227.56  L 2111.90,  231.81 " style="stroke-width: 1.42 ;&st7; " /><path d=" M 2120.39,  228.41  L 2116.15,  224.16  L 2111.90,  228.41 " style="stroke-width: 1.42 ;&st7; " /><path d=" M 2375.35,  319.07  L 2371.10,  323.31  L 2366.85,  319.07 " style="stroke-width: 1.42 ;&st7; " /><path d=" M 2366.85,  315.67  L 2371.10,  319.92  L 2375.35,  315.67 " style="stroke-width: 1.42 ;&st7; " /><path d=" M 2383.54,  337.48  L 2396.91,  337.48 " style="stroke-width: 0.85 ;&st7;stroke-dasharray:3, 1.5;" /><path d=" M 2426.03,  337.48  L 2439.40,  337.48 " style="stroke-width: 0.85 ;&st7;stroke-dasharray:3, 1.5;" /><path d=" M 2417.84,  319.07  L 2413.60,  323.31  L 2409.35,  319.07 " style="stroke-width: 1.42 ;&st7; " /><path d=" M 2409.35,  315.67  L 2413.60,  319.92  L 2417.84,  315.67 " style="stroke-width: 1.42 ;&st7; " /><path d=" M 2383.54,  328.98  L 2396.91,  328.98 " style="stroke-width: 0.85 ;&st7;stroke-dasharray:3, 1.5;" /><path d=" M 2426.03,  328.98  L 2439.40,  328.98 " style="stroke-width: 0.85 ;&st7;stroke-dasharray:3, 1.5;" /><path d=" M 2460.34,  319.07  L 2456.09,  323.31  L 2451.84,  319.07 " style="stroke-width: 1.42 ;&st7; " /><path d=" M 2451.84,  315.67  L 2456.09,  319.92  L 2460.34,  315.67 " style="stroke-width: 1.42 ;&st7; " /><path d=" M 2256.37,  319.07  L 2252.12,  323.31  L 2247.87,  319.07 " style="stroke-width: 1.42 ;&st7; " /><path d=" M 2247.87,  315.67  L 2252.12,  319.92  L 2256.37,  315.67 " style="stroke-width: 1.42 ;&st7; " /><path d=" M 2316.15,  448.24  C 2316.15   445.74  2314.12   443.71  2311.61   443.71 " style="stroke-width: 1.42 ;&st7; " /><path d=" M 2311.61,  443.71  C 2309.11   443.71  2307.08   445.74  2307.08   448.24 " style="stroke-width: 1.42 ;&st7; " /><path d=" M 2307.08,  448.24  C 2307.08   450.75  2309.11   452.78  2311.61   452.78 " style="stroke-width: 1.42 ;&st7; " /><path d=" M 2311.61,  452.78  C 2314.12   452.78  2316.15   450.75  2316.15   448.24 " style="stroke-width: 1.42 ;&st7; " /><path d=" M 2460.62,  388.19  C 2460.62   385.68  2458.59   383.65  2456.09   383.65 " style="stroke-width: 1.42 ;&st7; " /><path d=" M 2456.09,  383.65  C 2453.59   383.65  2451.56   385.68  2451.56   388.19 " style="stroke-width: 1.42 ;&st7; " /><path d=" M 2451.56,  388.19  C 2451.56   390.69  2453.59   392.72  2456.09   392.72 " style="stroke-width: 1.42 ;&st7; " /><path d=" M 2456.09,  392.72  C 2458.59   392.72  2460.62   390.69  2460.62   388.19 " style="stroke-width: 1.42 ;&st7; " /><path d=" M 2418.13,  388.19  C 2418.13   385.68  2416.10   383.65  2413.60   383.65 " style="stroke-width: 1.42 ;&st7; " /><path d=" M 2413.60,  383.65  C 2411.09   383.65  2409.06   385.68  2409.06   388.19 " style="stroke-width: 1.42 ;&st7; " /><path d=" M 2409.06,  388.19  C 2409.06   390.69  2411.09   392.72  2413.60   392.72 " style="stroke-width: 1.42 ;&st7; " /><path d=" M 2413.60,  392.72  C 2416.10   392.72  2418.13   390.69  2418.13   388.19 " style="stroke-width: 1.42 ;&st7; " /><path d=" M 2256.66,  388.19  C 2256.66   385.68  2254.63   383.65  2252.12   383.65 " style="stroke-width: 1.42 ;&st7; " /><path d=" M 2252.12,  383.65  C 2249.62   383.65  2247.59   385.68  2247.59   388.19 " style="stroke-width: 1.42 ;&st7; " /><path d=" M 2247.59,  388.19  C 2247.59   390.69  2249.62   392.72  2252.12   392.72 " style="stroke-width: 1.42 ;&st7; " /><path d=" M 2252.12,  392.72  C 2254.63   392.72  2256.66   390.69  2256.66   388.19 " style="stroke-width: 1.42 ;&st7; " /><path d=" M 2457.51,  160.43  C 2457.51   159.64  2456.87   159.01  2456.09   159.01 " style="stroke-width: 0.85 ;&st7; " /><path d=" M 2456.09,  159.01  C 2455.31   159.01  2454.67   159.64  2454.67   160.43 " style="stroke-width: 0.85 ;&st7; " /><path d=" M 2454.67,  160.43  C 2454.67   161.21  2455.31   161.84  2456.09   161.84 " style="stroke-width: 0.85 ;&st7; " /><path d=" M 2456.09,  161.84  C 2456.87   161.84  2457.51   161.21  2457.51   160.43 " style="stroke-width: 0.85 ;&st7; " /><path d=" M 2415.01,  183.09  C 2415.01   182.31  2414.38   181.67  2413.60   181.67 " style="stroke-width: 0.85 ;&st7; " /><path d=" M 2413.60,  181.67  C 2412.81   181.67  2412.18   182.31  2412.18   183.09 " style="stroke-width: 0.85 ;&st7; " /><path d=" M 2412.18,  183.09  C 2412.18   183.87  2412.81   184.50  2413.60   184.50 " style="stroke-width: 0.85 ;&st7; " /><path d=" M 2413.60,  184.50  C 2414.38   184.50  2415.01   183.87  2415.01   183.09 " style="stroke-width: 0.85 ;&st7; " /><path d=" M 2415.01,  160.43  C 2415.01   159.64  2414.38   159.01  2413.60   159.01 " style="stroke-width: 0.85 ;&st7; " /><path d=" M 2413.60,  159.01  C 2412.81   159.01  2412.18   159.64  2412.18   160.43 " style="stroke-width: 0.85 ;&st7; " /><path d=" M 2412.18,  160.43  C 2412.18   161.21  2412.81   161.84  2413.60   161.84 " style="stroke-width: 0.85 ;&st7; " /><path d=" M 2413.60,  161.84  C 2414.38   161.84  2415.01   161.21  2415.01   160.43 " style="stroke-width: 0.85 ;&st7; " /><path d=" M 2375.64,  388.19  C 2375.64   385.68  2373.61   383.65  2371.10   383.65 " style="stroke-width: 1.42 ;&st7; " /><path d=" M 2371.10,  383.65  C 2368.60   383.65  2366.57   385.68  2366.57   388.19 " style="stroke-width: 1.42 ;&st7; " /><path d=" M 2366.57,  388.19  C 2366.57   390.69  2368.60   392.72  2371.10   392.72 " style="stroke-width: 1.42 ;&st7; " /><path d=" M 2371.10,  392.72  C 2373.61   392.72  2375.64   390.69  2375.64   388.19 " style="stroke-width: 1.42 ;&st7; " /><path d=" M 2481.59,  639.18  C 2486.28   639.18  2490.08   635.37  2490.08   630.68 " style="stroke-width: 1.42 ;&st7; " /><path d=" M 2490.08,  630.68  C 2490.08   625.99  2486.28   622.18  2481.59   622.18 " style="stroke-width: 1.42 ;&st7; " /><path d=" M 2481.59,  622.18  C 2476.89   622.18  2473.09   625.99  2473.09   630.68 " style="stroke-width: 1.42 ;&st7; " /><path d=" M 2473.09,  630.68  C 2473.09   635.37  2476.89   639.18  2481.59   639.18 " style="stroke-width: 1.42 ;&st7; " /><path d=" M 2158.64,  123.60  C 2155.90   125.21  2154.99   128.74  2156.60   131.48 " style="stroke-width: 1.42 ;&st7; " /><path d=" M 2156.60,  131.48  C 2157.12   132.36  2157.76   132.99  2158.64   133.51 " style="stroke-width: 1.42 ;&st7; " /><path d=" M 2158.64,  143.43  C 2161.38   141.81  2162.29   138.29  2160.68   135.55 " style="stroke-width: 1.42 ;&st7; " /><path d=" M 2160.68,  135.55  C 2160.16   134.67  2159.52   134.03  2158.64   133.51 " style="stroke-width: 1.42 ;&st7; " /><path d=" M 2160.06,  122.18  C 2160.06   121.40  2159.42   120.77  2158.64   120.77 " style="stroke-width: 0.85 ;&st7; " /><path d=" M 2158.64,  120.77  C 2157.86   120.77  2157.22   121.40  2157.22   122.18 " style="stroke-width: 0.85 ;&st7; " /><path d=" M 2157.22,  122.18  C 2157.22   122.96  2157.86   123.60  2158.64   123.60 " style="stroke-width: 0.85 ;&st7; " /><path d=" M 2158.64,  123.60  C 2159.42   123.60  2160.06   122.96  2160.06   122.18 " style="stroke-width: 0.85 ;&st7; " /><path d=" M 2160.06,  144.84  C 2160.06   144.06  2159.42   143.43  2158.64   143.43 " style="stroke-width: 0.85 ;&st7; " /><path d=" M 2158.64,  143.43  C 2157.86   143.43  2157.22   144.06  2157.22   144.84 " style="stroke-width: 0.85 ;&st7; " /><path d=" M 2157.22,  144.84  C 2157.22   145.63  2157.86   146.26  2158.64   146.26 " style="stroke-width: 0.85 ;&st7; " /><path d=" M 2158.64,  146.26  C 2159.42   146.26  2160.06   145.63  2160.06   144.84 " style="stroke-width: 0.85 ;&st7; " /><path d=" M 2156.51,  171.76  C 2154.17   171.76  2152.27   173.66  2152.27   176.01 " style="stroke-width: 1.42 ;&st7; " /><path d=" M 2152.27,  176.01  C 2152.27   178.35  2154.17   180.26  2156.51   180.26 " style="stroke-width: 1.42 ;&st7; " /><path d=" M 2160.76,  180.26  C 2163.11   180.26  2165.01   178.35  2165.01   176.01 " style="stroke-width: 1.42 ;&st7; " /><path d=" M 2165.01,  176.01  C 2165.01   173.66  2163.11   171.76  2160.76   171.76 " style="stroke-width: 1.42 ;&st7; " /><path d=" M 2163.17,  226.71  C 2163.17   224.21  2161.14   222.18  2158.64   222.18 " style="stroke-width: 1.42 ;&st7; " /><path d=" M 2158.64,  222.18  C 2156.14   222.18  2154.11   224.21  2154.11   226.71 " style="stroke-width: 1.42 ;&st7; " /><path d=" M 2154.11,  226.71  C 2154.11   229.22  2156.14   231.25  2158.64   231.25 " style="stroke-width: 1.42 ;&st7; " /><path d=" M 2158.64,  231.25  C 2161.14   231.25  2163.17   229.22  2163.17   226.71 " style="stroke-width: 1.42 ;&st7; " /><path d=" M 2163.17,  252.78  C 2163.17   250.27  2161.14   248.24  2158.64   248.24 " style="stroke-width: 1.42 ;&st7; " /><path d=" M 2158.64,  248.24  C 2156.14   248.24  2154.11   250.27  2154.11   252.78 " style="stroke-width: 1.42 ;&st7; " /><path d=" M 2154.11,  252.78  C 2154.11   255.28  2156.14   257.31  2158.64   257.31 " style="stroke-width: 1.42 ;&st7; " /><path d=" M 2158.64,  257.31  C 2161.14   257.31  2163.17   255.28  2163.17   252.78 " style="stroke-width: 1.42 ;&st7; " /><path d=" M 2163.17,  303.20  C 2163.17   300.70  2161.14   298.67  2158.64   298.67 " style="stroke-width: 1.42 ;&st7; " /><path d=" M 2158.64,  298.67  C 2156.14   298.67  2154.11   300.70  2154.11   303.20 " style="stroke-width: 1.42 ;&st7; " /><path d=" M 2154.11,  303.20  C 2154.11   305.70  2156.14   307.73  2158.64   307.73 " style="stroke-width: 1.42 ;&st7; " /><path d=" M 2158.64,  307.73  C 2161.14   307.73  2163.17   305.70  2163.17   303.20 " style="stroke-width: 1.42 ;&st7; " /><path d=" M 2120.68,  303.20  C 2120.68   300.70  2118.65   298.67  2116.15   298.67 " style="stroke-width: 1.42 ;&st7; " /><path d=" M 2116.15,  298.67  C 2113.64   298.67  2111.61   300.70  2111.61   303.20 " style="stroke-width: 1.42 ;&st7; " /><path d=" M 2111.61,  303.20  C 2111.61   305.70  2113.64   307.73  2116.15   307.73 " style="stroke-width: 1.42 ;&st7; " /><path d=" M 2116.15,  307.73  C 2118.65   307.73  2120.68   305.70  2120.68   303.20 " style="stroke-width: 1.42 ;&st7; " /><path d=" M 2457.51,  183.09  C 2457.51   182.31  2456.87   181.67  2456.09   181.67 " style="stroke-width: 0.85 ;&st7; " /><path d=" M 2456.09,  181.67  C 2455.31   181.67  2454.67   182.31  2454.67   183.09 " style="stroke-width: 0.85 ;&st7; " /><path d=" M 2454.67,  183.09  C 2454.67   183.87  2455.31   184.50  2456.09   184.50 " style="stroke-width: 0.85 ;&st7; " /><path d=" M 2456.09,  184.50  C 2456.87   184.50  2457.51   183.87  2457.51   183.09 " style="stroke-width: 0.85 ;&st7; " /><path d=" M 2256.66,  448.24  C 2256.66   445.74  2254.63   443.71  2252.12   443.71 " style="stroke-width: 1.42 ;&st7; " /><path d=" M 2252.12,  443.71  C 2249.62   443.71  2247.59   445.74  2247.59   448.24 " style="stroke-width: 1.42 ;&st7; " /><path d=" M 2247.59,  448.24  C 2247.59   450.75  2249.62   452.78  2252.12   452.78 " style="stroke-width: 1.42 ;&st7; " /><path d=" M 2252.12,  452.78  C 2254.63   452.78  2256.66   450.75  2256.66   448.24 " style="stroke-width: 1.42 ;&st7; " /><path d=" M 2452.12,  448.24  C 2452.12   445.74  2450.09   443.71  2447.59   443.71 " style="stroke-width: 1.42 ;&st7; " /><path d=" M 2447.59,  443.71  C 2445.09   443.71  2443.06   445.74  2443.06   448.24 " style="stroke-width: 1.42 ;&st7; " /><path d=" M 2443.06,  448.24  C 2443.06   450.75  2445.09   452.78  2447.59   452.78 " style="stroke-width: 1.42 ;&st7; " /><path d=" M 2447.59,  452.78  C 2450.09   452.78  2452.12   450.75  2452.12   448.24 " style="stroke-width: 1.42 ;&st7; " /><path d=" M 2358.64,  448.24  C 2358.64   445.74  2356.61   443.71  2354.11   443.71 " style="stroke-width: 1.42 ;&st7; " /><path d=" M 2354.11,  443.71  C 2351.60   443.71  2349.57   445.74  2349.57   448.24 " style="stroke-width: 1.42 ;&st7; " /><path d=" M 2349.57,  448.24  C 2349.57   450.75  2351.60   452.78  2354.11   452.78 " style="stroke-width: 1.42 ;&st7; " /><path d=" M 2354.11,  452.78  C 2356.61   452.78  2358.64   450.75  2358.64   448.24 " style="stroke-width: 1.42 ;&st7; " /><text style="&st18;" transform="matrix(&st16;  2411.27  390.16 )">B</text><text style="&st18;" transform="matrix(&st16;  2373.94  219.06 )">IND</text><text style="&st18;" transform="matrix(&st16;  2449.3  230.94 )">4</text><text style="&st18;" transform="matrix(&st16;  2406.81  230.94 )">3</text><text style="&st18;" transform="matrix(&st16;  2404.27  400.35 )">FOLD</text><text style="&st18;" transform="matrix(&st16;  2446.55  400.35 )">RTRN</text><text style="&st18;" transform="matrix(&st17;  2452.39  250.57 )">B</text><text style="&st18;" transform="matrix(&st17;  2248.43  474.43 )">GR</text><text style="&st18;" transform="matrix(&st17;  2409.9  250.57 )">P</text><text style="&st18;" transform="matrix(&st16;  2249.79  440.01 )">P</text><text style="&st18;" transform="matrix(&st17;  2409.9  361.06 )">P</text><text style="&st18;" transform="matrix(&st17;  2452.39  361.06 )">B</text><text style="&st18;" transform="matrix(&st16;  2313.8  330.95 )">3</text><text style="&st18;" transform="matrix(&st17;  2248.43  251.0 )">G</text><text style="&st18;" transform="matrix(&st17;  2248.43  361.48 )">G</text><text style="&st18;" transform="matrix(&st16;  2242.52  400.35 )">BDCY</text><text style="&st18;" transform="matrix(&st16;  2249.79  390.16 )">B</text><text style="&st18;" transform="matrix(&st16;  2241.25  390.16 )">5</text><text style="&st18;" transform="matrix(&st16;  2364.31  230.94 )">2</text><text style="&st18;" transform="matrix(&st16;  2237.31  279.96 )">6</text><text style="&st18;" transform="matrix(&st17;  2282.42  251.0 )">G</text><text style="&st18;" transform="matrix(&st16;  2237.31  500.92 )">4</text><text style="&st18;" transform="matrix(&st16;  2237.29  450.21 )">32</text><text style="&st18;" transform="matrix(&st16;  2249.79  450.21 )">B</text><text style="&st18;" transform="matrix(&st17;  2350.41  578.89 )">W-B</text><text style="&st18;" transform="matrix(&st16;  2441.28  279.96 )">9</text><text style="&st18;" transform="matrix(&st16;  2398.78  279.96 )">8</text><text style="&st18;" transform="matrix(&st17;  2248.43  522.53 )">B</text><text style="&st18;" transform="matrix(&st16;  2442.03  390.16 )">15</text><text style="&st18;" transform="matrix(&st16;  2453.76  390.16 )">B</text><text style="&st18;" transform="matrix(&st16;  2399.54  390.16 )">16</text><text ewd:textID="11" style="&st18;" transform="matrix(&st16;  2394.07  424.43 )">Fold Seat Control ECU RH</text><text style="&st18;" transform="matrix(&st16;  2394.07  417.33 )">P19(A),P20(B)</text><text style="&st18;" transform="matrix(&st16;  2045.4  635.48 )">G</text><text style="&st18;" transform="matrix(&st16;  2045.4  652.48 )">G</text><text style="&st18;" transform="matrix(&st16;  2096.39  635.48 )">G</text><text style="&st18;" transform="matrix(&st16;  2096.39  652.48 )">G</text><text style="&st18;" transform="matrix(&st16;  2175.94  132.66 )">7.5A <tspan dy="6" x="0">LH-IG</tspan></text><text style="&st18;" transform="matrix(&st16;  2153.69  177.98 )">DD</text><text style="&st18;" transform="matrix(&st16;  2141.99  177.98 )">55</text><text style="&st18;" transform="matrix(&st16;  2152.56  108.57 )">(IG)</text><text style="&st18;" transform="matrix(&st16;  2156.31  228.68 )">A</text><text style="&st18;" transform="matrix(&st16;  2144.58  228.68 )">10</text><text style="&st18;" transform="matrix(&st16;  2156.31  254.75 )">A</text><text style="&st18;" transform="matrix(&st16;  2145.36  254.75 )">11</text><text ewd:textID="14" style="&st18;" transform="matrix(&st17;  2181.86  250.77 )">Junction <tspan dy="6" x="0">Connector</tspan></text><text style="&st18;" transform="matrix(&st17;  2174.75  250.77 )">H77(A)</text><text style="&st18;" transform="matrix(&st17;  2154.94  210.41 )">SB</text><text style="&st18;" transform="matrix(&st17;  2154.94  276.07 )">B</text><text style="&st18;" transform="matrix(&st16;  2156.31  305.17 )">B</text><text style="&st18;" transform="matrix(&st16;  2144.58  305.17 )">21</text><text style="&st18;" transform="matrix(&st17;  2112.45  191.51 )">G</text><text style="&st18;" transform="matrix(&st16;  2113.82  305.17 )">B</text><text style="&st18;" transform="matrix(&st16;  2101.31  305.17 )">22</text><text style="&st18;" transform="matrix(&st16;  2101.33  160.98 )">4</text><text style="&st18;" transform="matrix(&st16;  2098.15  220.47 )">10</text><text style="&st18;" transform="matrix(&st17;  2112.45  276.49 )">G</text><text ewd:textID="14" style="&st18;" transform="matrix(&st16;  2113.62  339.45 )">Junction <tspan dy="6" x="0">Connector</tspan></text><text style="&st18;" transform="matrix(&st16;  2113.62  332.34 )">H80(B)</text><text style="&st18;" transform="matrix(&st16;  2045.4  91.57 )">G</text><text style="&st18;" transform="matrix(&st16;  2096.39  91.57 )">G</text><text style="&st18;" transform="matrix(&st16;  2045.83  669.48 )">B</text><text style="&st18;" transform="matrix(&st16;  2096.82  669.48 )">B</text><text style="&st18;" transform="matrix(&st16;  2043.35  40.58 )">BR</text><text style="&st18;" transform="matrix(&st16;  2096.39  74.58 )">G</text><text style="&st18;" transform="matrix(&st16;  2045.4  74.58 )">G</text><text style="&st18;" transform="matrix(&st16;  2044.8  23.58 )">W</text><text style="&st18;" transform="matrix(&st16;  2095.79  23.58 )">W</text><text style="&st18;" transform="matrix(&st16;  2094.35  40.58 )">BR</text><text style="&st18;" transform="matrix(&st16;  2096.82  57.58 )">Y</text><text style="&st18;" transform="matrix(&st16;  2045.83  57.58 )">Y</text><text ewd:textID="14" style="&st18;" transform="matrix(&st17;  2028.88  539.72 )">Junction <tspan dy="6" x="0">Connector</tspan></text><text style="&st18;" transform="matrix(&st17;  2021.77  539.72 )">H118</text><text style="&st18;" transform="matrix(&st16;  2344.43  440.01 )">GND2</text><text style="&st18;" transform="matrix(&st16;  2303.91  440.01 )">GND</text><text style="&st18;" transform="matrix(&st16;  2351.78  450.21 )">A</text><text style="&st18;" transform="matrix(&st16;  2437.49  450.21 )">1</text><text style="&st18;" transform="matrix(&st16;  2445.26  450.21 )">A</text><text style="&st18;" transform="matrix(&st16;  2433.55  534.92 )">1</text><text ewd:textID="9" style="&st18;" transform="matrix(&st16;  2462.06  653.9 )">Fold Motor RH</text><text style="&st18;" transform="matrix(&st16;  2462.06  646.79 )">Y3</text><text style="&st18;" transform="matrix(&st16;  2439.01  440.01 )">FLD+</text><text style="&st18;" transform="matrix(&st17;  2443.9  573.66 )">R</text><text style="&st18;" transform="matrix(&st17;  2443.9  488.96 )">G</text><text style="&st18;" transform="matrix(&st17;  2324.92  252.91 )">SB</text><text style="&st18;" transform="matrix(&st16;  2343.23  450.21 )">9</text><text style="&st18;" transform="matrix(&st16;  2309.28  450.21 )">A</text><text style="&st18;" transform="matrix(&st16;  2300.74  450.21 )">8</text><text style="&st18;" transform="matrix(&st17;  2307.92  578.89 )">W-B</text><text style="&st18;" transform="matrix(&st17;  2409.9  305.82 )">P</text><text style="&st18;" transform="matrix(&st17;  2452.39  305.82 )">B</text><text style="&st18;" transform="matrix(&st17;  2248.43  306.24 )">G</text><text style="&st18;" transform="matrix(&st16;  2321.82  230.94 )">5</text><text style="&st18;" transform="matrix(&st16;  2484.07  230.94 )">1</text><text style="&st18;" transform="matrix(&st16;  2458.92  219.06 )">RTRN</text><text style="&st18;" transform="matrix(&st16;  2416.43  219.06 )">FOLD</text><text style="&st18;" transform="matrix(&st16;  2331.44  219.06 )">E</text><text style="&st18;" transform="matrix(&st16;  2492.92  219.06 )">+B</text><text style="&st18;" transform="matrix(&st16;  2356.29  279.96 )">7</text><text style="&st18;" transform="matrix(&st16;  2356.27  390.16 )">35</text><text style="&st18;" transform="matrix(&st16;  2368.77  390.16 )">B</text><text style="&st18;" transform="matrix(&st16;  2363.58  400.35 )">IND1</text><text style="&st18;" transform="matrix(&st17;  2367.41  250.22 )">L</text><text style="&st18;" transform="matrix(&st17;  2367.41  360.7 )">L</text><text style="&st18;" transform="matrix(&st17;  2367.41  305.46 )">L</text><text style="&st18;" transform="matrix(&st17;  2486.39  253.05 )">BR</text><text style="&st18;" transform="matrix(&st16;  2478.69  632.65 )">M</text><text style="&st18;" transform="matrix(&st16;  2464.24  626.99 )">1</text><text style="&st18;" transform="matrix(&st16;  2495.75  626.99 )">2</text><text ewd:textID="16" style="&st18;" transform="matrix(&st17;  2011.88  301.76 )">Park/Neutral Position <tspan dy="6" x="0">Switch Assembly</tspan></text><text style="&st18;" transform="matrix(&st17;  2004.78  301.76 )">D21</text><text style="&st18;" transform="matrix(&st17;  2001.97  590.52 )">B</text><text style="&st18;" transform="matrix(&st16;  2356.29  339.45 )">5</text><text style="&st18;" transform="matrix(&st16;  2356.29  330.95 )">2</text><text style="&st18;" transform="matrix(&st16;  2398.78  339.45 )">6</text><text style="&st18;" transform="matrix(&st16;  2398.78  330.95 )">3</text><text style="&st18;" transform="matrix(&st16;  2466.0  339.45 )">(*1)</text><text style="&st18;" transform="matrix(&st16;  2466.0  330.95 )">(*2)</text><text style="&st18;" transform="matrix(&st16;  2441.28  339.45 )">7</text><text style="&st18;" transform="matrix(&st16;  2441.28  330.95 )">4</text><text style="&st18;" transform="matrix(&st16;  2262.04  339.45 )">(*1)</text><text style="&st18;" transform="matrix(&st16;  2262.04  330.95 )">(*2)</text><text style="&st18;" transform="matrix(&st16;  2234.13  339.45 )">14</text><text style="&st18;" transform="matrix(&st16;  2237.31  330.95 )">6</text><text ewd:textID="2" style="&st18;" transform="matrix(&st16;  2411.07  683.64 )">* 2 :w/o Blind Spot Monitor System</text><text ewd:textID="1" style="&st18;" transform="matrix(&st16;  2411.07  675.14 )">* 1 :w/ Blind Spot Monitor System</text></svg>