﻿<?xml version="1.0" encoding="utf-8"?>
<!DOCTYPE svg PUBLIC "-//W3C//DTD SVG 1.0//EN" "http://www.w3.org/TR/2001/REC-SVG-20010904/DTD/svg10.dtd"[
	<!ENTITY ns_flows "http://ns.adobe.com/Flows/1.0/">
	<!ENTITY ns_svg "http://www.w3.org/2000/svg">
	<!ENTITY ns_xlink "http://www.w3.org/1999/xlink">
	<!ENTITY st0 "font-size:7px;font-family:'MS-PGothic';adobe-font-script:japanese;">
	<!ENTITY st1 "font-size:6px;font-family:'ArialMT';">
	<!-- White fill  -->
	<!ENTITY st2 "fill:#FFFFFF;stroke:#000000; stroke-width:1.41;stroke-linecap:round;stroke-linejoin:round;">
	<!-- Yellow fill  -->
	<!ENTITY st3 "fill:#FFFFCC;stroke:#FFFFCC; stroke-width:0.1;stroke-linecap:round;stroke-linejoin:round;">
	<!-- Gray fill  -->
	<!ENTITY st4 "fill:#CCCCCC;stroke:#CCCCCC; stroke-width:0.1;stroke-linecap:round;stroke-linejoin:round;">
	<!-- Light-blue fill -->
	<!ENTITY st5 "fill:#CCECF4;stroke:#000000; stroke-width:1.133;stroke-linecap:round;stroke-linejoin:round;">
	<!ENTITY st6 "fill:none;stroke-linecap:butt; stroke-linejoin:round;">
	<!ENTITY st7 "fill:none;stroke:#000000;stroke-linecap:round;stroke-linejoin:round;">
	<!ENTITY st8 "enable-background:new    ;">
	<!-- Black fill -->
	<!ENTITY st9 "fill:#000000;stroke:#000000; stroke-linecap:round;stroke-linejoin:round;">
	<!-- SRS note   -->
	<!ENTITY st10 "font-size:9px;font-family:'ArialMT';">
	<!ENTITY st11 "font-size:9px;font-family:'Svg Symbol';">
	<!ENTITY st12 "font-size:6px;font-family:'Svg Symbol';">
	<!ENTITY st13 "fill:none;stroke:#ff0000;stroke-linecap:round;stroke-linejoin:round;">
	<!-- Yellow fill  -->
	<!ENTITY st14 "fill:#FFFF00;stroke:#FFFF00; stroke-width:0.1;stroke-linecap:round;stroke-linejoin:round;">
	<!ENTITY st15 "font-size:6px;font-family:'MS-PGothic';adobe-font-script:japanese;">
	<!ENTITY st16 "1.00 0.00 0.00 1.00">
	<!ENTITY st17 "0.00 -1.00 1.00 0.00">
	<!ENTITY st18 "font-size:6px;font-family:'Arial';">
	<!ENTITY st19 "font-size:9px;font-family:'Arial';">
	<!ENTITY st20 "font-size:6px;font-family:'MS-PGothic','MS PGothic';adobe-font-script:japanese;">
	<!ENTITY st21 "font-size:7px;font-family:'MS-PGothic','MS PGothic';adobe-font-script:japanese;">
	<!ATTLIST svg
		xmlns:ewd CDATA #FIXED "http://shcl.co.jp/ewd"
		xmlns:a CDATA #FIXED "http://ns.adobe.com/AdobeSVGViewerExtensions/3.0/"
		ewd:ver CDATA #IMPLIED
	>
	<!ATTLIST a
		ewd:lineID CDATA #IMPLIED
		ewd:groupID CDATA #IMPLIED
		ewd:figtype CDATA #IMPLIED
		ewd:code CDATA #IMPLIED
		ewd:figID CDATA #IMPLIED
		ewd:pinNo CDATA #IMPLIED
		ewd:comment CDATA #IMPLIED >
	<!ATTLIST g
		ewd:lineID CDATA #IMPLIED
		ewd:groupID CDATA #IMPLIED
		ewd:figtype CDATA #IMPLIED
		ewd:code CDATA #IMPLIED
		ewd:figID CDATA #IMPLIED
		ewd:pinNo CDATA #IMPLIED
		ewd:comment CDATA #IMPLIED >
	<!ATTLIST text
		ewd:textID CDATA #IMPLIED >
	<!ATTLIST title
		ewd:textID CDATA #IMPLIED >
]>
<!-- Generator: Shintec Hozumi YS   -->
<svg onload="call_execInitLoadProc_svg('system')" style="overflow:visible;  enable-background:new 0 0 944.051 710.000" viewBox="0 0 944.051 710.000" height="710.000" width="944.051" xml:space="preserve" ewd:ver="L2.1.2.7" xmlns="&ns_svg;" xmlns:a="http://ns.adobe.com/AdobeSVGViewerExtensions/3.0/" xmlns:ewd="http://shcl.co.jp/ewd" xmlns:xlink="&ns_xlink;">
<path d=" M  212.46,  205.75  L  212.46,  239.75 " style="stroke:#FF0000;stroke-width: 5.10 ;&st6;" /><path d=" M  314.45,  239.75  L  314.45,  205.75 " style="stroke:#008837;stroke-width: 5.10 ;&st6;" /><path d=" M  365.44,  205.75  L  365.44,  239.75 " style="stroke:#FFE600;stroke-width: 5.10 ;&st6;" /><path d=" M  416.43,  205.75  L  416.43,  239.75 " style="stroke:#00A0C6;stroke-width: 5.10 ;&st6;" /><path d=" M  254.96,  205.75  L  254.96,  239.75 " style="stroke:#000000;stroke-width: 5.10 ;&st6;" /><path d=" M  467.42,  205.75  L  467.42,  239.75 " style="stroke:#56077D;stroke-width: 5.10 ;&st6;" /><path d=" M  110.48,   69.77  L  110.48,  103.77 " style="stroke-width: 0.85 ;&st7; " /><path d=" M  112.61,  103.77  L  108.36,  103.77 " style="stroke-width: 1.42 ;&st7; " /><path d=" M  112.61,  112.27  L  108.36,  112.27 " style="stroke-width: 1.42 ;&st7; " /><path d=" M  416.43,  436.63  L  422.10,  413.97 " style="stroke-width: 1.42 ;&st7; " /><path d=" M  416.43,  460.71  L  416.43,  439.46 " style="stroke-width: 0.85 ;&st7; " /><path d=" M  314.45,  486.20  L  314.45,  443.71 " style="stroke-width: 0.85 ;&st7; " /><path d=" M  310.20,  443.71  L  318.70,  443.71 " style="stroke-width: 0.85 ;&st7; " /><path d=" M  327.18,  442.55  L  319.82,  446.80 " style="stroke-width: 0.85 ;&st7; " /><path d=" M  321.82,  450.26  L  329.18,  446.01 " style="stroke-width: 0.85 ;&st7; " /><path d=" M  310.20,  401.22  L  318.70,  401.22 " style="stroke-width: 0.85 ;&st7; " /><path d=" M  118.98,  205.75  L  110.48,  205.75 " style="stroke-width: 1.42 ;&st7; " /><path d=" M  467.42,  436.63  L  473.09,  413.97 " style="stroke-width: 1.42 ;&st7; " /><path d=" M  361.19,  443.71  L  369.69,  443.71 " style="stroke-width: 0.85 ;&st7; " /><path d=" M  378.17,  442.55  L  370.81,  446.80 " style="stroke-width: 0.85 ;&st7; " /><path d=" M  372.82,  450.26  L  380.18,  446.01 " style="stroke-width: 0.85 ;&st7; " /><path d=" M  361.19,  401.22  L  369.69,  401.22 " style="stroke-width: 0.85 ;&st7; " /><path d=" M  467.42,  486.20  L  467.42,  439.46 " style="stroke-width: 0.85 ;&st7; " /><path d=" M  416.43,  413.97  L  416.43,  384.22 " style="stroke-width: 0.85 ;&st7; " /><path d=" M  467.42,  413.97  L  467.42,  384.22 " style="stroke-width: 0.85 ;&st7; " /><path d=" M   25.50,   69.77  L   25.50,  103.77 " style="stroke-width: 0.85 ;&st7; " /><path d=" M   27.62,  103.77  L   23.37,  103.77 " style="stroke-width: 1.42 ;&st7; " /><path d=" M   27.62,  112.27  L   23.37,  112.27 " style="stroke-width: 1.42 ;&st7; " /><path d=" M   33.99,  392.72  L   25.50,  392.72 " style="stroke-width: 1.42 ;&st7; " /><path d=" M  475.92,  601.66  L  470.95,  596.69 " style="stroke-width: 1.42 ;&st7; " /><path d=" M  458.92,  608.71  L  463.89,  613.68 " style="stroke-width: 1.42 ;&st7; " /><path d=" M  470.95,  613.68  L  475.92,  608.71 " style="stroke-width: 1.42 ;&st7; " /><path d=" M  463.89,  596.69  L  458.92,  601.66 " style="stroke-width: 1.42 ;&st7; " /><path d=" M   97.73,   35.78  L   97.73,   78.27  L  123.23,   78.27  L  123.23,   35.78  L   97.73,   35.78 " style="stroke-width: 1.42 ;&st7; " /><path d=" M  467.42,  697.25  L  467.42,  701.50 " style="stroke-width: 0.85 ;&st7; " /><path d=" M  458.92,  701.50  L  475.92,  701.50 " style="stroke-width: 0.85 ;&st7; " /><path d=" M  463.17,  704.33  L  471.67,  704.33 " style="stroke-width: 0.85 ;&st7; " /><path d=" M  464.59,  707.17  L  470.25,  707.17 " style="stroke-width: 0.85 ;&st7; " /><path d=" M  466.01,  710.00  L  468.84,  710.00 " style="stroke-width: 0.85 ;&st7; " /><path d=" M  458.92,  656.18  L  475.92,  656.18  L  475.92,  673.17  L  458.92,  673.17  L  458.92,  656.18 " style="stroke-width: 1.42 ;&st7; " /><path d=" M  467.42,  656.18  L  467.42,  681.67 " style="stroke-width: 0.85 ;&st7; " /><path d=" M  313.25,  468.20  L  312.98,  468.67  L  312.89,  469.21  L  312.98,  469.74  L  313.25,  470.21  L  313.67,  470.56  L  314.18,  470.74  L  314.72,  470.74  L  315.23,  470.56  L  315.64,  470.21  L  315.91,  469.74  L  316.01,  469.21  L  315.91,  468.67  L  315.64,  468.20  L  315.23,  467.86  L  314.72,  467.67  L  314.18,  467.67  L  313.67,  467.86  L  313.25,  468.20  L  313.65,  468.92  L  313.65,  469.50  L  314.02,  469.94  L  314.59,  470.04  L  315.10,  469.75  L  315.30,  469.21  L  315.10,  468.66  L  314.59,  468.37  L  314.02,  468.47  L  314.45,  469.21 " style="stroke-width: 0.85 ;&st7; " /><path d=" M  297.45,  384.22  L  484.42,  384.22  L  484.42,  486.20  L  297.45,  486.20  L  297.45,  384.22 " style="stroke-width: 1.42 ;&st7; " /><path d=" M  314.45,  469.21  L  365.44,  469.21  L  365.44,  443.71 " style="stroke-width: 0.85 ;&st7; " /><path d=" M  365.44,  443.71  L  365.44,  435.21  L  362.61,  433.80  L  368.27,  430.96  L  362.61,  428.13  L  368.27,  425.30  L  362.61,  422.46  L  368.27,  419.63  L  365.44,  418.22  L  365.44,  384.22 " style="stroke-width: 0.85 ;&st7; " /><path d=" M  288.95,  129.26  L  297.45,  129.26  L  298.87,  126.43  L  301.70,  132.10  L  304.53,  126.43  L  307.37,  132.10  L  310.20,  126.43  L  313.03,  132.10  L  314.45,  129.26  L  322.95,  129.26 " style="stroke-width: 0.85 ;&st7; " /><path d=" M  314.45,  443.71  L  314.45,  435.21  L  311.61,  433.80  L  317.28,  430.96  L  311.61,  428.13  L  317.28,  425.30  L  311.61,  422.46  L  317.28,  419.63  L  314.45,  418.22  L  314.45,  384.22 " style="stroke-width: 0.85 ;&st7; " /><path d=" M  314.45,  443.71  L  320.11,  452.21  L  308.78,  452.21  L  314.45,  443.71 " style="stroke-width: 0.28 ;&st9;" /><path d=" M  327.18,  442.55  L  324.85,  445.59  L  323.38,  443.05  L  327.18,  442.55  L  325.90,  443.29  L  324.91,  444.57  L  324.29,  443.50  L  325.90,  443.29  L  325.26,  443.66  L  324.95,  444.06  L  324.75,  443.72  L  325.26,  443.66 " style="stroke-width: 0.85 ;&st7; " /><path d=" M  329.18,  446.01  L  326.85,  449.06  L  325.38,  446.52  L  329.18,  446.01  L  327.90,  446.76  L  326.92,  448.04  L  326.30,  446.97  L  327.90,  446.76  L  327.26,  447.12  L  326.95,  447.53  L  326.76,  447.19  L  327.26,  447.12 " style="stroke-width: 0.85 ;&st7; " /><path d=" M  314.45,  401.22  L  320.11,  409.72  L  308.78,  409.72  L  314.45,  401.22 " style="stroke-width: 0.28 ;&st9;" /><path d=" M  271.95,  112.27  L  407.93,  112.27 " style="stroke-width: 1.42 ;&st7; " /><path d=" M  389.74,  130.27  L  389.47,  129.80  L  389.38,  129.26  L  389.47,  128.73  L  389.74,  128.26  L  390.16,  127.92  L  390.66,  127.73  L  391.21,  127.73  L  391.71,  127.92  L  392.13,  128.26  L  392.40,  128.73  L  392.49,  129.26  L  392.40,  129.80  L  392.13,  130.27  L  391.71,  130.61  L  391.21,  130.80  L  390.66,  130.80  L  390.16,  130.61  L  389.74,  130.27  L  390.14,  129.56  L  390.14,  128.97  L  390.51,  128.53  L  391.08,  128.43  L  391.59,  128.72  L  391.78,  129.26  L  391.59,  129.81  L  391.08,  130.10  L  390.51,  130.00  L  390.93,  129.26 " style="stroke-width: 0.85 ;&st7; " /><path d=" M  287.76,  130.27  L  287.49,  129.80  L  287.39,  129.26  L  287.49,  128.73  L  287.76,  128.26  L  288.17,  127.92  L  288.68,  127.73  L  289.22,  127.73  L  289.73,  127.92  L  290.14,  128.26  L  290.42,  128.73  L  290.51,  129.26  L  290.42,  129.80  L  290.14,  130.27  L  289.73,  130.61  L  289.22,  130.80  L  288.68,  130.80  L  288.17,  130.61  L  287.76,  130.27  L  288.15,  129.56  L  288.15,  128.97  L  288.53,  128.53  L  289.10,  128.43  L  289.60,  128.72  L  289.80,  129.26  L  289.60,  129.81  L  289.10,  130.10  L  288.53,  130.00  L  288.95,  129.26 " style="stroke-width: 0.85 ;&st7; " /><path d=" M  356.94,  171.76  L  356.94,  180.26 " style="stroke-width: 0.85 ;&st7; " /><path d=" M  356.94,  180.26  L  356.94,  188.75 " style="stroke-width: 0.85 ;&st7; " /><path d=" M  385.27,  167.51  L  375.64,  167.51  L  375.64,  131.53 " style="stroke-width: 0.85 ;&st7;stroke-dasharray:3, 1.5;" /><path d=" M  307.08,  133.23  L  307.08,  146.26  L  339.94,  146.26  L  339.94,  153.34 " style="stroke-width: 0.85 ;&st7;stroke-dasharray:3, 1.5;" /><path d=" M  322.95,  171.76  L  322.95,  180.26 " style="stroke-width: 0.85 ;&st7; " /><path d=" M  288.95,  112.27  L  288.95,   95.27  L  322.95,   95.27 " style="stroke-width: 0.85 ;&st7; " /><path d=" M  314.45,  171.76  L  314.45,  154.76  L  365.44,  154.76  L  365.44,  171.76  L  314.45,  171.76 " style="stroke-width: 1.42 ;&st7; " /><path d=" M  390.93,  173.17  L  390.93,  180.26 " style="stroke-width: 0.85 ;&st7; " /><path d=" M  390.93,  137.76  L  390.93,  161.84 " style="stroke-width: 0.85 ;&st7; " /><path d=" M  395.18,  163.26  L  395.18,  171.76 " style="stroke-width: 0.85 ;&st7; " /><path d=" M  386.69,  167.51  L  395.18,  167.51 " style="stroke-width: 0.85 ;&st7; " /><path d=" M  386.69,  163.26  L  386.69,  171.76 " style="stroke-width: 0.85 ;&st7; " /><path d=" M  322.95,  188.75  L  322.95,  180.26 " style="stroke-width: 0.85 ;&st7; " /><path d=" M  390.93,  137.76  L  390.93,  112.27 " style="stroke-width: 0.85 ;&st7; " /><path d=" M  322.95,   95.27  L  327.20,   95.27  L  327.20,   99.52  L  331.44,   99.52  L  331.44,   91.02  L  335.69,   91.02  L  335.69,   99.52  L  339.94,   99.52  L  339.94,   91.02  L  344.19,   91.02  L  344.19,   99.52  L  348.44,   99.52  L  348.44,   91.02  L  352.69,   91.02  L  352.69,   95.27  L  356.94,   95.27 " style="stroke-width: 0.85 ;&st7; " /><path d=" M  322.95,  129.26  L  327.20,  129.26  L  327.20,  133.51  L  331.44,  133.51  L  331.44,  125.01  L  335.69,  125.01  L  335.69,  133.51  L  339.94,  133.51  L  339.94,  125.01  L  344.19,  125.01  L  344.19,  133.51  L  348.44,  133.51  L  348.44,  125.01  L  352.69,  125.01  L  352.69,  129.26  L  356.94,  129.26 " style="stroke-width: 0.85 ;&st7; " /><path d=" M  288.95,  180.26  L  288.95,  112.27 " style="stroke-width: 0.85 ;&st7; " /><path d=" M  356.94,   95.27  L  390.93,   95.27  L  390.93,  112.27 " style="stroke-width: 0.85 ;&st7; " /><path d=" M  322.95,  103.77  L  322.95,   86.77  L  356.94,   86.77  L  356.94,  103.77  L  322.95,  103.77 " style="stroke-width: 1.42 ;&st7; " /><path d=" M  390.93,  180.26  L  390.93,  188.75 " style="stroke-width: 0.85 ;&st7; " /><path d=" M  288.95,  188.75  L  288.95,  180.26 " style="stroke-width: 0.85 ;&st7; " /><path d=" M  271.95,  180.26  L  271.95,   69.77  L  407.93,   69.77  L  407.93,  180.26  L  271.95,  180.26 " style="stroke-width: 1.42 ;&st7; " /><path d=" M  195.47,  205.75  L  195.47,  188.75  L  484.42,  188.75  L  484.42,  205.75  L  195.47,  205.75 " style="stroke-width: 1.42 ;&st7; " /><path d=" M  178.47,  239.75  L  178.47,   52.78  L  501.42,   52.78  L  501.42,  239.75  L  178.47,  239.75 " style="stroke-width: 1.42 ;&st7; " /><path d=" M  356.94,  129.26  L  365.44,  129.26  L  366.86,  126.43  L  369.69,  132.10  L  372.52,  126.43  L  375.35,  132.10  L  378.19,  126.43  L  381.02,  132.10  L  382.44,  129.26  L  390.93,  129.26 " style="stroke-width: 0.85 ;&st7; " /><path d=" M  110.48,   98.87  L  107.65,   96.04  L  107.65,  100.29  L  110.48,  103.12  L  113.31,  100.29  L  113.31,   96.04  L  110.48,   98.87 " style="stroke-width: 0.28 ;&st9;" /><path d=" M  365.44,  443.71  L  371.10,  452.21  L  359.77,  452.21  L  365.44,  443.71 " style="stroke-width: 0.28 ;&st9;" /><path d=" M  378.17,  442.55  L  375.84,  445.59  L  374.37,  443.05  L  378.17,  442.55  L  376.89,  443.29  L  375.90,  444.57  L  375.29,  443.50  L  376.89,  443.29  L  376.25,  443.66  L  375.94,  444.06  L  375.74,  443.72  L  376.25,  443.66 " style="stroke-width: 0.85 ;&st7; " /><path d=" M  380.18,  446.01  L  377.84,  449.06  L  376.37,  446.52  L  380.18,  446.01  L  378.89,  446.76  L  377.91,  448.04  L  377.29,  446.97  L  378.89,  446.76  L  378.25,  447.12  L  377.94,  447.53  L  377.75,  447.19  L  378.25,  447.12 " style="stroke-width: 0.85 ;&st7; " /><path d=" M  114.73,  211.42  L  110.48,  207.17  L  106.23,  211.42 " style="stroke-width: 1.42 ;&st7; " /><path d=" M  114.73,  214.82  L  110.48,  210.57  L  106.23,  214.82 " style="stroke-width: 1.42 ;&st7; " /><path d=" M  365.44,  401.22  L  371.10,  409.72  L  359.77,  409.72  L  365.44,  401.22 " style="stroke-width: 0.28 ;&st9;" /><path d=" M  466.23,  468.20  L  465.96,  468.67  L  465.86,  469.21  L  465.96,  469.74  L  466.23,  470.21  L  466.64,  470.56  L  467.15,  470.74  L  467.69,  470.74  L  468.20,  470.56  L  468.61,  470.21  L  468.89,  469.74  L  468.98,  469.21  L  468.89,  468.67  L  468.61,  468.20  L  468.20,  467.86  L  467.69,  467.67  L  467.15,  467.67  L  466.64,  467.86  L  466.23,  468.20  L  466.62,  468.92  L  466.62,  469.50  L  467.00,  469.94  L  467.57,  470.04  L  468.07,  469.75  L  468.27,  469.21  L  468.07,  468.66  L  467.57,  468.37  L  467.00,  468.47  L  467.42,  469.21 " style="stroke-width: 0.85 ;&st7; " /><path d=" M  467.42,  469.21  L  416.43,  469.21  L  416.43,  460.71 " style="stroke-width: 0.85 ;&st7; " /><path d=" M  314.45,  554.19  L  314.45,  562.69 " style="stroke-width: 0.85 ;&st7; " /><path d=" M   12.75,   35.78  L   12.75,   78.27  L   38.24,   78.27  L   38.24,   35.78  L   12.75,   35.78 " style="stroke-width: 1.42 ;&st7; " /><path d=" M   25.50,   98.87  L   22.66,   96.04  L   22.66,  100.29  L   25.50,  103.12  L   28.33,  100.29  L   28.33,   96.04  L   25.50,   98.87 " style="stroke-width: 0.28 ;&st9;" /><path d=" M   17.00,  197.25  L   17.00,  214.25  L   33.99,  214.25  L   33.99,  197.25  L   17.00,  197.25 " style="stroke-width: 1.42 ;&st7; " /><path d=" M   25.50,  197.25  L   25.50,  214.25 " style="stroke-width: 0.85 ;&st7; " /><path d=" M   17.00,  290.74  L   17.00,  316.23  L   33.99,  316.23  L   33.99,  290.74  L   17.00,  290.74 " style="stroke-width: 1.42 ;&st7; " /><path d=" M   17.00,  299.24  L   33.99,  299.24 " style="stroke-width: 1.13 ;&st7;stroke-dasharray:3, 1.5;" /><path d=" M   17.00,  307.73  L   33.99,  307.73 " style="stroke-width: 1.13 ;&st7;stroke-dasharray:3, 1.5;" /><path d=" M   25.50,  290.74  L   25.50,  316.23 " style="stroke-width: 0.85 ;&st7; " /><path d=" M  305.95,  554.19  L  322.95,  554.19  L  322.95,  571.19  L  305.95,  571.19  L  305.95,  554.19 " style="stroke-width: 1.42 ;&st7; " /><path d=" M  305.95,  562.69  L  322.95,  562.69 " style="stroke-width: 0.85 ;&st7; " /><path d=" M  313.25,  561.69  L  312.98,  562.16  L  312.89,  562.69  L  312.98,  563.22  L  313.25,  563.69  L  313.67,  564.04  L  314.18,  564.23  L  314.72,  564.23  L  315.23,  564.04  L  315.64,  563.69  L  315.91,  563.22  L  316.01,  562.69  L  315.91,  562.16  L  315.64,  561.69  L  315.23,  561.34  L  314.72,  561.16  L  314.18,  561.16  L  313.67,  561.34  L  313.25,  561.69  L  313.65,  562.40  L  313.65,  562.98  L  314.02,  563.43  L  314.59,  563.53  L  315.10,  563.24  L  315.30,  562.69  L  315.10,  562.14  L  314.59,  561.86  L  314.02,  561.95  L  314.45,  562.69 " style="stroke-width: 0.85 ;&st7; " /><path d=" M   29.75,  401.78  L   25.50,  397.54  L   21.25,  401.78 " style="stroke-width: 1.42 ;&st7; " /><path d=" M   29.75,  398.39  L   25.50,  394.14  L   21.25,  398.39 " style="stroke-width: 1.42 ;&st7; " /><path d=" M  108.36,  103.77  C  106.01   103.77   104.11   105.67   104.11   108.02 " style="stroke-width: 1.42 ;&st7; " /><path d=" M  104.11,  108.02  C  104.11   110.36   106.01   112.27   108.36   112.27 " style="stroke-width: 1.42 ;&st7; " /><path d=" M  112.61,  112.27  C  114.95   112.27   116.86   110.36   116.86   108.02 " style="stroke-width: 1.42 ;&st7; " /><path d=" M  116.86,  108.02  C  116.86   105.67   114.95   103.77   112.61   103.77 " style="stroke-width: 1.42 ;&st7; " /><path d=" M  111.90,   68.36  C  111.90    67.57   111.26    66.94   110.48    66.94 " style="stroke-width: 0.85 ;&st7; " /><path d=" M  110.48,   66.94  C  109.70    66.94   109.07    67.57   109.07    68.36 " style="stroke-width: 0.85 ;&st7; " /><path d=" M  109.07,   68.36  C  109.07    69.14   109.70    69.77   110.48    69.77 " style="stroke-width: 0.85 ;&st7; " /><path d=" M  110.48,   69.77  C  111.26    69.77   111.90    69.14   111.90    68.36 " style="stroke-width: 0.85 ;&st7; " /><path d=" M  111.90,   45.69  C  111.90    44.91   111.26    44.28   110.48    44.28 " style="stroke-width: 0.85 ;&st7; " /><path d=" M  110.48,   44.28  C  109.70    44.28   109.07    44.91   109.07    45.69 " style="stroke-width: 0.85 ;&st7; " /><path d=" M  109.07,   45.69  C  109.07    46.48   109.70    47.11   110.48    47.11 " style="stroke-width: 0.85 ;&st7; " /><path d=" M  110.48,   47.11  C  111.26    47.11   111.90    46.48   111.90    45.69 " style="stroke-width: 0.85 ;&st7; " /><path d=" M  110.48,   66.94  C  113.22    65.33   114.13    61.80   112.52    59.06 " style="stroke-width: 1.42 ;&st7; " /><path d=" M  112.52,   59.06  C  112.00    58.18   111.36    57.55   110.48    57.03 " style="stroke-width: 1.42 ;&st7; " /><path d=" M  110.48,   47.11  C  107.74    48.72   106.83    52.25   108.44    54.99 " style="stroke-width: 1.42 ;&st7; " /><path d=" M  108.44,   54.99  C  108.96    55.87   109.60    56.51   110.48    57.03 " style="stroke-width: 1.42 ;&st7; " /><path d=" M  468.84,  415.38  C  468.84   414.60   468.20   413.97   467.42   413.97 " style="stroke-width: 0.85 ;&st7; " /><path d=" M  467.42,  413.97  C  466.64   413.97   466.01   414.60   466.01   415.38 " style="stroke-width: 0.85 ;&st7; " /><path d=" M  466.01,  415.38  C  466.01   416.16   466.64   416.80   467.42   416.80 " style="stroke-width: 0.85 ;&st7; " /><path d=" M  467.42,  416.80  C  468.20   416.80   468.84   416.16   468.84   415.38 " style="stroke-width: 0.85 ;&st7; " /><path d=" M  392.35,  171.76  C  392.35   170.97   391.72   170.34   390.93   170.34 " style="stroke-width: 0.85 ;&st7; " /><path d=" M  390.93,  170.34  C  390.15   170.34   389.52   170.97   389.52   171.76 " style="stroke-width: 0.85 ;&st7; " /><path d=" M  389.52,  171.76  C  389.52   172.54   390.15   173.17   390.93   173.17 " style="stroke-width: 0.85 ;&st7; " /><path d=" M  390.93,  173.17  C  391.72   173.17   392.35   172.54   392.35   171.76 " style="stroke-width: 0.85 ;&st7; " /><path d=" M  392.35,  163.26  C  392.35   162.48   391.72   161.84   390.93   161.84 " style="stroke-width: 0.85 ;&st7; " /><path d=" M  390.93,  161.84  C  390.15   161.84   389.52   162.48   389.52   163.26 " style="stroke-width: 0.85 ;&st7; " /><path d=" M  389.52,  163.26  C  389.52   164.04   390.15   164.67   390.93   164.67 " style="stroke-width: 0.85 ;&st7; " /><path d=" M  390.93,  164.67  C  391.72   164.67   392.35   164.04   392.35   163.26 " style="stroke-width: 0.85 ;&st7; " /><path d=" M  468.84,  438.05  C  468.84   437.26   468.20   436.63   467.42   436.63 " style="stroke-width: 0.85 ;&st7; " /><path d=" M  467.42,  436.63  C  466.64   436.63   466.01   437.26   466.01   438.05 " style="stroke-width: 0.85 ;&st7; " /><path d=" M  466.01,  438.05  C  466.01   438.83   466.64   439.46   467.42   439.46 " style="stroke-width: 0.85 ;&st7; " /><path d=" M  467.42,  439.46  C  468.20   439.46   468.84   438.83   468.84   438.05 " style="stroke-width: 0.85 ;&st7; " /><path d=" M  417.85,  415.38  C  417.85   414.60   417.21   413.97   416.43   413.97 " style="stroke-width: 0.85 ;&st7; " /><path d=" M  416.43,  413.97  C  415.65   413.97   415.01   414.60   415.01   415.38 " style="stroke-width: 0.85 ;&st7; " /><path d=" M  415.01,  415.38  C  415.01   416.16   415.65   416.80   416.43   416.80 " style="stroke-width: 0.85 ;&st7; " /><path d=" M  416.43,  416.80  C  417.21   416.80   417.85   416.16   417.85   415.38 " style="stroke-width: 0.85 ;&st7; " /><path d=" M  417.85,  438.05  C  417.85   437.26   417.21   436.63   416.43   436.63 " style="stroke-width: 0.85 ;&st7; " /><path d=" M  416.43,  436.63  C  415.65   436.63   415.01   437.26   415.01   438.05 " style="stroke-width: 0.85 ;&st7; " /><path d=" M  415.01,  438.05  C  415.01   438.83   415.65   439.46   416.43   439.46 " style="stroke-width: 0.85 ;&st7; " /><path d=" M  416.43,  439.46  C  417.21   439.46   417.85   438.83   417.85   438.05 " style="stroke-width: 0.85 ;&st7; " /><path d=" M   23.37,  103.77  C   21.02   103.77    19.12   105.67    19.12   108.02 " style="stroke-width: 1.42 ;&st7; " /><path d=" M   19.12,  108.02  C   19.12   110.36    21.02   112.27    23.37   112.27 " style="stroke-width: 1.42 ;&st7; " /><path d=" M   27.62,  112.27  C   29.97   112.27    31.87   110.36    31.87   108.02 " style="stroke-width: 1.42 ;&st7; " /><path d=" M   31.87,  108.02  C   31.87   105.67    29.97   103.77    27.62   103.77 " style="stroke-width: 1.42 ;&st7; " /><path d=" M   26.91,   68.36  C   26.91    67.57    26.28    66.94    25.50    66.94 " style="stroke-width: 0.85 ;&st7; " /><path d=" M   25.50,   66.94  C   24.71    66.94    24.08    67.57    24.08    68.36 " style="stroke-width: 0.85 ;&st7; " /><path d=" M   24.08,   68.36  C   24.08    69.14    24.71    69.77    25.50    69.77 " style="stroke-width: 0.85 ;&st7; " /><path d=" M   25.50,   69.77  C   26.28    69.77    26.91    69.14    26.91    68.36 " style="stroke-width: 0.85 ;&st7; " /><path d=" M   26.91,   45.69  C   26.91    44.91    26.28    44.28    25.50    44.28 " style="stroke-width: 0.85 ;&st7; " /><path d=" M   25.50,   44.28  C   24.71    44.28    24.08    44.91    24.08    45.69 " style="stroke-width: 0.85 ;&st7; " /><path d=" M   24.08,   45.69  C   24.08    46.48    24.71    47.11    25.50    47.11 " style="stroke-width: 0.85 ;&st7; " /><path d=" M   25.50,   47.11  C   26.28    47.11    26.91    46.48    26.91    45.69 " style="stroke-width: 0.85 ;&st7; " /><path d=" M   25.50,   66.94  C   28.23    65.33    29.15    61.80    27.53    59.06 " style="stroke-width: 1.42 ;&st7; " /><path d=" M   27.53,   59.06  C   27.01    58.18    26.38    57.55    25.50    57.03 " style="stroke-width: 1.42 ;&st7; " /><path d=" M   25.50,   47.11  C   22.76    48.72    21.85    52.25    23.46    54.99 " style="stroke-width: 1.42 ;&st7; " /><path d=" M   23.46,   54.99  C   23.98    55.87    24.61    56.51    25.50    57.03 " style="stroke-width: 1.42 ;&st7; " /><path d=" M   30.03,  192.72  C   30.03   190.22    28.00   188.19    25.50   188.19 " style="stroke-width: 1.42 ;&st7; " /><path d=" M   25.50,  188.19  C   22.99   188.19    20.96   190.22    20.96   192.72 " style="stroke-width: 1.42 ;&st7; " /><path d=" M   20.96,  192.72  C   20.96   195.22    22.99   197.25    25.50   197.25 " style="stroke-width: 1.42 ;&st7; " /><path d=" M   25.50,  197.25  C   28.00   197.25    30.03   195.22    30.03   192.72 " style="stroke-width: 1.42 ;&st7; " /><path d=" M   30.03,  218.78  C   30.03   216.28    28.00   214.25    25.50   214.25 " style="stroke-width: 1.42 ;&st7; " /><path d=" M   25.50,  214.25  C   22.99   214.25    20.96   216.28    20.96   218.78 " style="stroke-width: 1.42 ;&st7; " /><path d=" M   20.96,  218.78  C   20.96   221.29    22.99   223.31    25.50   223.31 " style="stroke-width: 1.42 ;&st7; " /><path d=" M   25.50,  223.31  C   28.00   223.31    30.03   221.29    30.03   218.78 " style="stroke-width: 1.42 ;&st7; " /><path d=" M   30.03,  286.20  C   30.03   283.70    28.00   281.67    25.50   281.67 " style="stroke-width: 1.42 ;&st7; " /><path d=" M   25.50,  281.67  C   22.99   281.67    20.96   283.70    20.96   286.20 " style="stroke-width: 1.42 ;&st7; " /><path d=" M   20.96,  286.20  C   20.96   288.71    22.99   290.74    25.50   290.74 " style="stroke-width: 1.42 ;&st7; " /><path d=" M   25.50,  290.74  C   28.00   290.74    30.03   288.71    30.03   286.20 " style="stroke-width: 1.42 ;&st7; " /><path d=" M   30.03,  320.77  C   30.03   318.26    28.00   316.23    25.50   316.23 " style="stroke-width: 1.42 ;&st7; " /><path d=" M   25.50,  316.23  C   22.99   316.23    20.96   318.26    20.96   320.77 " style="stroke-width: 1.42 ;&st7; " /><path d=" M   20.96,  320.77  C   20.96   323.27    22.99   325.30    25.50   325.30 " style="stroke-width: 1.42 ;&st7; " /><path d=" M   25.50,  325.30  C   28.00   325.30    30.03   323.27    30.03   320.77 " style="stroke-width: 1.42 ;&st7; " /><text style="&st18;" transform="matrix(&st16;  460.63  652.49 )">7</text><text ewd:textID="1" style="&st18;" transform="matrix(&st17;  490.64  675.7 )">Junction <tspan dy="6" x="0">Connector</tspan></text><text style="&st18;" transform="matrix(&st17;  483.53  675.7 )">P22</text><text style="&st18;" transform="matrix(&st17;  463.73  638.38 )">W-B</text><text style="&st18;" transform="matrix(&st16;  470.25  482.51 )">E</text><text style="&st18;" transform="matrix(&st16;  317.28  482.51 )">IG</text><text style="&st18;" transform="matrix(&st17;  208.77  225.22 )">R</text><text style="&st18;" transform="matrix(&st17;  310.75  225.5 )">G</text><text style="&st18;" transform="matrix(&st17;  361.74  225.08 )">Y</text><text style="&st18;" transform="matrix(&st16;  158.72  278.54 )">G</text><text style="&st18;" transform="matrix(&st16;  105.54  109.99 )">DD</text><text style="&st18;" transform="matrix(&st16;  97.79  109.99 )">6</text><text style="&st18;" transform="matrix(&st16;  95.67  203.47 )">8</text><text style="&st18;" transform="matrix(&st16;  307.66  247.94 )">2</text><text style="&st18;" transform="matrix(&st16;  358.65  247.94 )">4</text><text style="&st18;" transform="matrix(&st16;  406.46  247.94 )">10</text><text style="&st18;" transform="matrix(&st16;  307.66  494.4 )">7</text><text style="&st18;" transform="matrix(&st16;  358.65  380.53 )">2</text><text style="&st18;" transform="matrix(&st16;  307.66  380.53 )">8</text><text style="&st18;" transform="matrix(&st16;  409.64  380.53 )">3</text><text style="&st18;" transform="matrix(&st16;  460.63  380.53 )">5</text><text style="&st18;" transform="matrix(&st17;  310.75  319.59 )">W</text><text style="&st18;" transform="matrix(&st17;  361.74  318.7 )">R</text><text style="&st18;" transform="matrix(&st17;  412.73  318.56 )">V</text><text style="&st18;" transform="matrix(&st16;  206.45  247.94 )">1</text><text style="&st18;" transform="matrix(&st16;  368.27  392.41 )">R</text><text ewd:textID="5" style="&st18;" transform="matrix(&st16;  337.42  500.92 )">Rear Seat Heater Switch RH</text><text style="&st18;" transform="matrix(&st16;  337.42  493.81 )">P18</text><text ewd:textID="9" style="&st18;" transform="matrix(&st16;  323.02  165.23 )">Thermistor</text><text ewd:textID="8" style="&st18;" transform="matrix(&st16;  308.44  199.22 )">Seat Heater Control</text><text ewd:textID="6" style="&st18;" transform="matrix(&st16;  323.62  83.07 )">Seat Back</text><text ewd:textID="7" style="&st18;" transform="matrix(&st16;  318.61  121.32 )">Seat Cushion</text><text style="&st18;" transform="matrix(&st16;  317.28  236.05 )">INDR</text><text style="&st18;" transform="matrix(&st16;  368.27  236.05 )">PR</text><text style="&st18;" transform="matrix(&st16;  419.26  236.05 )">SWR</text><text ewd:textID="3" style="&st18;" transform="matrix(&st16;  303.42  49.08 )">Rear Seat Heater Control Sub-Assembly RH</text><text style="&st18;" transform="matrix(&st16;  303.42  41.97 )">P23</text><text style="&st18;" transform="matrix(&st17;  463.73  318.56 )">P</text><text style="&st18;" transform="matrix(&st16;  457.45  247.94 )">12</text><text style="&st18;" transform="matrix(&st16;  470.25  236.05 )">HIR</text><text style="&st18;" transform="matrix(&st17;  310.75  524.86 )">SB</text><text style="&st18;" transform="matrix(&st17;  106.79  157.51 )">G</text><text style="&st18;" transform="matrix(&st16;  215.3  236.05 )">B1</text><text style="&st18;" transform="matrix(&st16;  470.25  392.41 )">HI</text><text style="&st18;" transform="matrix(&st16;  460.63  494.4 )">4</text><text style="&st18;" transform="matrix(&st17;  463.73  527.9 )">W-B</text><text style="&st18;" transform="matrix(&st16;  19.42  32.08 )">(IG)</text><text style="&st18;" transform="matrix(&st16;  42.8  56.17 )">7.5A <tspan dy="6" x="0">LH-IG</tspan></text><text style="&st18;" transform="matrix(&st16;  20.55  109.99 )">DD</text><text style="&st18;" transform="matrix(&st16;  8.85  109.99 )">55</text><text style="&st18;" transform="matrix(&st17;  21.8  159.42 )">SB</text><text style="&st18;" transform="matrix(&st16;  23.16  194.69 )">A</text><text style="&st18;" transform="matrix(&st16;  11.44  194.69 )">10</text><text style="&st18;" transform="matrix(&st16;  23.16  220.75 )">A</text><text style="&st18;" transform="matrix(&st16;  12.22  220.75 )">11</text><text style="&st18;" transform="matrix(&st16;  23.16  288.17 )">B</text><text style="&st18;" transform="matrix(&st16;  11.44  288.17 )">21</text><text style="&st18;" transform="matrix(&st16;  23.16  322.73 )">A</text><text style="&st18;" transform="matrix(&st16;  11.44  322.73 )">15</text><text style="&st18;" transform="matrix(&st16;  299.16  559.0 )">4</text><text style="&st18;" transform="matrix(&st16;  325.78  559.0 )">5</text><text style="&st18;" transform="matrix(&st16;  307.66  550.5 )">6</text><text ewd:textID="1" style="&st18;" transform="matrix(&st16;  303.42  585.91 )">Junction <tspan dy="6" x="0">Connector</tspan></text><text style="&st18;" transform="matrix(&st16;  303.42  578.8 )">P21</text><text style="&st18;" transform="matrix(&st16;  10.68  390.44 )">6</text><text style="&st18;" transform="matrix(&st17;  21.8  259.07 )">B</text><text style="&st18;" transform="matrix(&st17;  21.8  354.96 )">LG</text><text style="&st18;" transform="matrix(&st17;  21.8  448.37 )">SB</text><text ewd:textID="1" style="&st18;" transform="matrix(&st16;  37.14  206.3 )">Junction <tspan dy="6" x="0">Connector</tspan></text><text style="&st18;" transform="matrix(&st16;  37.14  199.2 )">H77(A)</text><text ewd:textID="1" style="&st18;" transform="matrix(&st16;  37.14  299.79 )">Junction <tspan dy="6" x="0">Connector</tspan></text><text style="&st18;" transform="matrix(&st16;  37.14  292.68 )">H79(A),H80(B)</text><text style="&st18;" transform="matrix(&st17;  251.26  323.93 )">W-B</text><text style="&st18;" transform="matrix(&st16;  485.22  601.49 )">W-B</text><text style="&st18;" transform="matrix(&st16;  488.26  558.99 )">SB</text><text style="&st18;" transform="matrix(&st16;  425.73  601.49 )">W-B</text><text style="&st18;" transform="matrix(&st16;  275.79  558.99 )">SB</text><text style="&st18;" transform="matrix(&st16;  104.41  32.08 )">(IG)</text><text style="&st18;" transform="matrix(&st16;  127.79  53.34 )">10A <tspan dy="6" x="0">RR SEAT </tspan><tspan dy="6" x="0">HTR RH</tspan></text><text style="&st18;" transform="matrix(&st16;  244.99  247.94 )">13</text><text style="&st18;" transform="matrix(&st16;  257.79  236.05 )">TC</text><text style="&st18;" transform="matrix(&st17;  251.26  225.08 )">B</text><text style="&st18;" transform="matrix(&st17;  412.73  224.73 )">L</text><text style="&st18;" transform="matrix(&st16;  419.26  392.41 )">LO</text><text style="&st18;" transform="matrix(&st16;  317.28  392.41 )">IND</text><text style="&st18;" transform="matrix(&st17;  463.73  225.08 )">V</text></svg>