﻿<?xml version="1.0" encoding="utf-8"?>
<!DOCTYPE svg PUBLIC "-//W3C//DTD SVG 1.0//EN" "http://www.w3.org/TR/2001/REC-SVG-20010904/DTD/svg10.dtd"[
	<!ENTITY ns_flows "http://ns.adobe.com/Flows/1.0/">
	<!ENTITY ns_svg "http://www.w3.org/2000/svg">
	<!ENTITY ns_xlink "http://www.w3.org/1999/xlink">
	<!ENTITY st0 "font-size:7px;font-family:'MS-PGothic';adobe-font-script:japanese;">
	<!ENTITY st1 "font-size:6px;font-family:'ArialMT';">
	<!-- White fill  -->
	<!ENTITY st2 "fill:#FFFFFF;stroke:#000000; stroke-width:1.41;stroke-linecap:round;stroke-linejoin:round;">
	<!-- Yellow fill  -->
	<!ENTITY st3 "fill:#FFFFCC;stroke:#FFFFCC; stroke-width:0.1;stroke-linecap:round;stroke-linejoin:round;">
	<!-- Gray fill  -->
	<!ENTITY st4 "fill:#CCCCCC;stroke:#CCCCCC; stroke-width:0.1;stroke-linecap:round;stroke-linejoin:round;">
	<!-- Light-blue fill -->
	<!ENTITY st5 "fill:#CCECF4;stroke:#000000; stroke-width:1.133;stroke-linecap:round;stroke-linejoin:round;">
	<!ENTITY st6 "fill:none;stroke-linecap:butt; stroke-linejoin:round;">
	<!ENTITY st7 "fill:none;stroke:#000000;stroke-linecap:round;stroke-linejoin:round;">
	<!ENTITY st8 "enable-background:new    ;">
	<!-- Black fill -->
	<!ENTITY st9 "fill:#000000;stroke:#000000; stroke-linecap:round;stroke-linejoin:round;">
	<!-- SRS note   -->
	<!ENTITY st10 "font-size:9px;font-family:'ArialMT';">
	<!ENTITY st11 "font-size:9px;font-family:'Svg Symbol';">
	<!ENTITY st12 "font-size:6px;font-family:'Svg Symbol';">
	<!ENTITY st13 "fill:none;stroke:#ff0000;stroke-linecap:round;stroke-linejoin:round;">
	<!-- Yellow fill  -->
	<!ENTITY st14 "fill:#FFFF00;stroke:#FFFF00; stroke-width:0.1;stroke-linecap:round;stroke-linejoin:round;">
	<!ENTITY st15 "font-size:6px;font-family:'MS-PGothic';adobe-font-script:japanese;">
	<!ENTITY st16 "1.00 0.00 0.00 1.00">
	<!ENTITY st17 "0.00 -1.00 1.00 0.00">
	<!ENTITY st18 "font-size:6px;font-family:'Arial';">
	<!ENTITY st19 "font-size:9px;font-family:'Arial';">
	<!ENTITY st20 "font-size:6px;font-family:'MS-PGothic','MS PGothic';adobe-font-script:japanese;">
	<!ENTITY st21 "font-size:7px;font-family:'MS-PGothic','MS PGothic';adobe-font-script:japanese;">
	<!ATTLIST svg
		xmlns:ewd CDATA #FIXED "http://shcl.co.jp/ewd"
		xmlns:a CDATA #FIXED "http://ns.adobe.com/AdobeSVGViewerExtensions/3.0/"
		ewd:ver CDATA #IMPLIED
	>
	<!ATTLIST a
		ewd:lineID CDATA #IMPLIED
		ewd:groupID CDATA #IMPLIED
		ewd:figtype CDATA #IMPLIED
		ewd:code CDATA #IMPLIED
		ewd:figID CDATA #IMPLIED
		ewd:pinNo CDATA #IMPLIED
		ewd:comment CDATA #IMPLIED >
	<!ATTLIST g
		ewd:lineID CDATA #IMPLIED
		ewd:groupID CDATA #IMPLIED
		ewd:figtype CDATA #IMPLIED
		ewd:code CDATA #IMPLIED
		ewd:figID CDATA #IMPLIED
		ewd:pinNo CDATA #IMPLIED
		ewd:comment CDATA #IMPLIED >
	<!ATTLIST text
		ewd:textID CDATA #IMPLIED >
	<!ATTLIST title
		ewd:textID CDATA #IMPLIED >
]>
<!-- Generator: Shintec Hozumi YS   -->
<svg onload="call_execInitLoadProc_svg('system')" style="overflow:visible;  enable-background:new 0 0 3054.362 710.000" viewBox="0 0 3054.362 710.000" height="710.000" width="3054.362" xml:space="preserve" ewd:ver="L2.1.2.7" xmlns="&ns_svg;" xmlns:a="http://ns.adobe.com/AdobeSVGViewerExtensions/3.0/" xmlns:ewd="http://shcl.co.jp/ewd" xmlns:xlink="&ns_xlink;">
<path d=" M 1676.34,  103.77  L 1672.10,  103.77 " style="stroke-width: 1.42 ;&st7; " /><path d=" M 1676.34,   95.27  L 1672.10,   95.27 " style="stroke-width: 1.42 ;&st7; " /><path d=" M 1597.73,  137.76  L 1597.73,  146.26 " style="stroke-width: 0.85 ;&st7; " /><path d=" M 1599.86,  171.76  L 1595.61,  171.76 " style="stroke-width: 1.42 ;&st7; " /><path d=" M 1599.86,  180.26  L 1595.61,  180.26 " style="stroke-width: 1.42 ;&st7; " /><path d=" M 1606.23,  265.24  L 1597.73,  265.24 " style="stroke-width: 1.42 ;&st7; " /><path d=" M 1759.21,  320.48  L 1759.21,  324.73 " style="stroke-width: 0.85 ;&st7; " /><path d=" M 1759.21,  307.73  L 1759.21,  311.98 " style="stroke-width: 0.85 ;&st7; " /><path d=" M 1793.20,  435.21  L 1801.70,  435.21 " style="stroke-width: 1.42 ;&st7; " /><path d=" M 1980.17,  282.24  L 1980.17,  294.99 " style="stroke-width: 0.85 ;&st7; " /><path d=" M 1852.69,  304.90  L 1852.69,  294.99 " style="stroke-width: 0.85 ;&st7; " /><path d=" M 1852.69,  265.24  L 1852.69,  286.49 " style="stroke-width: 0.85 ;&st7; " /><path d=" M 1844.19,  358.73  L 1844.19,  324.73 " style="stroke-width: 0.85 ;&st7; " /><path d=" M 1980.17,  316.23  L 1980.17,  303.48 " style="stroke-width: 0.85 ;&st7; " /><path d=" M 1903.68,  304.90  L 1903.68,  294.99 " style="stroke-width: 0.85 ;&st7; " /><path d=" M 1903.68,  273.74  L 1903.68,  286.49 " style="stroke-width: 0.85 ;&st7; " /><path d=" M 1895.18,  333.23  L 1895.18,  324.73 " style="stroke-width: 0.85 ;&st7; " /><path d=" M 1861.19,  176.73  L 1856.22,  171.76 " style="stroke-width: 1.42 ;&st7; " /><path d=" M 1844.19,  183.78  L 1849.16,  188.75 " style="stroke-width: 1.42 ;&st7; " /><path d=" M 1856.22,  188.75  L 1861.19,  183.78 " style="stroke-width: 1.42 ;&st7; " /><path d=" M 1849.16,  171.76  L 1844.19,  176.73 " style="stroke-width: 1.42 ;&st7; " /><path d=" M 1669.97,  316.23  L 1678.47,  316.23 " style="stroke-width: 0.85 ;&st7; " /><path d=" M 1686.95,  315.07  L 1679.59,  319.32 " style="stroke-width: 0.85 ;&st7; " /><path d=" M 1681.60,  322.78  L 1688.96,  318.54 " style="stroke-width: 0.85 ;&st7; " /><path d=" M 1997.17,  508.17  L 1992.19,  503.20 " style="stroke-width: 1.42 ;&st7; " /><path d=" M 1980.17,  515.23  L 1985.14,  520.20 " style="stroke-width: 1.42 ;&st7; " /><path d=" M 1992.19,  520.20  L 1997.17,  515.23 " style="stroke-width: 1.42 ;&st7; " /><path d=" M 1985.14,  503.20  L 1980.17,  508.17 " style="stroke-width: 1.42 ;&st7; " /><path d=" M 1988.67,  183.78  L 1993.64,  188.75 " style="stroke-width: 1.42 ;&st7; " /><path d=" M 1993.64,  171.76  L 1988.67,  176.73 " style="stroke-width: 1.42 ;&st7; " /><path d=" M 1688.96,  318.54  L 1686.62,  321.58  L 1685.15,  319.04  L 1688.96,  318.54  L 1687.67,  319.28  L 1686.69,  320.56  L 1686.07,  319.49  L 1687.67,  319.28  L 1687.03,  319.65  L 1686.72,  320.05  L 1686.53,  319.71  L 1687.03,  319.65 " style="stroke-width: 0.85 ;&st7; " /><path d=" M 1686.95,  315.07  L 1684.62,  318.11  L 1683.15,  315.57  L 1686.95,  315.07  L 1685.67,  315.81  L 1684.68,  317.09  L 1684.07,  316.02  L 1685.67,  315.81  L 1685.03,  316.18  L 1684.72,  316.58  L 1684.52,  316.24  L 1685.03,  316.18 " style="stroke-width: 0.85 ;&st7; " /><path d=" M 1674.22,  316.23  L 1679.89,  324.73  L 1668.55,  324.73  L 1674.22,  316.23 " style="stroke-width: 0.28 ;&st9;" /><path d=" M 1995.97,  315.23  L 1995.70,  315.70  L 1995.61,  316.23  L 1995.70,  316.77  L 1995.97,  317.24  L 1996.39,  317.58  L 1996.89,  317.77  L 1997.44,  317.77  L 1997.94,  317.58  L 1998.36,  317.24  L 1998.63,  316.77  L 1998.72,  316.23  L 1998.63,  315.70  L 1998.36,  315.23  L 1997.94,  314.88  L 1997.44,  314.70  L 1996.89,  314.70  L 1996.39,  314.88  L 1995.97,  315.23  L 1996.37,  315.94  L 1996.37,  316.52  L 1996.74,  316.97  L 1997.31,  317.07  L 1997.82,  316.78  L 1998.02,  316.23  L 1997.82,  315.69  L 1997.31,  315.40  L 1996.74,  315.50  L 1997.17,  316.23 " style="stroke-width: 0.85 ;&st7; " /><path d=" M 1995.97,  281.24  L 1995.70,  281.71  L 1995.61,  282.24  L 1995.70,  282.77  L 1995.97,  283.24  L 1996.39,  283.59  L 1996.89,  283.77  L 1997.44,  283.77  L 1997.94,  283.59  L 1998.36,  283.24  L 1998.63,  282.77  L 1998.72,  282.24  L 1998.63,  281.71  L 1998.36,  281.24  L 1997.94,  280.89  L 1997.44,  280.70  L 1996.89,  280.70  L 1996.39,  280.89  L 1995.97,  281.24  L 1996.37,  281.95  L 1996.37,  282.53  L 1996.74,  282.97  L 1997.31,  283.07  L 1997.82,  282.79  L 1998.02,  282.24  L 1997.82,  281.69  L 1997.31,  281.40  L 1996.74,  281.50  L 1997.17,  282.24 " style="stroke-width: 0.85 ;&st7; " /><path d=" M 1997.17,  321.90  L 1997.17,  316.23 " style="stroke-width: 0.85 ;&st7; " /><path d=" M 1997.17,  265.24  L 1997.17,  282.24 " style="stroke-width: 0.85 ;&st7; " /><path d=" M 1980.17,  282.24  L 2014.16,  282.24  L 2014.16,  290.74 " style="stroke-width: 0.85 ;&st7; " /><path d=" M 2014.16,  307.73  L 2014.16,  316.23  L 1980.17,  316.23 " style="stroke-width: 0.85 ;&st7; " /><path d=" M 1851.50,  272.74  L 1851.23,  273.21  L 1851.13,  273.74  L 1851.23,  274.27  L 1851.50,  274.74  L 1851.91,  275.09  L 1852.42,  275.28  L 1852.96,  275.28  L 1853.47,  275.09  L 1853.88,  274.74  L 1854.15,  274.27  L 1854.25,  273.74  L 1854.15,  273.21  L 1853.88,  272.74  L 1853.47,  272.39  L 1852.96,  272.20  L 1852.42,  272.20  L 1851.91,  272.39  L 1851.50,  272.74  L 1851.89,  273.45  L 1851.89,  274.03  L 1852.26,  274.48  L 1852.84,  274.58  L 1853.34,  274.29  L 1853.54,  273.74  L 1853.34,  273.19  L 1852.84,  272.90  L 1852.26,  273.00  L 1852.69,  273.74 " style="stroke-width: 0.85 ;&st7; " /><path d=" M 1843.00,  332.23  L 1842.73,  332.70  L 1842.63,  333.23  L 1842.73,  333.76  L 1843.00,  334.23  L 1843.41,  334.58  L 1843.92,  334.77  L 1844.46,  334.77  L 1844.97,  334.58  L 1845.38,  334.23  L 1845.66,  333.76  L 1845.75,  333.23  L 1845.66,  332.70  L 1845.38,  332.23  L 1844.97,  331.88  L 1844.46,  331.69  L 1843.92,  331.69  L 1843.41,  331.88  L 1843.00,  332.23  L 1843.39,  332.94  L 1843.39,  333.52  L 1843.77,  333.97  L 1844.34,  334.07  L 1844.84,  333.78  L 1845.04,  333.23  L 1844.84,  332.68  L 1844.34,  332.39  L 1843.77,  332.49  L 1844.19,  333.23 " style="stroke-width: 0.85 ;&st7; " /><path d=" M 1844.19,  333.23  L 1895.18,  333.23 " style="stroke-width: 0.85 ;&st7; " /><path d=" M 1912.18,  324.73  L 1912.18,  358.73 " style="stroke-width: 0.85 ;&st7; " /><path d=" M 1903.18,  307.64  L 1896.78,  324.73 " style="stroke-width: 1.42 ;&st7; " /><path d=" M 1910.99,  340.73  L 1910.72,  341.20  L 1910.62,  341.73  L 1910.72,  342.26  L 1910.99,  342.73  L 1911.40,  343.08  L 1911.91,  343.26  L 1912.45,  343.26  L 1912.96,  343.08  L 1913.37,  342.73  L 1913.64,  342.26  L 1913.74,  341.73  L 1913.64,  341.20  L 1913.37,  340.73  L 1912.96,  340.38  L 1912.45,  340.19  L 1911.91,  340.19  L 1911.40,  340.38  L 1910.99,  340.73  L 1911.38,  341.44  L 1911.38,  342.02  L 1911.75,  342.46  L 1912.33,  342.56  L 1912.83,  342.28  L 1913.03,  341.73  L 1912.83,  341.18  L 1912.33,  340.89  L 1911.75,  340.99  L 1912.18,  341.73 " style="stroke-width: 0.85 ;&st7; " /><path d=" M 1861.19,  324.73  L 1861.19,  341.73  L 1912.18,  341.73 " style="stroke-width: 0.85 ;&st7; " /><path d=" M 1852.69,  273.74  L 1903.68,  273.74 " style="stroke-width: 0.85 ;&st7; " /><path d=" M 1852.19,  307.64  L 1845.79,  324.73 " style="stroke-width: 1.42 ;&st7; " /><path d=" M 1827.19,  265.24  L 1827.19,  358.73  L 1929.18,  358.73  L 1929.18,  265.24  L 1827.19,  265.24 " style="stroke-width: 1.42 ;&st7; " /><path d=" M 1805.95,  429.55  L 1801.70,  433.80  L 1797.45,  429.55 " style="stroke-width: 1.42 ;&st7; " /><path d=" M 1797.45,  426.15  L 1801.70,  430.40  L 1805.95,  426.15 " style="stroke-width: 1.42 ;&st7; " /><path d=" M 1963.17,  265.24  L 2031.16,  265.24  L 2031.16,  358.73  L 1963.17,  358.73  L 1963.17,  265.24 " style="stroke-width: 1.42 ;&st7; " /><path d=" M 1996.67,  324.64  L 1990.26,  341.73 " style="stroke-width: 1.42 ;&st7; " /><path d=" M 1759.21,  477.71  L 1759.21,  494.70 " style="stroke-width: 0.85 ;&st7; " /><path d=" M 1715.52,  179.25  L 1715.25,  179.72  L 1715.15,  180.26  L 1715.25,  180.79  L 1715.52,  181.26  L 1715.93,  181.60  L 1716.44,  181.79  L 1716.98,  181.79  L 1717.49,  181.60  L 1717.91,  181.26  L 1718.18,  180.79  L 1718.27,  180.26  L 1718.18,  179.72  L 1717.91,  179.25  L 1717.49,  178.91  L 1716.98,  178.72  L 1716.44,  178.72  L 1715.93,  178.91  L 1715.52,  179.25  L 1715.91,  179.96  L 1715.91,  180.55  L 1716.29,  180.99  L 1716.86,  181.09  L 1717.36,  180.80  L 1717.56,  180.26  L 1717.36,  179.71  L 1716.86,  179.42  L 1716.29,  179.52  L 1716.71,  180.26 " style="stroke-width: 0.85 ;&st7; " /><path d=" M 1801.70,  477.71  L 1801.70,  494.70  L 1674.22,  494.70 " style="stroke-width: 0.85 ;&st7; " /><path d=" M 1715.52,  153.76  L 1715.25,  154.23  L 1715.15,  154.76  L 1715.25,  155.29  L 1715.52,  155.76  L 1715.93,  156.11  L 1716.44,  156.30  L 1716.98,  156.30  L 1717.49,  156.11  L 1717.91,  155.76  L 1718.18,  155.29  L 1718.27,  154.76  L 1718.18,  154.23  L 1717.91,  153.76  L 1717.49,  153.41  L 1716.98,  153.22  L 1716.44,  153.22  L 1715.93,  153.41  L 1715.52,  153.76  L 1715.91,  154.47  L 1715.91,  155.05  L 1716.29,  155.50  L 1716.86,  155.60  L 1717.36,  155.31  L 1717.56,  154.76  L 1717.36,  154.21  L 1716.86,  153.92  L 1716.29,  154.02  L 1716.71,  154.76 " style="stroke-width: 0.85 ;&st7; " /><path d=" M 1674.22,  477.71  L 1674.22,  511.70 " style="stroke-width: 0.85 ;&st7; " /><path d=" M 1716.71,  154.76  L 1716.71,  180.26 " style="stroke-width: 0.85 ;&st7; " /><path d=" M 1699.72,  154.76  L 1733.71,  154.76 " style="stroke-width: 0.85 ;&st7; " /><path d=" M 1699.72,  180.26  L 1733.71,  180.26 " style="stroke-width: 0.85 ;&st7; " /><path d=" M 1673.03,  493.70  L 1672.75,  494.17  L 1672.66,  494.70  L 1672.75,  495.24  L 1673.03,  495.71  L 1673.44,  496.05  L 1673.95,  496.24  L 1674.49,  496.24  L 1675.00,  496.05  L 1675.41,  495.71  L 1675.68,  495.24  L 1675.78,  494.70  L 1675.68,  494.17  L 1675.41,  493.70  L 1675.00,  493.35  L 1674.49,  493.17  L 1673.95,  493.17  L 1673.44,  493.35  L 1673.03,  493.70  L 1673.42,  494.41  L 1673.42,  494.99  L 1673.79,  495.44  L 1674.37,  495.54  L 1674.87,  495.25  L 1675.07,  494.70  L 1674.87,  494.16  L 1674.37,  493.87  L 1673.79,  493.97  L 1674.22,  494.70 " style="stroke-width: 0.85 ;&st7; " /><path d=" M 1674.22,  282.24  L 1674.22,  350.23 " style="stroke-width: 0.85 ;&st7; " /><path d=" M 1758.01,  493.70  L 1757.74,  494.17  L 1757.65,  494.70  L 1757.74,  495.24  L 1758.01,  495.71  L 1758.43,  496.05  L 1758.93,  496.24  L 1759.48,  496.24  L 1759.98,  496.05  L 1760.40,  495.71  L 1760.67,  495.24  L 1760.76,  494.70  L 1760.67,  494.17  L 1760.40,  493.70  L 1759.98,  493.35  L 1759.48,  493.17  L 1758.93,  493.17  L 1758.43,  493.35  L 1758.01,  493.70  L 1758.41,  494.41  L 1758.41,  494.99  L 1758.78,  495.44  L 1759.35,  495.54  L 1759.86,  495.25  L 1760.06,  494.70  L 1759.86,  494.16  L 1759.35,  493.87  L 1758.78,  493.97  L 1759.21,  494.70 " style="stroke-width: 0.85 ;&st7; " /><path d=" M 1640.23,  282.24  L 1640.23,  350.23  L 1699.72,  350.23  L 1699.72,  282.24  L 1640.23,  282.24 " style="stroke-width: 1.42 ;&st7; " /><path d=" M 1708.21,  146.26  L 1708.21,  188.75 " style="stroke-width: 1.13 ;&st7;stroke-dasharray:3, 1.5;" /><path d=" M 1699.72,  146.26  L 1699.72,  188.75  L 1733.71,  188.75  L 1733.71,  146.26  L 1699.72,  146.26 " style="stroke-width: 1.42 ;&st7; " /><path d=" M 1725.21,  146.26  L 1725.21,  188.75 " style="stroke-width: 1.13 ;&st7;stroke-dasharray:3, 1.5;" /><path d=" M 1665.72,  503.20  L 1810.20,  503.20 " style="stroke-width: 1.13 ;&st7;stroke-dasharray:3, 1.5;" /><path d=" M 1665.72,  486.20  L 1810.20,  486.20 " style="stroke-width: 1.13 ;&st7;stroke-dasharray:3, 1.5;" /><path d=" M 1665.72,  477.71  L 1665.72,  511.70  L 1810.20,  511.70  L 1810.20,  477.71  L 1665.72,  477.71 " style="stroke-width: 1.42 ;&st7; " /><path d=" M 1601.98,  270.91  L 1597.73,  266.66  L 1593.48,  270.91 " style="stroke-width: 1.42 ;&st7; " /><path d=" M 1601.98,  274.31  L 1597.73,  270.06  L 1593.48,  274.31 " style="stroke-width: 1.42 ;&st7; " /><path d=" M 1597.73,  166.86  L 1594.90,  164.03  L 1594.90,  168.28  L 1597.73,  171.11  L 1600.57,  168.28  L 1600.57,  164.03  L 1597.73,  166.86 " style="stroke-width: 0.28 ;&st9;" /><path d=" M 1597.73,  171.76  L 1597.73,  146.26 " style="stroke-width: 0.85 ;&st7; " /><path d=" M 1610.48,  146.26  L 1610.48,  103.77  L 1584.98,  103.77  L 1584.98,  146.26  L 1610.48,  146.26 " style="stroke-width: 1.42 ;&st7; " /><path d=" M 1674.22,   90.37  L 1671.39,   87.54  L 1671.39,   91.79  L 1674.22,   94.62  L 1677.05,   91.79  L 1677.05,   87.54  L 1674.22,   90.37 " style="stroke-width: 0.28 ;&st9;" /><path d=" M 1674.22,   69.77  L 1674.22,   95.27 " style="stroke-width: 0.85 ;&st7; " /><path d=" M 1988.67,  341.73  L 1988.67,  358.73 " style="stroke-width: 0.85 ;&st7; " /><path d=" M 1500.28,   74.31  C 1500.28    71.80  1498.25    69.77  1495.75    69.77 " style="stroke-width: 1.42 ;&st7; " /><path d=" M 1680.59,   99.52  C 1680.59    97.17  1678.69    95.27  1676.34    95.27 " style="stroke-width: 1.42 ;&st7; " /><path d=" M 1676.34,  103.77  C 1678.69   103.77  1680.59   101.87  1680.59    99.52 " style="stroke-width: 1.42 ;&st7; " /><path d=" M 1667.85,   99.52  C 1667.85   101.87  1669.75   103.77  1672.10   103.77 " style="stroke-width: 1.42 ;&st7; " /><path d=" M 1672.10,   95.27  C 1669.75    95.27  1667.85    97.17  1667.85    99.52 " style="stroke-width: 1.42 ;&st7; " /><path d=" M 1597.73,  115.10  C 1595.00   116.71  1594.08   120.24  1595.70   122.98 " style="stroke-width: 1.42 ;&st7; " /><path d=" M 1595.70,  122.98  C 1596.22   123.86  1596.85   124.49  1597.73   125.01 " style="stroke-width: 1.42 ;&st7; " /><path d=" M 1597.73,  134.93  C 1600.47   133.32  1601.38   129.79  1599.77   127.05 " style="stroke-width: 1.42 ;&st7; " /><path d=" M 1599.77,  127.05  C 1599.25   126.17  1598.62   125.53  1597.73   125.01 " style="stroke-width: 1.42 ;&st7; " /><path d=" M 1599.15,  113.68  C 1599.15   112.90  1598.52   112.27  1597.73   112.27 " style="stroke-width: 0.85 ;&st7; " /><path d=" M 1597.73,  112.27  C 1596.95   112.27  1596.32   112.90  1596.32   113.68 " style="stroke-width: 0.85 ;&st7; " /><path d=" M 1596.32,  113.68  C 1596.32   114.47  1596.95   115.10  1597.73   115.10 " style="stroke-width: 0.85 ;&st7; " /><path d=" M 1597.73,  115.10  C 1598.52   115.10  1599.15   114.47  1599.15   113.68 " style="stroke-width: 0.85 ;&st7; " /><path d=" M 1599.15,  136.35  C 1599.15   135.56  1598.52   134.93  1597.73   134.93 " style="stroke-width: 0.85 ;&st7; " /><path d=" M 1597.73,  134.93  C 1596.95   134.93  1596.32   135.56  1596.32   136.35 " style="stroke-width: 0.85 ;&st7; " /><path d=" M 1596.32,  136.35  C 1596.32   137.13  1596.95   137.76  1597.73   137.76 " style="stroke-width: 0.85 ;&st7; " /><path d=" M 1597.73,  137.76  C 1598.52   137.76  1599.15   137.13  1599.15   136.35 " style="stroke-width: 0.85 ;&st7; " /><path d=" M 1595.61,  171.76  C 1593.26   171.76  1591.36   173.66  1591.36   176.01 " style="stroke-width: 1.42 ;&st7; " /><path d=" M 1591.36,  176.01  C 1591.36   178.35  1593.26   180.26  1595.61   180.26 " style="stroke-width: 1.42 ;&st7; " /><path d=" M 1599.86,  180.26  C 1602.20   180.26  1604.11   178.35  1604.11   176.01 " style="stroke-width: 1.42 ;&st7; " /><path d=" M 1604.11,  176.01  C 1604.11   173.66  1602.20   171.76  1599.86   171.76 " style="stroke-width: 1.42 ;&st7; " /><path d=" M 1678.75,  516.23  C 1678.75   513.73  1676.72   511.70  1674.22   511.70 " style="stroke-width: 1.42 ;&st7; " /><path d=" M 1674.22,  511.70  C 1671.72   511.70  1669.69   513.73  1669.69   516.23 " style="stroke-width: 1.42 ;&st7; " /><path d=" M 1669.69,  516.23  C 1669.69   518.74  1671.72   520.76  1674.22   520.76 " style="stroke-width: 1.42 ;&st7; " /><path d=" M 1674.22,  520.76  C 1676.72   520.76  1678.75   518.74  1678.75   516.23 " style="stroke-width: 1.42 ;&st7; " /><path d=" M 1678.75,  473.17  C 1678.75   470.67  1676.72   468.64  1674.22   468.64 " style="stroke-width: 1.42 ;&st7; " /><path d=" M 1674.22,  468.64  C 1671.72   468.64  1669.69   470.67  1669.69   473.17 " style="stroke-width: 1.42 ;&st7; " /><path d=" M 1669.69,  473.17  C 1669.69   475.68  1671.72   477.71  1674.22   477.71 " style="stroke-width: 1.42 ;&st7; " /><path d=" M 1674.22,  477.71  C 1676.72   477.71  1678.75   475.68  1678.75   473.17 " style="stroke-width: 1.42 ;&st7; " /><path d=" M 1763.74,  473.17  C 1763.74   470.67  1761.71   468.64  1759.21   468.64 " style="stroke-width: 1.42 ;&st7; " /><path d=" M 1759.21,  468.64  C 1756.70   468.64  1754.67   470.67  1754.67   473.17 " style="stroke-width: 1.42 ;&st7; " /><path d=" M 1754.67,  473.17  C 1754.67   475.68  1756.70   477.71  1759.21   477.71 " style="stroke-width: 1.42 ;&st7; " /><path d=" M 1759.21,  477.71  C 1761.71   477.71  1763.74   475.68  1763.74   473.17 " style="stroke-width: 1.42 ;&st7; " /><path d=" M 1699.72,  180.26  C 1699.72   177.75  1697.69   175.72  1695.18   175.72 " style="stroke-width: 1.42 ;&st7; " /><path d=" M 1695.18,  175.72  C 1692.68   175.72  1690.65   177.75  1690.65   180.26 " style="stroke-width: 1.42 ;&st7; " /><path d=" M 1690.65,  180.26  C 1690.65   182.76  1692.68   184.79  1695.18   184.79 " style="stroke-width: 1.42 ;&st7; " /><path d=" M 1695.18,  184.79  C 1697.69   184.79  1699.72   182.76  1699.72   180.26 " style="stroke-width: 1.42 ;&st7; " /><path d=" M 1742.78,  154.76  C 1742.78   152.26  1740.75   150.23  1738.24   150.23 " style="stroke-width: 1.42 ;&st7; " /><path d=" M 1738.24,  150.23  C 1735.74   150.23  1733.71   152.26  1733.71   154.76 " style="stroke-width: 1.42 ;&st7; " /><path d=" M 1733.71,  154.76  C 1733.71   157.26  1735.74   159.29  1738.24   159.29 " style="stroke-width: 1.42 ;&st7; " /><path d=" M 1738.24,  159.29  C 1740.75   159.29  1742.78   157.26  1742.78   154.76 " style="stroke-width: 1.42 ;&st7; " /><path d=" M 1742.78,  180.26  C 1742.78   177.75  1740.75   175.72  1738.24   175.72 " style="stroke-width: 1.42 ;&st7; " /><path d=" M 1738.24,  175.72  C 1735.74   175.72  1733.71   177.75  1733.71   180.26 " style="stroke-width: 1.42 ;&st7; " /><path d=" M 1733.71,  180.26  C 1733.71   182.76  1735.74   184.79  1738.24   184.79 " style="stroke-width: 1.42 ;&st7; " /><path d=" M 1738.24,  184.79  C 1740.75   184.79  1742.78   182.76  1742.78   180.26 " style="stroke-width: 1.42 ;&st7; " /><path d=" M 1699.72,  154.76  C 1699.72   152.26  1697.69   150.23  1695.18   150.23 " style="stroke-width: 1.42 ;&st7; " /><path d=" M 1695.18,  150.23  C 1692.68   150.23  1690.65   152.26  1690.65   154.76 " style="stroke-width: 1.42 ;&st7; " /><path d=" M 1690.65,  154.76  C 1690.65   157.26  1692.68   159.29  1695.18   159.29 " style="stroke-width: 1.42 ;&st7; " /><path d=" M 1695.18,  159.29  C 1697.69   159.29  1699.72   157.26  1699.72   154.76 " style="stroke-width: 1.42 ;&st7; " /><path d=" M 1767.70,  316.23  C 1767.70   311.54  1763.90   307.73  1759.21   307.73 " style="stroke-width: 1.42 ;&st7; " /><path d=" M 1759.21,  307.73  C 1754.51   307.73  1750.71   311.54  1750.71   316.23 " style="stroke-width: 1.42 ;&st7; " /><path d=" M 1750.71,  316.23  C 1750.71   320.93  1754.51   324.73  1759.21   324.73 " style="stroke-width: 1.42 ;&st7; " /><path d=" M 1759.21,  324.73  C 1763.90   324.73  1767.70   320.93  1767.70   316.23 " style="stroke-width: 1.42 ;&st7; " /><path d=" M 1756.80,  316.23  C 1757.59   317.57  1759.32   318.02  1760.66   317.22 " style="stroke-width: 0.85 ;&st7; " /><path d=" M 1760.66,  317.22  C 1762.00   316.43  1762.44   314.70  1761.65   313.37 " style="stroke-width: 0.85 ;&st7; " /><path d=" M 1761.65,  313.37  C 1761.12   312.48  1760.24   311.98  1759.21   311.98 " style="stroke-width: 0.85 ;&st7; " /><path d=" M 1759.21,  320.48  C 1760.76   320.49  1762.03   319.24  1762.04   317.68 " style="stroke-width: 0.85 ;&st7; " /><path d=" M 1762.04,  317.68  C 1762.05   316.13  1760.80   314.86  1759.24   314.85 " style="stroke-width: 0.85 ;&st7; " /><path d=" M 1759.24,  314.85  C 1758.21   314.84  1757.32   315.34  1756.80   316.23 " style="stroke-width: 0.85 ;&st7; " /><path d=" M 1990.08,  340.31  C 1990.08   339.53  1989.45   338.90  1988.67   338.90 " style="stroke-width: 0.85 ;&st7; " /><path d=" M 1988.67,  338.90  C 1987.89   338.90  1987.25   339.53  1987.25   340.31 " style="stroke-width: 0.85 ;&st7; " /><path d=" M 1987.25,  340.31  C 1987.25   341.09  1987.89   341.73  1988.67   341.73 " style="stroke-width: 0.85 ;&st7; " /><path d=" M 1988.67,  341.73  C 1989.45   341.73  1990.08   341.09  1990.08   340.31 " style="stroke-width: 0.85 ;&st7; " /><path d=" M 1980.17,  303.48  C 1981.72   303.49  1982.99   302.24  1983.00   300.69 " style="stroke-width: 0.85 ;&st7; " /><path d=" M 1983.00,  300.69  C 1983.01   299.13  1981.76   297.86  1980.20   297.85 " style="stroke-width: 0.85 ;&st7; " /><path d=" M 1980.20,  297.85  C 1979.17   297.85  1978.29   298.35  1977.76   299.24 " style="stroke-width: 0.85 ;&st7; " /><path d=" M 1806.23,  473.17  C 1806.23   470.67  1804.20   468.64  1801.70   468.64 " style="stroke-width: 1.42 ;&st7; " /><path d=" M 1801.70,  468.64  C 1799.20   468.64  1797.17   470.67  1797.17   473.17 " style="stroke-width: 1.42 ;&st7; " /><path d=" M 1797.17,  473.17  C 1797.17   475.68  1799.20   477.71  1801.70   477.71 " style="stroke-width: 1.42 ;&st7; " /><path d=" M 1801.70,  477.71  C 1804.20   477.71  1806.23   475.68  1806.23   473.17 " style="stroke-width: 1.42 ;&st7; " /><path d=" M 1977.76,  299.24  C 1978.55   300.57  1980.28   301.02  1981.62   300.23 " style="stroke-width: 0.85 ;&st7; " /><path d=" M 1981.62,  300.23  C 1982.96   299.44  1983.40   297.71  1982.61   296.37 " style="stroke-width: 0.85 ;&st7; " /><path d=" M 1982.61,  296.37  C 1982.09   295.48  1981.20   294.98  1980.17   294.99 " style="stroke-width: 0.85 ;&st7; " /><path d=" M 1998.58,  323.31  C 1998.58   322.53  1997.95   321.90  1997.17   321.90 " style="stroke-width: 0.85 ;&st7; " /><path d=" M 1997.17,  321.90  C 1996.38   321.90  1995.75   322.53  1995.75   323.31 " style="stroke-width: 0.85 ;&st7; " /><path d=" M 1995.75,  323.31  C 1995.75   324.10  1996.38   324.73  1997.17   324.73 " style="stroke-width: 0.85 ;&st7; " /><path d=" M 1997.17,  324.73  C 1997.95   324.73  1998.58   324.10  1998.58   323.31 " style="stroke-width: 0.85 ;&st7; " /><path d=" M 1988.67,  299.24  C 1988.67   294.54  1984.86   290.74  1980.17   290.74 " style="stroke-width: 1.42 ;&st7; " /><path d=" M 1980.17,  290.74  C 1975.48   290.74  1971.67   294.54  1971.67   299.24 " style="stroke-width: 1.42 ;&st7; " /><path d=" M 1971.67,  299.24  C 1971.67   303.93  1975.48   307.73  1980.17   307.73 " style="stroke-width: 1.42 ;&st7; " /><path d=" M 1980.17,  307.73  C 1984.86   307.73  1988.67   303.93  1988.67   299.24 " style="stroke-width: 1.42 ;&st7; " /><path d=" M 1861.19,  290.74  C 1861.19   286.04  1857.38   282.24  1852.69   282.24 " style="stroke-width: 1.42 ;&st7; " /><path d=" M 1852.69,  282.24  C 1848.00   282.24  1844.19   286.04  1844.19   290.74 " style="stroke-width: 1.42 ;&st7; " /><path d=" M 1844.19,  290.74  C 1844.19   295.43  1848.00   299.24  1852.69   299.24 " style="stroke-width: 1.42 ;&st7; " /><path d=" M 1852.69,  299.24  C 1857.38   299.24  1861.19   295.43  1861.19   290.74 " style="stroke-width: 1.42 ;&st7; " /><path d=" M 1854.11,  306.32  C 1854.11   305.54  1853.47   304.90  1852.69   304.90 " style="stroke-width: 0.85 ;&st7; " /><path d=" M 1852.69,  304.90  C 1851.91   304.90  1851.27   305.54  1851.27   306.32 " style="stroke-width: 0.85 ;&st7; " /><path d=" M 1851.27,  306.32  C 1851.27   307.10  1851.91   307.73  1852.69   307.73 " style="stroke-width: 0.85 ;&st7; " /><path d=" M 1852.69,  307.73  C 1853.47   307.73  1854.11   307.10  1854.11   306.32 " style="stroke-width: 0.85 ;&st7; " /><path d=" M 1862.61,  323.31  C 1862.61   322.53  1861.97   321.90  1861.19   321.90 " style="stroke-width: 0.85 ;&st7; " /><path d=" M 1861.19,  321.90  C 1860.41   321.90  1859.77   322.53  1859.77   323.31 " style="stroke-width: 0.85 ;&st7; " /><path d=" M 1859.77,  323.31  C 1859.77   324.10  1860.41   324.73  1861.19   324.73 " style="stroke-width: 0.85 ;&st7; " /><path d=" M 1861.19,  324.73  C 1861.97   324.73  1862.61   324.10  1862.61   323.31 " style="stroke-width: 0.85 ;&st7; " /><path d=" M 1850.28,  290.74  C 1851.07   292.08  1852.80   292.52  1854.14   291.73 " style="stroke-width: 0.85 ;&st7; " /><path d=" M 1854.14,  291.73  C 1855.48   290.94  1855.92   289.21  1855.13   287.87 " style="stroke-width: 0.85 ;&st7; " /><path d=" M 1855.13,  287.87  C 1854.61   286.98  1853.72   286.48  1852.69   286.49 " style="stroke-width: 0.85 ;&st7; " /><path d=" M 1852.69,  294.99  C 1854.25   295.00  1855.51   293.74  1855.52   292.19 " style="stroke-width: 0.85 ;&st7; " /><path d=" M 1855.52,  292.19  C 1855.53   290.63  1854.28   289.36  1852.72   289.35 " style="stroke-width: 0.85 ;&st7; " /><path d=" M 1852.72,  289.35  C 1851.69   289.35  1850.81   289.85  1850.28   290.74 " style="stroke-width: 0.85 ;&st7; " /><path d=" M 1845.61,  323.31  C 1845.61   322.53  1844.97   321.90  1844.19   321.90 " style="stroke-width: 0.85 ;&st7; " /><path d=" M 1844.19,  321.90  C 1843.41   321.90  1842.78   322.53  1842.78   323.31 " style="stroke-width: 0.85 ;&st7; " /><path d=" M 1842.78,  323.31  C 1842.78   324.10  1843.41   324.73  1844.19   324.73 " style="stroke-width: 0.85 ;&st7; " /><path d=" M 1844.19,  324.73  C 1844.97   324.73  1845.61   324.10  1845.61   323.31 " style="stroke-width: 0.85 ;&st7; " /><path d=" M 1912.18,  290.74  C 1912.18   286.04  1908.38   282.24  1903.68   282.24 " style="stroke-width: 1.42 ;&st7; " /><path d=" M 1903.68,  282.24  C 1898.99   282.24  1895.18   286.04  1895.18   290.74 " style="stroke-width: 1.42 ;&st7; " /><path d=" M 1895.18,  290.74  C 1895.18   295.43  1898.99   299.24  1903.68   299.24 " style="stroke-width: 1.42 ;&st7; " /><path d=" M 1903.68,  299.24  C 1908.38   299.24  1912.18   295.43  1912.18   290.74 " style="stroke-width: 1.42 ;&st7; " /><path d=" M 1905.10,  306.32  C 1905.10   305.54  1904.46   304.90  1903.68   304.90 " style="stroke-width: 0.85 ;&st7; " /><path d=" M 1903.68,  304.90  C 1902.90   304.90  1902.27   305.54  1902.27   306.32 " style="stroke-width: 0.85 ;&st7; " /><path d=" M 1902.27,  306.32  C 1902.27   307.10  1902.90   307.73  1903.68   307.73 " style="stroke-width: 0.85 ;&st7; " /><path d=" M 1903.68,  307.73  C 1904.46   307.73  1905.10   307.10  1905.10   306.32 " style="stroke-width: 0.85 ;&st7; " /><path d=" M 1913.60,  323.31  C 1913.60   322.53  1912.96   321.90  1912.18   321.90 " style="stroke-width: 0.85 ;&st7; " /><path d=" M 1912.18,  321.90  C 1911.40   321.90  1910.76   322.53  1910.76   323.31 " style="stroke-width: 0.85 ;&st7; " /><path d=" M 1910.76,  323.31  C 1910.76   324.10  1911.40   324.73  1912.18   324.73 " style="stroke-width: 0.85 ;&st7; " /><path d=" M 1912.18,  324.73  C 1912.96   324.73  1913.60   324.10  1913.60   323.31 " style="stroke-width: 0.85 ;&st7; " /><path d=" M 1901.27,  290.74  C 1902.07   292.08  1903.79   292.52  1905.13   291.73 " style="stroke-width: 0.85 ;&st7; " /><path d=" M 1905.13,  291.73  C 1906.47   290.94  1906.92   289.21  1906.12   287.87 " style="stroke-width: 0.85 ;&st7; " /><path d=" M 1906.12,  287.87  C 1905.60   286.98  1904.71   286.48  1903.68   286.49 " style="stroke-width: 0.85 ;&st7; " /><path d=" M 1903.68,  294.99  C 1905.24   295.00  1906.51   293.74  1906.51   292.19 " style="stroke-width: 0.85 ;&st7; " /><path d=" M 1906.51,  292.19  C 1906.52   290.63  1905.27   289.36  1903.72   289.35 " style="stroke-width: 0.85 ;&st7; " /><path d=" M 1903.72,  289.35  C 1902.68   289.35  1901.80   289.85  1901.27   290.74 " style="stroke-width: 0.85 ;&st7; " /><path d=" M 1896.60,  323.31  C 1896.60   322.53  1895.97   321.90  1895.18   321.90 " style="stroke-width: 0.85 ;&st7; " /><path d=" M 1895.18,  321.90  C 1894.40   321.90  1893.77   322.53  1893.77   323.31 " style="stroke-width: 0.85 ;&st7; " /><path d=" M 1893.77,  323.31  C 1893.77   324.10  1894.40   324.73  1895.18   324.73 " style="stroke-width: 0.85 ;&st7; " /><path d=" M 1895.18,  324.73  C 1895.97   324.73  1896.60   324.10  1896.60   323.31 " style="stroke-width: 0.85 ;&st7; " /><path d=" M 1912.18,  401.22  C 1914.39   403.04  1917.52   402.98  1919.67   401.08 " style="stroke-width: 1.42 ;&st7; " /><path d=" M 1912.18,  401.22  C 1909.97   399.40  1906.84   399.46  1904.70   401.36 " style="stroke-width: 1.42 ;&st7; " /><path d=" M 1997.17,  256.18  C 1994.66   256.18  1992.63   258.21  1992.63   260.71 " style="stroke-width: 1.42 ;&st7; " /><path d=" M 1992.63,  260.71  C 1992.63   263.21  1994.66   265.24  1997.17   265.24 " style="stroke-width: 1.42 ;&st7; " /><path d=" M 1997.17,  265.24  C 1999.67   265.24  2001.70   263.21  2001.70   260.71 " style="stroke-width: 1.42 ;&st7; " /><path d=" M 1993.20,  363.26  C 1993.20   360.75  1991.17   358.73  1988.67   358.73 " style="stroke-width: 1.42 ;&st7; " /><path d=" M 1988.67,  358.73  C 1986.16   358.73  1984.14   360.75  1984.14   363.26 " style="stroke-width: 1.42 ;&st7; " /><path d=" M 1984.14,  363.26  C 1984.14   365.76  1986.16   367.79  1988.67   367.79 " style="stroke-width: 1.42 ;&st7; " /><path d=" M 1988.67,  367.79  C 1991.17   367.79  1993.20   365.76  1993.20   363.26 " style="stroke-width: 1.42 ;&st7; " /><path d=" M 1993.20,  372.32  C 1993.20   369.82  1991.17   367.79  1988.67   367.79 " style="stroke-width: 1.42 ;&st7; " /><path d=" M 1988.67,  367.79  C 1986.16   367.79  1984.14   369.82  1984.14   372.32 " style="stroke-width: 1.42 ;&st7; " /><path d=" M 1984.14,  372.32  C 1984.14   374.83  1986.16   376.86  1988.67   376.86 " style="stroke-width: 1.42 ;&st7; " /><path d=" M 1988.67,  376.86  C 1991.17   376.86  1993.20   374.83  1993.20   372.32 " style="stroke-width: 1.42 ;&st7; " /><path d=" M 1997.17,  247.11  C 1994.66   247.11  1992.63   249.14  1992.63   251.64 " style="stroke-width: 1.42 ;&st7; " /><path d=" M 1992.63,  251.64  C 1992.63   254.15  1994.66   256.18  1997.17   256.18 " style="stroke-width: 1.42 ;&st7; " /><path d=" M 1997.17,  256.18  C 1999.67   256.18  2001.70   254.15  2001.70   251.64 " style="stroke-width: 1.42 ;&st7; " /><text style="&st18;" transform="matrix(&st17;  1511.86  369.75 )">A40</text><text ewd:textID="33" style="&st18;" transform="matrix(&st17;  1518.97  369.75 )">Wireless Door Lock Buzzer</text><text ewd:textID="16" style="&st18;" transform="matrix(&st17;  1518.97  624.71 )">Junction Connector</text><text style="&st18;" transform="matrix(&st17;  1511.86  624.71 )">A54</text><text ewd:textID="18" style="&st18;" transform="matrix(&st16;  1799.17  53.33 )">Main Body ECU</text><text style="&st18;" transform="matrix(&st16;  1799.17  46.22 )">H1(A),H2(B),H3(C),H4(D)</text><text style="&st18;" transform="matrix(&st17;  1798.0  461.12 )">BE</text><text style="&st18;" transform="matrix(&st16;  1668.92  66.08 )">ILE</text><text style="&st18;" transform="matrix(&st16;  1658.35  101.49 )">51</text><text style="&st18;" transform="matrix(&st16;  1669.28  101.49 )">DD</text><text style="&st18;" transform="matrix(&st16;  1588.62  100.07 )">(BAT)</text><text style="&st18;" transform="matrix(&st16;  1615.04  124.16 )">7.5A <tspan dy="6" x="0">DOME</tspan></text><text style="&st18;" transform="matrix(&st16;  1596.14  177.98 )">1</text><text style="&st18;" transform="matrix(&st17;  1594.04  225.22 )">R</text><text style="&st18;" transform="matrix(&st16;  1590.94  154.45 )">2</text><text style="&st18;" transform="matrix(&st16;  1579.74  262.96 )">19</text><text style="&st18;" transform="matrix(&st17;  1594.04  301.57 )">Y</text><text style="&st18;" transform="matrix(&st16;  1671.89  518.2 )">B</text><text style="&st18;" transform="matrix(&st16;  1659.39  518.2 )">20</text><text style="&st18;" transform="matrix(&st16;  1671.89  475.14 )">A</text><text style="&st18;" transform="matrix(&st16;  1660.16  475.14 )">13</text><text style="&st18;" transform="matrix(&st16;  1756.87  475.14 )">A</text><text style="&st18;" transform="matrix(&st16;  1745.15  475.14 )">12</text><text ewd:textID="16" style="&st18;" transform="matrix(&st16;  1697.19  526.42 )">Junction Connector</text><text style="&st18;" transform="matrix(&st16;  1697.19  519.31 )">H77(A),H78(B)</text><text style="&st18;" transform="matrix(&st16;  1664.25  77.97 )">21</text><text style="&st18;" transform="matrix(&st16;  1693.21  173.73 )">4</text><text style="&st18;" transform="matrix(&st16;  1692.85  182.22 )">A</text><text style="&st18;" transform="matrix(&st16;  1693.21  148.23 )">3</text><text style="&st18;" transform="matrix(&st16;  1692.85  156.73 )">A</text><text style="&st18;" transform="matrix(&st16;  1735.91  156.73 )">B</text><text style="&st18;" transform="matrix(&st16;  1736.26  148.23 )">3</text><text style="&st18;" transform="matrix(&st16;  1735.91  182.22 )">B</text><text style="&st18;" transform="matrix(&st16;  1736.26  173.73 )">4</text><text style="&st18;" transform="matrix(&st17;  1670.52  134.49 )">GR</text><text style="&st18;" transform="matrix(&st16;  1821.97  176.56 )">GR</text><text ewd:textID="16" style="&st18;" transform="matrix(&st16;  1697.19  203.47 )">Junction <tspan dy="6" x="0">Connector</tspan></text><text style="&st18;" transform="matrix(&st16;  1697.19  196.36 )">H88(A),H89(B)</text><text style="&st18;" transform="matrix(&st17;  1670.52  225.5 )">G</text><text style="&st18;" transform="matrix(&st16;  1667.43  358.42 )">2</text><text style="&st18;" transform="matrix(&st16;  1667.43  278.55 )">3</text><text style="&st18;" transform="matrix(&st16;  1677.05  346.54 )">ILL+</text><text style="&st18;" transform="matrix(&st16;  1677.05  290.43 )">ILL-</text><text style="&st18;" transform="matrix(&st16;  1898.45  176.56 )">GR</text><text ewd:textID="29" style="&st18;" transform="matrix(&st17;  1714.43  352.75 )">Transponder Key Amplifier</text><text style="&st18;" transform="matrix(&st17;  1707.33  352.75 )">H127</text><text ewd:textID="14" style="&st18;" transform="matrix(&st17;  1656.1  337.89 )">Ignition Key <tspan dy="6" x="-0.01">Cylinder Light</tspan></text><text style="&st18;" transform="matrix(&st17;  1993.47  236.47 )">GR</text><text style="&st18;" transform="matrix(&st16;  1753.19  332.92 )">1</text><text style="&st18;" transform="matrix(&st16;  1752.42  304.04 )">2</text><text style="&st18;" transform="matrix(&st17;  1670.52  386.55 )">B</text><text style="&st18;" transform="matrix(&st17;  1755.51  386.2 )">L</text><text style="&st18;" transform="matrix(&st17;  1984.97  390.8 )">P</text><text style="&st18;" transform="matrix(&st17;  1775.32  335.75 )">H60</text><text style="&st18;" transform="matrix(&st17;  1755.51  227.41 )">BE</text><text style="&st18;" transform="matrix(&st16;  1753.98  151.06 )">GR</text><text style="&st18;" transform="matrix(&st17;  1989.22  337.17 )">DOOR</text><text style="&st18;" transform="matrix(&st16;  1787.64  475.14 )">15</text><text style="&st18;" transform="matrix(&st16;  1799.37  475.14 )">A</text><text style="&st18;" transform="matrix(&st16;  1786.88  441.43 )">9</text><text style="&st18;" transform="matrix(&st16;  1915.01  355.03 )">E</text><text style="&st18;" transform="matrix(&st17;  1864.58  320.17 )">ON</text><text style="&st18;" transform="matrix(&st17;  1844.75  320.17 )">DOOR</text><text style="&st18;" transform="matrix(&st17;  1915.57  320.17 )">ON</text><text style="&st18;" transform="matrix(&st17;  1895.74  320.17 )">DOOR</text><text style="&st18;" transform="matrix(&st16;  1845.2  273.43 )">B</text><text style="&st18;" transform="matrix(&st16;  1838.18  366.92 )">1</text><text style="&st18;" transform="matrix(&st16;  1847.02  355.03 )">CTY</text><text style="&st18;" transform="matrix(&st16;  1845.9  261.55 )">2</text><text style="&st18;" transform="matrix(&st17;  1798.0  389.45 )">GR</text><text style="&st18;" transform="matrix(&st17;  1849.0  236.47 )">GR</text><text style="&st18;" transform="matrix(&st16;  1905.39  366.92 )">7</text><text ewd:textID="25" style="&st18;" transform="matrix(&st17;  1943.9  361.25 )">Roof Console Box Assembly</text><text style="&st18;" transform="matrix(&st17;  1936.79  361.25 )">U7</text><text style="&st18;" transform="matrix(&st17;  1908.49  396.17 )">W-B</text><text style="&st18;" transform="matrix(&st17;  1840.5  390.8 )">P</text><text style="&st18;" transform="matrix(&st16;  1901.35  508.0 )">P</text><text ewd:textID="2" style="&st18;" transform="matrix(&st16;  1816.17  581.66 )">* 2 :w/o Power Rear No.2 Seat with Stowing Function</text><text ewd:textID="1" style="&st18;" transform="matrix(&st16;  1816.17  573.16 )">* 1 :w/ Power Rear No.2 Seat with Stowing Function</text><text ewd:textID="3" style="&st18;" transform="matrix(&st16;  1816.17  590.16 )">* 9 :w/ Rear Seat Entertainment System</text><text ewd:textID="4" style="&st18;" transform="matrix(&st16;  1816.17  598.65 )">*10 :w/o Rear Seat Entertainment System</text><text style="&st18;" transform="matrix(&st16;  1987.07  262.68 )">1</text><text style="&st18;" transform="matrix(&st16;  1994.84  262.68 )">B</text><text style="&st18;" transform="matrix(&st16;  1977.79  365.23 )">3</text><text style="&st18;" transform="matrix(&st16;  1986.34  365.23 )">A</text><text style="&st18;" transform="matrix(&st16;  1977.79  374.29 )">3</text><text style="&st18;" transform="matrix(&st16;  1986.34  374.29 )">B</text><text style="&st18;" transform="matrix(&st16;  1994.84  253.61 )">A</text><text style="&st18;" transform="matrix(&st16;  1987.07  253.61 )">1</text><text style="&st18;" transform="matrix(&st16;  1971.99  355.04 )">CTY</text><text style="&st18;" transform="matrix(&st17;  1670.52  539.53 )">Y</text><text ewd:textID="19" style="&st18;" transform="matrix(&st17;  1782.42  335.75 )">No.1 Interior Illumination <tspan dy="6" x="0">Light Assembly</tspan></text></svg>