﻿<?xml version="1.0"?>
<!-- Generator: Adobe Illustrator 10.0, SVG Export Plug-In . SVG Version: 3.0.0 Build 77)  -->
<!DOCTYPE svg PUBLIC "-//W3C//DTD SVG 1.0//EN" "http://www.w3.org/TR/2001/REC-SVG-20010904/DTD/svg10.dtd"[
	<!ENTITY ns_flows "http://ns.adobe.com/Flows/1.0/">
	<!ENTITY ns_svg "http://www.w3.org/2000/svg">
	<!ENTITY ns_xlink "http://www.w3.org/1999/xlink">
	<!ENTITY st0 "fill:none;stroke:#000000;stroke-width:0.28;stroke-linecap:round;stroke-linejoin:round;">
	<!ENTITY st1 "fill:none;stroke:#000000;stroke-width:0.6;stroke-linecap:round;stroke-linejoin:round;">
	<!ENTITY st2 "fill:none;stroke:#000000;stroke-width:0.5;">
	<!ENTITY st3 "fill:none;stroke:#FFFFFF;stroke-width:2;">
	<!ENTITY st4 "font-family:'Arial';font-weight:bold;">
	<!ENTITY st5 "font-family:'Arial';">
	<!ENTITY st6 "font-size:10px;">
	<!ENTITY st7 "fill:none;stroke:#FFFFFF;stroke-width:0.2;">
	<!ENTITY st8 "fill:none;stroke:#FFFFFF;stroke-width:1.2;stroke-linecap:round;stroke-linejoin:round;">
	<!ATTLIST svg
		xmlns:ewd CDATA #FIXED "http://shcl.co.jp/ewd"
		xmlns:a CDATA #FIXED "http://ns.adobe.com/AdobeSVGViewerExtensions/3.0/"
		ewd:ver CDATA #IMPLIED>
	<!ATTLIST a
		ewd:innerGroupID CDATA #IMPLIED
		ewd:figtype CDATA #IMPLIED
		ewd:code CDATA #IMPLIED
		ewd:pinNo CDATA #IMPLIED>
]>
<svg width="518.94" height="312.01" viewBox="0 0 518.94 312.01" style="overflow:visible;enable-background:new 0 0 518.94 312.01" xml:space="preserve" onload="call_execInitLoadProc_svg('location')" ewd:ver="L2.1.2.7" xmlns="&ns_svg;" xmlns:ewd="http://shcl.co.jp/ewd" xmlns:a="http://ns.adobe.com/AdobeSVGViewerExtensions/3.0/" xmlns:xlink="&ns_xlink;">
<script type="text/javascript" xlink:href="../../../../../system/js/ewd/fig/svgfig.js"/>
<g id="台紙">
	<path style="&st7;" d="M518.84,311.911V0.1H0.1v311.811H518.84z"/>
</g>
<g id="イラスト">
	<path style="&st0;" d="M384.188,138.825v0.569c0,1.123-0.918,2.041-2.04,2.041h-22.484"/>
	<path style="&st1;" d="M331.088,132.408v-13.322c0-1.123,0.918-2.041,2.041-2.041h49.019c1.122,0,2.04,0.918,2.04,2.041v19.739"/>
	<path style="&st0;" d="M355.749,141.435h-22.619c-1.123,0-2.041-0.918-2.041-2.041v-6.986"/>
	<path style="&st1;" d="M384.188,142.335v0.359c0,1.123-0.918,2.041-2.04,2.041h-22.529"/>
	<path style="&st0;" d="M380.167,118.515c0.562,0,1.021,0.459,1.021,1.021v16.559c0,0.561-0.46,1.021-1.021,1.021h-44.818    c-0.562,0-1.021-0.459-1.021-1.021v-16.559c0-0.562,0.459-1.021,1.021-1.021H380.167z"/>
	<path style="&st0;" d="M332.108,140.055l1.8-2.46"/>
	<path style="&st0;" d="M383.228,139.875l-1.74-2.34"/>
	<path style="&st0;" d="M333.909,118.575l-1.44-0.72"/>
	<path style="&st0;" d="M381.189,118.455l1.56-0.6"/>
	<path style="&st1;" d="M331.088,129.254v12.66l0.161,1.572c0.311,0.732,1.037,1.249,1.88,1.249h22.574"/>
	<path style="&st1;" d="M359.619,146.34h-3.87v-6.12h3.87V146.34z"/>
	<path style="&st1;" d="M331.16,147.784l0.014,18.93c0,0-0.161,1.388,1.222,1.388c0.757,0,4.109,0,4.919,0    c0.809,0,1.135-0.273,1.135-1.443c0-1.388,0.018-17.656,0.018-17.656"/>
	<path style="&st1;" d="M368.759,149.001l0.102,10.334c0,0-0.161,1.387,1.222,1.387c0.757,0,4.109,0,4.919,0    c0.809,0,1.135-0.273,1.135-1.443c0-1.387,0.006-10.506,0.006-10.506"/>
	<path style="&st1;" d="M331.08,142.311c0,4.433-0.653,6.35,2.189,6.35c1.903,0,46.112,0.002,47.659,0.002s3.212,0,3.212-1.19"/>
	<path style="&st1;" d="M338.626,156.554c0,0,28.157-3.12,30.117-3.12"/>
	<path style="&st1;" d="M376.224,152.827c2.54,0,6.023,0,6.749,0s1.149-0.604,1.149-2.95l0.065-11.052"/>
	<path style="&st0;" d="M335.871,166.25c0.469,0,0.854,0,1.047,0c1.032,0,1.542-0.479,1.542-1.091"/>
	<path style="&st0;" d="M331.17,165.304c0.059,0.611,0.771,0.945,1.353,0.945c0.146,0,0.45,0,0.836,0"/>
	<path style="&st0;" d="M373.612,159.061c0.442,0,0.804,0,0.988,0c1.032,0,1.542-0.48,1.542-1.092"/>
	<path style="&st0;" d="M368.853,158.115c0.059,0.611,0.771,0.946,1.353,0.946c0.164,0,0.528,0,0.984,0"/>
	<path style="&st0;" d="M370.656,155.486h3.858"/>
	<path style="&st0;" d="M332.881,162.435l3.767,0.02"/>
	<path style="&st0;" d="M371.716,156.581c-0.359,0.135-0.597,0.372-0.597,0.641c0,0.421,0.579,0.762,1.294,0.762    c0.714,0,1.294-0.341,1.294-0.762c0-0.269-0.238-0.506-0.597-0.641"/>
	<path style="&st0;" d="M334.158,163.675c-0.465,0.115-0.791,0.386-0.791,0.701c0,0.42,0.58,0.761,1.294,0.761    c0.715,0,1.294-0.341,1.294-0.761c0-0.228-0.169-0.432-0.437-0.57"/>
	<path style="&st0;" d="M332.24,163.064v-13.27"/>
	<path style="&st0;" d="M337.438,162.996V150"/>
	<path style="&st0;" d="M369.784,156.227v-6.771"/>
	<path style="&st0;" d="M375.137,156.227v-6.771"/>
	<path style="&st1;" d="M379.242,114.733l0.192-23.828h-2.313l-0.257,24.085"/>
	<path style="&st1;" d="M377.122,93.153h-1.67"/>
	<path style="&st1;" d="M376.03,113.32l-1.092-0.064l0.386-21.002h-7.451c0,0-1.092,0.193-1.22,0.964"/>
	<path style="&st1;" d="M366.525,93.41c0,0-1.156,0-2.185,0c-1.027,0-1.22,1.027-1.22,1.349s0,3.982,0,3.982"/>
	<path style="&st1;" d="M365.561,115.183l-0.129-15.993c0,0-5.459,0-6.937,0c-1.477,0-1.862-0.192-1.862,1.221s0,14.836,0,14.836"/>
	<path style="&st1;" d="M356.698,102.017c-2.313,0-5.909,0-7.708,0c-1.798,0-3.066,1.202-3.532,3.532    c-0.514,2.569-0.835,6.23,0.192,9.249"/>
	<path style="&st1;" d="M362.992,100.86l-0.064,14.387"/>
	<path style="&st0;" d="M360.679,101.503c0-0.497-0.488-0.899-1.091-0.899c-0.604,0-1.093,0.403-1.093,0.899    s0.489,0.899,1.093,0.899C360.191,102.402,360.679,102,360.679,101.503z"/>
	<path style="&st0;" d="M360.679,112.229c0-0.496-0.488-0.899-1.091-0.899c-0.604,0-1.093,0.403-1.093,0.899    c0,0.497,0.489,0.899,1.093,0.899C360.191,113.128,360.679,112.726,360.679,112.229z"/>
	<path style="&st0;" d="M361.451,104.714c0-0.354-0.346-0.642-0.771-0.642s-0.771,0.288-0.771,0.642    c0,0.355,0.345,0.643,0.771,0.643S361.451,105.069,361.451,104.714z"/>
	<path style="&st0;" d="M361.451,107.99c0-0.355-0.346-0.643-0.771-0.643s-0.771,0.288-0.771,0.643    c0,0.354,0.345,0.642,0.771,0.642S361.451,108.344,361.451,107.99z"/>
	<path style="&st0;" d="M366.588,99.063h3.533"/>
	<path style="&st0;" d="M368.13,101.31l2.826-0.128l0.128-7.707"/>
	<path style="&st0;" d="M367.873,110.109h3.404v-2.248h3.533"/>
	<path style="&st0;" d="M371.02,103.301v1.542l4.175,0.064"/>
	<path style="&st0;" d="M371.406,111.522v3.34"/>
	<path style="&st0;" d="M357.662,114.349h3.789"/>
	<g>
		<g>
			<path style="&st1;" d="M163.344,59.836c0,0-0.023-7.683,0.019-8.973c0.042-1.29,0.826-1.234,1.219-1.234s1.229,0,2.069,0      c0.841,0,1.228,0.168,1.211,0.673c-0.007,0.211,0.536,5.725,0.536,5.725l1.734,3.809"/>
			<path style="&st0;" d="M168.527,61.351c1.183,0,2.181,0,2.677,0c1.402,0,3.098,1.29,3.033,3.252"/>
			<path style="&st0;" d="M158.976,64.828c0.161-1.458,0.844-3.477,3.143-3.477c0.719,0,1.738,0,2.844,0"/>
			<path style="&st0;" d="M161.347,67.419c0.256-0.098,0.443-0.339,0.453-0.622c0.012-0.369-0.285-0.668-0.663-0.668      c-0.378,0-0.695,0.299-0.707,0.668c-0.009,0.258,0.134,0.482,0.35,0.593"/>
			<path style="&st0;" d="M172.396,67.299c0.158-0.123,0.263-0.309,0.269-0.519c0.013-0.369-0.284-0.668-0.663-0.668      c-0.378,0-0.694,0.299-0.707,0.668c-0.008,0.238,0.113,0.447,0.3,0.565"/>
			<path style="&st0;" d="M169.575,64.698c0.093-0.072,0.154-0.182,0.158-0.304c0.007-0.217-0.167-0.393-0.39-0.393      c-0.222,0-0.408,0.176-0.415,0.393c-0.004,0.14,0.066,0.262,0.176,0.332"/>
			<path style="&st0;" d="M164.349,64.698c0.093-0.072,0.154-0.182,0.158-0.304c0.007-0.217-0.167-0.393-0.389-0.393      s-0.408,0.176-0.415,0.393c-0.004,0.14,0.066,0.262,0.176,0.332"/>
			<path style="&st0;" d="M169.575,87.828c0.093-0.072,0.154-0.182,0.158-0.305c0.007-0.217-0.167-0.393-0.39-0.393      c-0.222,0-0.408,0.175-0.415,0.393c-0.004,0.14,0.066,0.263,0.176,0.332"/>
			<path style="&st0;" d="M164.349,87.828c0.093-0.072,0.154-0.182,0.158-0.305c0.007-0.217-0.167-0.393-0.389-0.393      s-0.408,0.175-0.415,0.393c-0.004,0.14,0.066,0.263,0.176,0.332"/>
			<path style="&st1;" d="M170.099,90.23h-7.178c-0.176,0-0.344-0.005-0.504-0.015c-3.438-0.215-3.613-2.667-3.541-4.863      c0,0,0.025-18.224,0.101-20.523c0.073-2.196,0.409-4.649,3.862-4.864c0.162-0.01,0.33-0.015,0.506-0.015h7.178"/>
			<path style="&st1;" d="M169.93,90.23c3.926,0,4.292-2.579,4.368-4.878c0,0,0.025-18.224,0.101-20.523      c0.076-2.3-0.119-4.879-4.045-4.879"/>
			<path style="&st0;" d="M161.369,85.564c0.256-0.098,0.443-0.339,0.453-0.621c0.012-0.369-0.285-0.669-0.663-0.669      c-0.378,0-0.695,0.3-0.707,0.669c-0.009,0.258,0.134,0.482,0.35,0.593"/>
			<path style="&st0;" d="M172.656,85.421c0.158-0.123,0.262-0.309,0.269-0.518c0.012-0.37-0.284-0.668-0.663-0.668      c-0.378,0-0.695,0.299-0.707,0.668c-0.008,0.237,0.113,0.447,0.3,0.565"/>
		</g>
		<path style="&st0;" d="M174.298,65.413h-2.317c-0.727,0-1.316,0.589-1.316,1.316c0,0.727,0.589,1.316,1.316,1.316h2.317"/>
		<path style="&st0;" d="M174.298,83.529h-2.317c-0.727,0-1.316,0.589-1.316,1.316c0,0.727,0.589,1.316,1.316,1.316h2.317"/>
		<path style="&st0;" d="M158.999,65.413h2.317c0.727,0,1.316,0.589,1.316,1.316c0,0.727-0.589,1.316-1.316,1.316h-2.317"/>
		<path style="&st0;" d="M158.999,83.529h2.317c0.727,0,1.316,0.589,1.316,1.316c0,0.727-0.589,1.316-1.316,1.316h-2.317"/>
		<path style="&st0;" d="M170.265,87.587c0,0.501-0.406,0.907-0.907,0.907h-5.453c-0.501,0-0.907-0.406-0.907-0.907V63.802     c0-0.501,0.406-0.907,0.907-0.907h5.453c0.501,0,0.907,0.406,0.907,0.907V87.587z"/>
		<path style="&st1;" d="M169.105,67.009v10.478c0,0.501-0.406,0.907-0.907,0.907h-2.243c-0.501,0-0.907-0.406-0.907-0.907V67.009"/>
		<path style="&st0;" d="M165.138,67.04c0-0.535,0.388-0.969,0.867-0.969h2.144c0.479,0,0.867,0.434,0.867,0.969"/>
		<path style="&st0;" d="M168.102,68.251c0.479,0,0.867,0.434,0.867,0.969"/>
		<path style="&st0;" d="M165.091,69.22c0-0.535,0.388-0.969,0.867-0.969h0.307"/>
		<path style="&st1;" d="M169.105,78.051v7.643c0,0.501-0.406,0.907-0.907,0.907h-2.243c-0.501,0-0.907-0.406-0.907-0.907v-7.643     c0-0.088,0.013-0.173,0.036-0.254"/>
		<path style="&st0;" d="M169.83,70.136h-0.55v-0.77h0.55V70.136z"/>
		<path style="&st0;" d="M169.83,75.557h-0.55v-0.77h0.55V75.557z"/>
		<path style="&st0;" d="M169.835,72.703h-0.55v-0.77h0.55V72.703z"/>
		<path style="&st0;" d="M164.381,70.131h0.55v-0.77h-0.55V70.131z"/>
		<path style="&st0;" d="M164.391,75.576h0.55v-0.77h-0.55V75.576z"/>
		<path style="&st0;" d="M164.386,72.698h0.55v-0.77h-0.55V72.698z"/>
		<path style="&st0;" d="M169.83,85.704h-0.55v-0.77h0.55V85.704z"/>
		<path style="&st0;" d="M169.825,82.835h-0.55v-0.77h0.55V82.835z"/>
		<path style="&st0;" d="M164.381,85.694h0.55v-0.77h-0.55V85.694z"/>
		<path style="&st0;" d="M164.381,82.83h0.55v-0.77h-0.55V82.83z"/>
	</g>
	<g>
		<path style="&st1;" d="M173.348,167.146l0.144,0.004c0.187,0.006,0.34,0.164,0.34,0.352v0.386c0,0.188,0.153,0.341,0.34,0.341     h3.187c0.187,0,0.34-0.153,0.34-0.341v-6.526c0-0.187-0.153-0.34-0.34-0.34h-7.32c-0.187,0-0.34,0.153-0.34,0.34v5.326     c0,0.188,0.153,0.346,0.34,0.352l0.21,0.007c0.175,0.324,0.7,0.574,1.1,0.599c0.4,0.025,0.725,0.025,1.075,0.025     S173.098,167.497,173.348,167.146z"/>
		<path style="&st0;" d="M173.923,163.969v3.425"/>
		<path style="&st0;" d="M174.474,164.844h2.525"/>
		<path style="&st0;" d="M169.923,163.945c0-0.15,0.175-0.351,0.35-0.351s3.3,0,3.3,0"/>
		<path style="&st0;" d="M170.349,166.919v-2.35c0-0.351,0.3-0.601,0.45-0.601"/>
		<path style="&st0;" d="M170.948,166.745c0,0-0.025-0.675-0.025-0.976c0-0.3,0.475-0.5,0.95-0.5s0.925,0.226,0.925,0.5     c0,0.275,0,1.051,0,1.051"/>
		<path style="&st0;" d="M172.948,163.969c0.15,0.025,0.425,0.275,0.425,0.5v2.677"/>
	</g>
	<g>
		<path style="&st1;" d="M320.845,134.351c0.078,0.201,0.121,0.414,0.121,0.635c0,1.169-1.188,2.116-2.655,2.116     c-0.979,0-1.833-0.421-2.294-1.049c0,0-0.314-0.713-1-0.713c-0.687,0-3.568,0-3.568,0v-1.715h1.853c0,0,0.823-0.137,0.823-0.823     s0-9.742,0-11.045c0-1.304-0.274-1.098-0.892-1.235c-0.137-0.03-0.276-0.101-0.411-0.196"/>
		<path style="&st0;" d="M317.369,133.957c-0.216,0.172-0.35,0.41-0.35,0.673c0,0.526,0.535,0.952,1.194,0.952     c0.66,0,1.195-0.426,1.195-0.952c0-0.207-0.083-0.398-0.224-0.554"/>
		<path style="&st0;" d="M310.95,117.742c-0.156,0.124-0.253,0.295-0.253,0.484v0.441c0,0.379,0.386,0.686,0.861,0.686     c0.475,0,0.859-0.307,0.859-0.686v-0.441c0-0.148-0.059-0.287-0.16-0.399"/>
		<path style="&st1;" d="M313.708,117.854c0,0,0,0.52,0,0.892c0,0.947-0.963,1.714-2.15,1.714s-2.151-0.767-2.151-1.714     c0-0.529-0.158-0.925-0.686-0.925s-0.527,0.472-0.527,0.773c0,0.302,0,4.533,0,4.533h-0.872c0,0,0-5.893,0-7.102     s0.438-1.392,1.234-1.392c0.327,0,0.706,0,1.002,0"/>
		<path style="&st1;" d="M320.91,134.397c0,0-1.36-3.078-0.485-3.856c0.875-0.777,2.818-2.203,3.693-2.203s3.499,0,3.499,0"/>
		<path style="&st1;" d="M315.637,112.556c-0.189-0.028-0.387-0.043-0.589-0.043c-1.547,0-2.802,0.871-2.802,1.944     c0,0.303,0,1.387,0,1.69c0,0.826,0.742,1.532,1.79,1.813c0,0,1.304,0.333,1.328,1.357"/>
		<path style="&st0;" d="M314.984,113.976c-1.548,0-2.803,0.87-2.803,1.944"/>
		<path style="&st0;" d="M314.932,116.485c0.134-0.109,0.217-0.268,0.217-0.445c0-0.329-0.292-0.597-0.652-0.597     s-0.652,0.268-0.652,0.597c0,0.193,0.1,0.364,0.254,0.473"/>
		<path style="&st1;" d="M315.428,117.296c0,0,0,4.254,0,5.489s0.138,1.441,0.96,1.441c0.824,0,11.252,0,11.252,0"/>
		<path style="&st1;" d="M314.399,112.563h-4.733c0,0,0,1.029,0,1.989s1.371,1.304,2.676,2.333"/>
		<path style="&st0;" d="M312.901,134.284v0.962"/>
		<path style="&st0;" d="M316.054,128.337h6.462"/>
		<path style="&st0;" d="M314.914,131.199h4.674"/>
		<path style="&st0;" d="M318.939,127.309c0.297-0.163,0.491-0.438,0.491-0.75c0-0.5-0.501-0.906-1.118-0.906     s-1.118,0.405-1.118,0.906c0,0.25,0.126,0.476,0.328,0.64"/>
		<path style="&st0;" d="M316.23,117.126h14.026"/>
		<path style="&st0;" d="M316.539,119.454h13.108"/>
		<path style="&st1;" d="M321.656,124.24c0,0.966,0.635,1.813,1.624,1.813s4.381,0,4.381,0"/>
		<path style="&st1;" d="M334.076,112.094c1.145,0,2.066,0.074,2.066,0.886s0,2.14,0,2.14"/>
		<path style="&st0;" d="M315.759,111.503c0.085,0.682,0.967,1.219,2.041,1.219"/>
		<path style="&st0;" d="M313.065,104.86c0.085,0.682,0.967,1.219,2.041,1.219h0.076"/>
		<path style="&st1;" d="M315.759,111.503c-0.005-0.037-0.008-0.073-0.008-0.11c0-0.734,0.918-1.329,2.049-1.329h4.467     c1.131,0,2.048,0.595,2.048,1.329"/>
		<path style="&st1;" d="M315.751,111.504v2.62c0,0.734,0.918,1.329,2.049,1.329h4.467c1.131,0,2.048-0.595,2.048-1.329v-2.731"/>
		<path style="&st0;" d="M324.315,111.393c0,0.734-0.917,1.329-2.048,1.329"/>
		<path style="&st0;" d="M327.125,109.141c0.085,0.683,0.967,1.219,2.041,1.219"/>
		<path style="&st1;" d="M327.125,109.141c-0.005-0.036-0.007-0.073-0.007-0.11c0-0.734,0.917-1.329,2.048-1.329h2.751     c1.131,0,2.048,0.595,2.048,1.329"/>
		<path style="&st1;" d="M327.119,109.142v4.392c0,0.734,0.917,1.329,2.048,1.329l2.751,0c1.131,0,2.048-0.595,2.048-1.329v-4.502"/>
		<path style="&st0;" d="M333.965,109.031c0,0.683-0.794,1.245-1.814,1.32"/>
		<path style="&st1;" d="M313.101,104.749c-0.005-0.036-0.008-0.073-0.008-0.11c0-0.734,0.918-1.329,2.049-1.329h3.6     c1.131,0,2.048,0.595,2.048,1.329"/>
		<path style="&st1;" d="M320.718,109.787c0.047-0.111,0.071-0.229,0.071-0.35v-4.687"/>
		<path style="&st1;" d="M313.093,104.86v4.577c0,0.734,0.918,1.329,2.049,1.329h0.739"/>
		<path style="&st0;" d="M320.787,104.772c0,0.662-0.745,1.21-1.721,1.312"/>
		<path style="&st0;" d="M324.136,106.004c0.086,0.683,0.968,1.219,2.042,1.219"/>
		<path style="&st1;" d="M324.172,105.893c-0.004-0.036-0.007-0.073-0.007-0.11c0-0.733,0.918-1.328,2.049-1.328h3.599     c1.132,0,2.049,0.595,2.049,1.328"/>
		<path style="&st1;" d="M324.166,105.783v3.137c0,0.734,0.918,1.329,2.049,1.329h0.739"/>
		<path style="&st0;" d="M331.862,105.783c0,0.681-0.79,1.242-1.808,1.32"/>
		<path style="&st1;" d="M331.862,105.894v1.734"/>
		<path style="&st1;" d="M310.604,112.5v-1.513l2.436-1.477"/>
		<path style="&st1;" d="M320.827,107.961h3.247"/>
		<path style="&st1;" d="M308.556,114.634h-1.752c0,0,0-1.483,0-2.55s0.801-1.567,1.533-1.567c0.733,0,1.101,0.167,1.65,0.717     c0.235,0.235,0.438,0.37,0.615,0.447"/>
	</g>
	<path style="&st8;" d="M392.315,42.346c-10.699,8.996-36.113,18.992-109.273,19.665l0.052-0.001    c-2.611,0-6.656,4.406-15.563,4.198c-8.907-0.208-15.461-4.143-16.434-4.143s-2.793-0.018-2.793-0.018    c-14.14,0-26.613-0.331-37.626-0.926l-6.861-0.417c-45.691-3.103-64.058-11.06-72.738-18.357"/>
	<path style="&st8;" d="M156.97,72.719c-13.318,2.105-18.229,5.937-20.612,7.079c-2.877,1.841-4.5,2.754-5.339,4.971    c-0.084,0.479,0.371,3.684,0.92,4.112c1.856-0.246,2.369-0.921,4.508-1.991c2.139-1.069,4.963-2.603,6.074-3.053    c1.727-0.7,6.667-4.88,12.874-6.717c6.207-1.837,14.44-2.09,18.367-2.28c3.926-0.19,15.86,0.877,23.37,1.583    c31.667,2.977,50.793,2.85,63.207,2.85h2.72c12.413,0,31.54,0.126,63.206-2.85c7.511-0.706,19.444-1.773,23.37-1.583    c3.927,0.19,12.16,0.443,18.367,2.28c6.207,1.836,11.146,6.017,12.873,6.717c1.11,0.45,3.935,1.983,6.073,3.053    c2.14,1.07,2.652,1.745,4.508,1.991c0.551-0.428,1.005-3.632,0.921-4.112c-0.84-2.217-2.462-3.13-5.34-4.971    c-2.945-1.412-9.758-6.935-31.546-8.224c-12.379-0.217-20.17,0.733-32.329,1.873c-12.16,1.14-31.351,2.66-58.521,2.28h-5.887    c-27.17,0.38-46.36-1.14-58.52-2.28c-9.12-0.855-15.782-1.603-23.766-1.832"/>
	<g>
		<path style="&st0;" d="M163.238,211.041c0.401-3.612,6.287-14.179,7.625-16.051c0.299-0.299,0.328-0.519-1.936-1.125     c-1.931-0.518-33.049-12.615-36.502-14.609c-0.384-0.221-0.598-0.936-0.679-1.607"/>
		<path style="&st0;" d="M128.985,22.338c-0.127,1.291-0.186,2.262-0.152,2.79c0.221,3.425,1.105,12.815,2.777,16.649     c-2.434,2.434-3.064,5.047-3.875,7.3c-0.812,2.253-3.516,13.52-3.876,16.494c-0.36,2.974-0.811,7.3-0.631,10.455     c0.181,3.154,1.442,17.576,1.623,20.1c0.18,2.523,5.768,69.043,5.768,69.043c0,1.533,1.442,11.536,1.893,12.799     c-2.163-0.902-3.386-1.414-4.416-2.164c-0.991-0.721-1.848-1.307-2.253-1.712s-3.245-3.245-5.047-8.472     c-1.802-5.228-2.614-9.014-2.974-10.726c-0.36-1.713-1.442-2.163-2.433-0.631c-0.992,1.532-2.073,7.12-2.073,8.382     s-0.09,7.932,0,11.176c0.09,3.244,0.901,9.015,1.802,11.898c0.902,2.885,3.449,6.333,5.859,8.742     c2.704,2.704,13.044,6.791,16.313,8.202c3.185,1.375,22.368,9.405,24.605,10.005c1.679,0.457,1.714-0.9,3.337-0.721     c1.622,0.182,2.974-0.09,3.785-1.262c0.811-1.171,6.917-14.931,7.574-16.36c0.929-2.671,0.851-3.521-0.404-3.919     c-1.39-0.439-3.835-0.99-7.711-2.433c-3.875-1.442-33.817-12.604-36.792-14.406"/>
		<path style="&st0;" d="M114.428,22.967c-2.187,2.459-6,6.833-6.909,9.15c-0.804,2.046-6.04,19.244-6.04,21.71"/>
		<path style="&st0;" d="M101.899,22.59c0.122,7.35,0.148,13.995-0.078,17.535c-0.608,9.525-0.608,66.272-0.608,70.123     c0,3.851,0.405,40.533,0.608,47.423c0.203,6.891,0.405,23.713,0.811,27.766s5.27,12.16,8.31,14.795     c6.586,6.587,15.708,11.31,47.495,22.068c1.23,0.337,1.893-0.975,2.479-0.949c0.435,0.019,3.044-0.033,3.773-0.149     c0,0,5.066-0.089,5.708-0.118c0.643-0.029,0.584,0.059,0.847-0.584c0.263-0.643,1.176-3.489,1.585-4.861     c0.409-1.373,0.087-1.548-0.818-1.605c-0.905-0.059-3.357,0.087-4.205,0.087c-0.671,0-0.963-0.059-0.963-0.321     c0.117-0.467,0.029-1.227-0.876-1.227s-1.548-0.059-2.552-0.059"/>
		<path style="&st0;" d="M114.942,144.222c-3.193-14.37-7.025-83.025-7.025-92.605"/>
		<path style="&st0;" d="M117.495,22.578c0.982,9.83,2.826,24,3.515,27.443"/>
		<path style="&st0;" d="M162.298,213.561c-0.931,0.749-1.566,1.801-3.367,7.439"/>
		<path style="&st0;" d="M129.681,72.332c1.193,0.193,1.678,1.459,1.678,2.16c0,0.76,0,9.525,0,9.525"/>
		<path style="&st0;" d="M134.763,45.064l-0.745,5.202c0,0,0,13.015,0,15.01s-0.537,2.627-2.358,2.627     c-1.531,0-0.697-0.053-1.464-0.07"/>
		<path style="&st0;" d="M131.032,169.056c0.734-1.304,0.897-1.957,0.897-3.182s0,0.245,0-1.225c0-1.469,0.98-2.285,1.959-2.285     s2.122,0.408,2.286,1.715c0.163,1.306,0.897,5.061,0.897,5.795s0.164,4.49,0.164,4.734"/>
		<path style="&st0;" d="M162.296,185.058c0-0.816,0.327-10.041,0.327-10.938c0-0.898,0.816-2.367,2.612-2.367     s2.286,1.224,2.449,2.122c0.163,0.898,0.734,10.53,0.734,12.979"/>
		<path style="&st0;" d="M163.048,213.582l-2.036,6.188"/>
		<path style="&st0;" d="M134.673,45.696c0.181,1.101,3.058,2.868,3.788,3.37l1.369,9.488v13.138l-4.243,1.049l-0.045,7.577"/>
		<path style="&st0;" d="M135.587,72.741v-2.007l0.867-2.919l0.182-16.058"/>
		<g>
			<path style="&st0;" d="M133.306,164.611v-0.404c0-0.387,0.335-0.7,0.748-0.7c0.414,0,0.749,0.313,0.749,0.7v0.404"/>
			<path style="&st0;" d="M135.455,164.599c0,0.627-0.632,1.137-1.413,1.137c-0.78,0-1.413-0.51-1.413-1.137      c0-0.628,0.633-1.137,1.413-1.137C134.823,163.462,135.455,163.971,135.455,164.599z"/>
		</g>
		<path style="&st0;" d="M164.501,174.194v-0.403c0-0.388,0.335-0.701,0.748-0.701c0.414,0,0.748,0.313,0.748,0.701v0.403"/>
		<path style="&st0;" d="M166.651,174.182c0,0.628-0.632,1.137-1.413,1.137s-1.413-0.509-1.413-1.137s0.632-1.137,1.413-1.137     S166.651,173.554,166.651,174.182z"/>
		<path style="&st0;" d="M124.021,175.883c-4.471,0-7.983,0.958-7.983,7.983"/>
		<path style="&st0;" d="M360.156,211.041c-0.401-3.612-6.287-14.179-7.624-16.051c-0.3-0.299-0.328-0.519,1.936-1.125     c1.931-0.518,33.049-12.615,36.502-14.609c0.384-0.221,0.598-0.936,0.679-1.607"/>
		<path style="&st0;" d="M394.412,22.369c0.125,1.275,0.182,2.235,0.148,2.759c-0.221,3.425-1.105,12.815-2.777,16.649     c2.434,2.434,3.064,5.047,3.876,7.3c0.812,2.253,3.515,13.52,3.876,16.494c0.359,2.974,0.811,7.3,0.631,10.455     c-0.181,3.154-1.442,17.576-1.623,20.1c-0.18,2.523-5.768,69.043-5.768,69.043c0,1.533-1.442,11.536-1.893,12.799     c2.162-0.902,3.386-1.414,4.416-2.164c0.991-0.721,1.848-1.307,2.253-1.712s3.245-3.245,5.047-8.472     c1.803-5.228,2.614-9.014,2.975-10.726c0.36-1.713,1.442-2.163,2.434-0.631s2.073,7.12,2.073,8.382s0.09,7.932,0,11.176     s-0.901,9.015-1.803,11.898c-0.901,2.885-3.449,6.333-5.858,8.742c-2.704,2.704-13.045,6.791-16.313,8.202     c-3.185,1.375-22.369,9.405-24.605,10.005c-1.68,0.457-1.715-0.9-3.337-0.721c-1.622,0.182-2.975-0.09-3.785-1.262     c-0.812-1.171-6.917-14.931-7.574-16.36c-0.929-2.671-0.851-3.521,0.404-3.919c1.389-0.439,3.835-0.99,7.71-2.433     c3.876-1.442,33.818-12.604,36.792-14.406"/>
		<path style="&st0;" d="M409.107,23.125c2.205,2.485,5.877,6.723,6.768,8.991c0.805,2.046,6.04,19.244,6.04,21.71"/>
		<path style="&st0;" d="M421.482,23.352c-0.111,7.045-0.128,13.356,0.09,16.773c0.608,9.525,0.608,66.272,0.608,70.123     c0,3.851-0.405,40.533-0.608,47.423c-0.202,6.891-0.405,23.713-0.811,27.766s-5.27,12.16-8.309,14.795     c-6.588,6.587-15.709,11.31-47.495,22.068c-1.231,0.337-1.894-0.975-2.479-0.949c-0.435,0.019-3.044-0.033-3.773-0.149     c0,0-5.066-0.089-5.708-0.118c-0.644-0.029-0.585,0.059-0.847-0.584c-0.264-0.643-1.177-3.489-1.586-4.861     c-0.409-1.373-0.088-1.548,0.818-1.605c0.904-0.059,3.357,0.087,4.204,0.087c0.672,0,0.964-0.059,0.964-0.321     c-0.117-0.467-0.029-1.227,0.876-1.227s1.547-0.059,2.552-0.059"/>
		<path style="&st0;" d="M408.451,144.222c3.193-14.37,7.025-83.025,7.025-92.605"/>
		<path style="&st0;" d="M405.873,22.845c-0.989,9.818-2.807,23.764-3.488,27.176"/>
		<path style="&st0;" d="M361.095,213.561c0.931,0.749,1.566,1.801,3.367,7.439"/>
		<path style="&st0;" d="M357.654,221.218c-1.064,1.193-6.617,6.19-9.045,7.724s-3.445,2.449-12.225,3.151     c-37.227,2.979-49.641,3.232-74.214,3.232h-0.947c-24.573,0-36.986-0.253-74.214-3.232c-8.779-0.702-9.796-1.618-12.224-3.151     s-7.98-6.53-9.045-7.724"/>
		<path style="&st0;" d="M391.942,22.338c-0.104,4.477-0.986,9.968-1.465,12.839c-0.272,1.771-2.86,3.677-11.169,6.538     c-8.308,2.86-23.176,3.553-43.992,5.993c-20.914,2.452-26.286,4.358-72.73,4.358h-1.777c-46.444,0-51.817-1.907-72.731-4.358     c-20.816-2.44-35.684-3.133-43.992-5.993c-8.308-2.86-10.896-4.767-11.168-6.538c-0.49-2.937-1.401-8.618-1.471-13.149"/>
		<path style="&st0;" d="M392.315,42.346c-10.699,8.996-36.113,18.992-109.273,19.665l0.052-0.001     c-2.611,0-6.656,4.406-15.563,4.198c-8.907-0.208-15.461-4.143-16.434-4.143s-2.793-0.018-2.793-0.018     c-14.14,0-26.613-0.331-37.626-0.926l-6.861-0.417c-45.691-3.103-64.058-11.06-72.738-18.357"/>
		<path style="&st0;" d="M393.712,72.332c-1.192,0.193-1.677,1.459-1.677,2.16c0,0.76,0,9.525,0,9.525"/>
		<path style="&st0;" d="M388.63,45.064l0.745,5.202c0,0,0,13.015,0,15.01s0.537,2.627,2.358,2.627c1.53,0,0.697-0.053,1.464-0.07"/>
		<path style="&st0;" d="M392.362,169.056c-0.734-1.304-0.897-1.957-0.897-3.182s0,0.245,0-1.225c0-1.469-0.98-2.285-1.96-2.285     s-2.122,0.408-2.285,1.715c-0.163,1.306-0.898,5.061-0.898,5.795s-0.163,4.49-0.163,4.734"/>
		<path style="&st0;" d="M361.098,185.058c0-0.816-0.327-10.041-0.327-10.938c0-0.898-0.816-2.367-2.612-2.367     s-2.285,1.224-2.448,2.122s-0.734,10.53-0.734,12.979"/>
		<path style="&st0;" d="M360.345,213.582l2.036,6.188"/>
		<path style="&st0;" d="M388.72,45.696c-0.18,1.101-3.058,2.868-3.787,3.37l-1.369,9.488v13.138l4.242,1.049l0.046,7.577"/>
		<path style="&st0;" d="M387.806,72.741v-2.007l-0.866-2.919l-0.183-16.058"/>
		<path style="&st0;" d="M156.97,72.719c-13.318,2.105-18.229,5.937-20.612,7.079c-2.877,1.841-4.5,2.754-5.339,4.971     c-0.084,0.479,0.371,3.684,0.92,4.112c1.856-0.246,2.369-0.921,4.508-1.991c2.139-1.069,4.963-2.603,6.074-3.053     c1.727-0.7,6.667-4.88,12.874-6.717c6.207-1.837,14.44-2.09,18.367-2.28c3.926-0.19,15.86,0.877,23.37,1.583     c31.667,2.977,50.793,2.85,63.207,2.85h2.72c12.413,0,31.54,0.126,63.206-2.85c7.511-0.706,19.444-1.773,23.37-1.583     c3.927,0.19,12.16,0.443,18.367,2.28c6.207,1.836,11.146,6.017,12.873,6.717c1.11,0.45,3.935,1.983,6.073,3.053     c2.14,1.07,2.652,1.745,4.508,1.991c0.551-0.428,1.005-3.632,0.921-4.112c-0.84-2.217-2.462-3.13-5.34-4.971     c-2.945-1.412-9.758-6.935-31.546-8.224c-12.379-0.217-20.17,0.733-32.329,1.873c-12.16,1.14-31.351,2.66-58.521,2.28h-5.887     c-27.17,0.38-46.36-1.14-58.52-2.28c-9.12-0.855-15.782-1.603-23.766-1.832"/>
		<g>
			<path style="&st0;" d="M390.087,164.611v-0.404c0-0.387-0.334-0.7-0.748-0.7c-0.413,0-0.748,0.313-0.748,0.7v0.404"/>
			<path style="&st0;" d="M387.939,164.599c0,0.627,0.632,1.137,1.412,1.137c0.781,0,1.414-0.51,1.414-1.137      c0-0.628-0.633-1.137-1.414-1.137C388.571,163.462,387.939,163.971,387.939,164.599z"/>
		</g>
		<g>
			<path style="&st0;" d="M358.892,174.194v-0.403c0-0.388-0.335-0.701-0.748-0.701s-0.748,0.313-0.748,0.701v0.403"/>
			<path style="&st0;" d="M356.743,174.182c0,0.628,0.633,1.137,1.413,1.137s1.413-0.509,1.413-1.137s-0.633-1.137-1.413-1.137      S356.743,173.554,356.743,174.182z"/>
		</g>
		<path style="&st0;" d="M359.895,221.295c-2.185,2.484-7.96,7.279-10.03,9.022c-2.07,1.744-4.795,2.833-8.391,3.27     c-3.597,0.436-51.753,3.596-78.572,3.596h-2.41c-26.819,0-74.976-3.16-78.572-3.596c-3.596-0.437-6.32-1.525-8.391-3.27     c-2.07-1.743-7.846-6.538-10.03-9.022"/>
		<path style="&st0;" d="M399.373,175.883c4.471,0,7.983,0.958,7.983,7.983"/>
		<path style="&st0;" d="M145.85,64.371c0.569,0.122,5.468,0.94,11.375,1.895"/>
		<path style="&st0;" d="M124.993,59.806l2.995,0.599c0.768-0.3,3.237,0.434,3.537,1.035c-0.167,0.767-2.136,8.175-1.869,13.547     c0.267,5.372,0.667,10.677,0.667,10.677l0.742,0.036"/>
		<path style="&st0;" d="M131.938,88.88c0.338,4.073,5.37,70.599,6.509,72.887"/>
		<path style="&st0;" d="M130.403,162.59c0.478-0.239,6.343-1.405,8.044-0.823c0,0.446,0,0.72,0,0.72"/>
		<path style="&st0;" d="M137.454,161.616c0.164,0.523,0.937,1.51,2.264,2.568c0.638,0.509,1.985,1.539,2.778,1.856     s3.068,1.012,3.068,1.012c0.394,0.109,0.802,0.208,1.224,0.296c5.796,1.202,31.383,6.503,31.313,6.503l3.747,0.637"/>
		<path style="&st0;" d="M176.831,190.743c-0.426-1.482-1.558-3.886-2.618-4.38c-1.06-0.495-5.879-2.265-5.879-2.265"/>
		<path style="&st0;" d="M137.157,172.507c1.432,0.99,7.298,3.959,12.458,5.02c5.16,1.061,10.505,2.052,12.815,2.97"/>
		<path style="&st0;" d="M176.618,190.087c2.755,0.163,5.512,0.799,5.512,0.799c2.262,0.142,4.807,2.403,8.129,2.686     c3.322,0.283,9.825,0.213,11.238,0.213c5.372-1.061,10.673-2.333,13.5-1.414c0.707,0.213,0.848-0.142,0.778-0.565     c-0.071-0.424,0.212-0.565,0.707-0.424l6.362,2.403l5.655,0.141l1.272,0.495c0,0,1.979,1.555,3.958,1.555s2.756,0,3.322,0     c1.202,0,0.283,1.061,1.343,1.061c1.06,0,1.343,0.142,1.343,0.142l0.798-0.461c0,0,2.03-0.176,3.231-0.176     c1.201,0,4.629,0.53,5.16,1.061s5.655,1.838,7.209,2.898l0.212-0.565l8.189,0.07c0,0,0.049,0.578,0,0.528     c0.692,0.051,2.969-2.473,9.945-3.463l1.133-0.654c1.045,0,1.984-0.138,2.183-0.138c0.495,0,0.495-0.396,0.495-0.544     s-0.143-0.914,1.236-0.545c0.52,0.52,0.52,0.52,0.52,0.52l6.16-0.024c0.545,0.396,3.464,0.544,3.909,0.099     c0.445,0,2.228-0.049,2.228-0.049c0.536,0.31,3.76,0.1,4.997-0.445s1.435-0.594,1.435-0.594s1.083-0.553,1.037-0.598     c1.338-0.541,5.095,0.07,6.138,0.35l1.436-0.494l0.148,0.544c0.396,0.644,1.039,0.446,1.633,0.198s4.7-1.732,4.7-1.732     c1.923-0.515,4.848,0.594,7.619,0.693c2.771,0.099,10.639,0.148,10.639,0.148c4.451,0,6.635-3.462,14.647-3.71"/>
		<path style="&st0;" d="M137.105,171.094l9.19,4.809l16.172,3.463"/>
		<path style="&st0;" d="M168.145,180.355l4.374,0.99l6.361,0.636l9.047,1.979"/>
		<path style="&st0;" d="M209.98,188.202h23.396c0.565-0.707,2.12-0.565,2.544,0h4.453c2.683-0.719,10.673-2.475,12.087-2.475     c1.414,0,17.754,0,17.754,0c1.077,0,2.528,0.243,3,0.516c0.61,0,5.107,0,5.107,0l1.33,0.887h6.713l2.787,0.95h3.103     c1.034-0.598,2.217-0.697,2.913,0h20.521"/>
		<path style="&st0;" d="M398.401,59.806l-2.995,0.599c-0.768-0.3-3.236,0.434-3.537,1.035c0.167,0.767,2.136,8.175,1.868,13.547     c-0.267,5.372-0.667,10.677-0.667,10.677l-0.741,0.036"/>
		<path style="&st0;" d="M391.455,88.88c-0.338,4.073-5.369,70.599-6.508,72.887"/>
		<path style="&st0;" d="M392.991,162.59c-0.479-0.239-6.343-1.405-8.044-0.823c0,0.446,0,0.72,0,0.72"/>
		<path style="&st0;" d="M385.939,161.616c-0.356,1.138-3.537,4.53-9.333,5.732s-31.384,6.503-31.313,6.503l-3.747,0.637"/>
		<path style="&st0;" d="M341.546,174.488h-77.538h-4.623h-77.539"/>
		<path style="&st0;" d="M346.562,190.743c0.427-1.482,1.559-3.886,2.618-4.38c1.061-0.495,5.88-2.265,5.88-2.265"/>
		<path style="&st0;" d="M386.237,172.507c-1.432,0.99-7.299,3.959-12.459,5.02c-5.159,1.061-10.504,2.052-12.815,2.97"/>
		<path style="&st0;" d="M386.289,171.094l-9.189,4.809l-16.173,3.463"/>
		<path style="&st0;" d="M355.249,180.355l-4.374,0.99l-6.361,0.636l-9.047,1.979"/>
		<path style="&st0;" d="M335.466,183.96h-71.673H259.6h-71.673"/>
		<path style="&st0;" d="M211.358,188.202c1.964,0,8.213,3.38,11.516,4.808l5.803,0.18l0.816,0.219c0,0,3.29-0.041,3.29,0.049     c0.901-0.521,2.678-0.625,3.303,0l3.214,0.089l1.255-0.336c0,0,6.868-1.45,7.761-1.807c0.893-0.356,1.339,0.446,1.339,0.446     c0.803-0.268,21.871-0.089,21.871-0.089l2.856,0.714c0,0,3.303-0.268,4.106-0.268c0.803,0,1.696,0.714,1.696,0.714l5.98-0.089     l3.393,0.714h2.945c0.357-0.536,1.988-0.892,2.69,0.09l3.559-0.179l0.518-0.3l6.892,0.032c0,0,7.499-5.109,8.748-5.109"/>
		<path style="&st0;" d="M269.205,189.439c0,0.789-0.64,1.429-1.429,1.429h-12.14c-0.789,0-1.429-0.64-1.429-1.429     c0-0.789,0.64-1.428,1.429-1.428h12.14C268.565,188.011,269.205,188.65,269.205,189.439z"/>
		<path style="&st0;" d="M249.643,192.742v3.65"/>
		<path style="&st0;" d="M274.624,193.269v2.556"/>
		<path style="&st0;" d="M279.654,187.7c0,0,0-0.57,0,0.95c0,1.52-2.403,2.351-3.102,2.351"/>
		<path style="&st0;" d="M240.83,193.843v1.899"/>
		<path style="&st0;" d="M295.296,189.093v2.977"/>
		<path style="&st0;" d="M292.193,188.839v3.42"/>
		<path style="&st0;" d="M236.27,189.346v3.293"/>
		<path style="&st0;" d="M233.23,189.219l0.063,3.104"/>
		<path style="&st0;" d="M353.161,68.542c8.29-0.739,20.118-2.874,23.95-4.47"/>
		<path style="&st0;" d="M116.619,188.933c-0.539,0.4-1.35,1.297-1.563,2.279c-0.213,0.981-2.22,10.674-2.22,10.674"/>
		<path style="&st0;" d="M406.908,188.933c0.538,0.4,1.35,1.297,1.563,2.279c0.214,0.981,2.221,10.674,2.221,10.674"/>
		<path style="&st0;" d="M114.298,233.752c-1.086-0.779-1.506-0.772-1.093,1.226s0.964,7.647,8.68,13.021     c7.715,5.374,21.781,11.795,27.85,13.421"/>
		<path style="&st0;" d="M110.588,236.081c-0.689-2.687-1.654-7.026,1.446-4.064c5.029,4.547,27.35,15.707,31.621,17.705     c1.576,0.909,2.618,1.859,4.684,7.371c0.689,1.722,1.516,4.891,2.136,6.682c0.758,2.687-0.827,2.273-2.273,1.653     c-1.446-0.619-7.499-1.837-14.938-6.797"/>
		<path style="&st0;" d="M136.682,246.277c1.668,2.342,5.664,7.783-4.187,6.544"/>
		<path style="&st0;" d="M119.759,237.167c-3.453-0.397-5.52,2.771,0.267,8.558"/>
		<path style="&st0;" d="M118.511,237.189c-1.908,1.908,0.698,10.033,12.542,6.185"/>
		<path style="&st0;" d="M126.271,201.787c-0.723-0.395-1.117-0.066-1.117,0.854s0.006,1.394,0.131,1.971     c0.125,0.574,0.46,0.854,1.183,1.248c0.723,0.395,5.255,2.431,6.241,2.76c0.985,0.328,1.313,0.131,1.708-0.723     c0.395-0.854,0.789-1.577-0.197-2.234C133.235,205.005,126.271,201.787,126.271,201.787z"/>
		<path style="&st0;" d="M420.761,185.437c-0.813,20.415-4.008,52.668-8.797,58.734c-4.79,6.067-16.285,13.731-38.32,25.547     c-7.344,3.512-8.621,4.15-20.437,6.066c-11.814,1.916-80.471,5.109-88.772,5.109h-5.476c-8.303,0-76.958-3.193-88.773-5.109     s-13.093-2.555-20.437-6.066c-22.034-11.815-33.53-19.479-38.319-25.547c-4.79-6.066-7.983-38.319-8.797-58.734"/>
		<path style="&st0;" d="M409.095,233.752c1.087-0.779,1.506-0.772,1.093,1.226s-0.964,7.647-8.681,13.021     c-7.715,5.374-21.78,11.795-27.85,13.421"/>
		<path style="&st0;" d="M412.806,236.081c0.688-2.687,1.653-7.026-1.447-4.064c-5.028,4.547-27.349,15.707-31.62,17.705     c-1.575,0.909-2.617,1.859-4.685,7.371c-0.688,1.722-1.516,4.891-2.136,6.682c-0.758,2.687,0.827,2.273,2.273,1.653     c1.447-0.619,7.499-1.837,14.939-6.797"/>
		<path style="&st0;" d="M386.712,246.277c-1.669,2.342-5.664,7.783,4.187,6.544"/>
		<path style="&st0;" d="M403.634,237.167c3.453-0.397,5.521,2.771-0.267,8.558"/>
		<path style="&st0;" d="M404.882,237.189c1.908,1.908-0.697,10.033-12.542,6.185"/>
		<path style="&st0;" d="M327.597,273.456c3.774-0.188,16.043-1.604,19.693-2.22c4.373-0.737,5.699-6.649,6.411-9.88     c0.712-3.229,0-5.501-2.802-4.75c-9.689,2.28-78.279,3.42-86.069,3.42h-6.267c-7.79,0-76.38-1.14-86.07-3.42     c-2.801-0.751-3.513,1.521-2.801,4.75c0.711,3.23,2.038,9.143,6.412,9.88c3.65,0.615,15.918,2.031,19.693,2.22"/>
		<path style="&st0;" d="M350.9,256.606c0,3.61-0.825,6.628-1.52,8.74c-0.422,1.284-1.693,1.654-4.18,2.28     c0,0-19.57,4.939-79.801,4.939h-7.407c-60.23,0-79.8-4.939-79.8-4.939c-2.487-0.626-3.758-0.996-4.18-2.28     c-0.695-2.112-1.52-5.13-1.52-8.74"/>
		<path style="&st0;" d="M364.39,224.306c-6.84,7.98-13.68,12.92-26.979,14.061c-13.3,1.14-62.32,4.18-67.641,4.18h-16.146     c-5.32,0-54.34-3.04-67.64-4.18c-13.3-1.141-20.14-6.08-26.98-14.061"/>
		<path style="&st0;" d="M397.123,201.787c0.723-0.395,1.117-0.066,1.117,0.854s-0.007,1.394-0.132,1.971     c-0.125,0.574-0.46,0.854-1.183,1.248c-0.723,0.395-5.256,2.431-6.24,2.76c-0.986,0.328-1.314,0.131-1.709-0.723     c-0.395-0.854-0.788-1.577,0.197-2.234C390.159,205.005,397.123,201.787,397.123,201.787z"/>
		<path style="&st0;" d="M321.528,258.688c-3.22,0-3.775,2.354-3.775,4.353c0,1.998-1.11,6.329,3.221,5.996"/>
		<path style="&st0;" d="M343.617,257.503c2.223-0.197,3.896,0.096,3.673,2.095s-0.444,3.442-0.889,4.997     c-0.444,1.554-1.442,1.665-3.108,1.888"/>
		<path style="&st0;" d="M344.513,257.453c0,3.315-1.332,3.479-2.554,3.479s-17.211,0.11-18.544,0.11     c-1.332,0-1.654-0.5-1.654-2.362"/>
		<path style="&st0;" d="M318.477,174.488h-111.34v-2.937h111.34V174.488z"/>
		<path style="&st0;" d="M207.137,173.367h-3.218v-6.766h0.368"/>
		<path style="&st0;" d="M318.477,173.367h3.218v-6.766h-0.368"/>
		<path style="&st0;" d="M204.287,172.881v-8.233h1.14l2.127,0.57h5.472h41.755c0.808,0,2.441-1.002,3.596-1.029"/>
		<path style="&st0;" d="M262.426,165.994c0.86,0,1.71-0.226,2.17-0.778c0.475-0.571,2.202-1.378,2.677-1.378v-1.881     c-0.475,0-2.202-0.807-2.677-1.379c-0.46-0.553-1.31-0.778-2.17-0.778h-0.283c-0.859,0-1.71,0.226-2.169,0.778     c-0.475,0.572-2.202,1.379-2.677,1.379v1.881c0.475,0,2.202,0.807,2.677,1.378c0.459,0.553,1.31,0.778,2.169,0.778H262.426z"/>
		<path style="&st0;" d="M260.166,164.396c-0.07-0.06-0.134-0.124-0.192-0.194c-0.475-0.571-2.202-1.378-2.677-1.378"/>
		<path style="&st0;" d="M267.273,162.824c-0.475,0-2.202,0.807-2.677,1.378c-0.044,0.052-0.091,0.102-0.141,0.148"/>
		<path style="&st0;" d="M321.327,172.881v-8.233h-1.14l-2.128,0.57h-5.473h-8.679c-1.131,0-1.553-0.818-3.729-0.818l-34.454,0.02"/>
		<path style="&st0;" d="M166.844,213.798l-2.327,7.426"/>
		<path style="&st0;" d="M356.55,213.798l2.326,7.426"/>
		<path style="&st0;" d="M265.103,161.004c4.387-0.53,7.53-0.397,7.53-0.397c9.229,0,16.092,2.058,20.209,3.797"/>
		<path style="&st0;" d="M250.437,165.218c2.221-1.152,4.563-2.02,6.86-2.672"/>
		<path style="&st0;" d="M132.283,172.433l3.444,1.761"/>
		<path style="&st0;" d="M163.206,183.915l3.838,1.028"/>
		<path style="&st0;" d="M390.401,172.433l-3.444,1.761"/>
		<path style="&st0;" d="M359.478,183.915l-3.839,1.028"/>
		<path style="&st0;" d="M204.287,193.223v40.192"/>
		<path style="&st0;" d="M204.287,173.367v1.121"/>
		<path style="&st0;" d="M321.327,193.648v39.6"/>
		<path style="&st0;" d="M321.327,173.367v1.121"/>
	</g>
</g>
<g id="キャプション">
	<text transform="matrix(1 0 0 1 8.3198 42.0596)"><tspan x="0" y="0" style="&st5; &st6;">ECM</tspan></text>
	<path style="&st3;" d="M34.45,38.01h16.5l110.02,24.983"/>
	<path style="&st2;" d="M34.45,38.01h16.5l110.02,24.983"/>
	<text transform="matrix(1 0 0 1 7.8198 204.394)"><tspan x="0" y="0" style="&st5; &st6;">Headlight Cleaner</tspan><tspan x="0" y="10" style="&st5; &st6;">Control Relay</tspan></text>
	<path style="&st3;" d="M87.47,206.843h7.479l77.521-44.338"/>
	<path style="&st2;" d="M87.47,206.843h7.479l77.521-44.338"/>
	<text transform="matrix(1 0 0 1 430.2866 75.2266)"><tspan x="0" y="0" style="&st5; &st6;">ABS and Traction</tspan><tspan x="0" y="10" style="&st5; &st6;">Actuator Assembly</tspan></text>
	<path style="&st3;" d="M428.33,77.005h-11l-50.192,28.833"/>
	<path style="&st2;" d="M428.33,77.005h-11l-50.192,28.833"/>
	<a ewd:figtype="jb" ewd:code="1" style="cursor:pointer;fill:#0000ff;" onmouseover="text_mouse_over(evt)" onmouseout="text_mouse_out(evt)">
		<text transform="matrix(1 0 0 1 449.7808 105.9766)"><tspan x="0" y="0" style="&st4; &st6;">Engine Room</tspan><tspan x="0" y="10" style="&st4; &st6;">R/B</tspan><tspan x="0" y="20" style="&st4; &st6;">Engine Room</tspan><tspan x="0" y="30" style="&st4; &st6;">J/B</tspan></text>
	</a>
	<path style="&st3;" d="M448.324,117.255h-16.5l-60.687,10.583"/>
	<path style="&st2;" d="M448.324,117.255h-16.5l-60.687,10.583"/>
	<text transform="matrix(1 0 0 1 322.6577 17.2393)"><tspan x="0" y="0" style="&st5; &st6;">Air Injection Control Driver</tspan><tspan x="0" y="10" style="&st5; &st6;">(Bank 1)</tspan></text>
	<path style="&st3;" d="M380.158,31.505v8.005l-57.3,69.229"/>
	<path style="&st2;" d="M380.158,31.505v8.005l-57.3,69.229"/>
	<text transform="matrix(1 0 0 1 195.3237 17.2393)"><tspan x="0" y="0" style="&st5; &st6;">Air Injection Control Driver</tspan><tspan x="0" y="10" style="&st5; &st6;">(Bank 2)</tspan></text>
	<path style="&st3;" d="M252.824,31.505v8.005l68.768,80.783"/>
	<path style="&st2;" d="M252.824,31.505v8.005l68.768,80.783"/>
</g>
</svg>